fixrevision,buggy_revision,project,szz_date,fix_date,issuecode
a34a746b0e3f459b7d9090af55360aa968400c55,,sling,2016-07-25 10:43:10,2018-02-08T16:18:53+01:00,SLING-74
ba9f6f657d0e70cdc1c0d8938503c530a46ed9fe,,sling,2016-07-25 10:43:10,2018-02-12T11:39:07-05:00,SLING-74
a34a746b0e3f459b7d9090af55360aa968400c55,,sling,2016-07-25 10:43:10,2018-02-08T16:18:53+01:00,SLING-748
ba9f6f657d0e70cdc1c0d8938503c530a46ed9fe,,sling,2016-07-25 10:43:10,2018-02-12T11:39:07-05:00,SLING-748
