Index,Version ID,Version Name,Date
1,12314047,0.20.1,2009-09-01T00:00
2,12314205,0.20.2,2010-02-16T00:00
3,12314045,0.21.0,2010-08-23T00:00
4,12316151,0.20.203.0,2011-05-11T00:00
5,12316318,0.20.204.0,2011-09-05T00:00
6,12316391,0.20.205.0,2011-10-06T00:00
7,12315570,0.23.0,2011-11-11T00:00
8,12314184,0.22.0,2011-12-10T00:00
9,12318240,1.0.0,2011-12-27T00:00
10,12318883,0.23.1,2012-02-17T00:00
11,12319503,1.0.1,2012-02-22T00:00
12,12320047,1.0.2,2012-04-03T00:00
13,12320250,1.0.3,2012-05-07T00:00
14,12320354,2.0.0-alpha,2012-05-23T00:00
15,12322466,2.0.1-alpha,2012-07-25T00:00
16,12320060,0.23.3,2012-09-20T00:00
17,12322471,2.0.2-alpha,2012-10-09T00:00
18,12323325,1.0.4,2012-10-12T00:00
19,12317960,1.1.0,2012-10-13T00:00
20,12323264,0.23.4,2012-10-15T00:00
21,12321660,1.1.1,2012-11-27T00:00
22,12323312,0.23.5,2012-11-29T00:00
23,12323502,0.23.6,2013-02-06T00:00
24,12323275,2.0.3-alpha,2013-02-14T00:00
25,12323594,1.1.2,2013-02-15T00:00
26,12323954,0.23.7,2013-04-18T00:00
27,12324138,2.0.4-alpha,2013-04-25T00:00
28,12321661,1.2.0,2013-05-13T00:00
29,12324140,0.23.8,2013-06-05T00:00
30,12324427,2.0.5-alpha,2013-06-06T00:00
31,12324565,0.23.9,2013-07-08T00:00
32,12324149,1.2.1,2013-08-01T00:00
33,12324812,2.0.6-alpha,2013-08-22T00:00
34,12324808,2.1.1-beta,2013-09-16T00:00
35,12325050,2.2.0,2013-10-15T00:00
36,12324662,0.23.10,2013-12-09T00:00
37,12325257,2.3.0,2014-02-20T00:00
38,12326141,2.4.0,2014-04-07T00:00
39,12324663,0.23.11,2014-06-25T00:00
40,12326698,2.4.1,2014-06-30T00:00
41,12326265,2.5.0,2014-08-11T00:00
42,12327747,2.5.1,2014-09-05T00:00
43,12327180,2.6.0,2014-11-18T00:00
44,12328971,2.5.2,2014-11-19T00:00
45,12327586,2.7.0,2015-04-20T00:00
46,12331978,2.7.1,2015-07-06T00:00
47,12329004,2.6.1,2015-09-23T00:00
48,12333264,2.6.2,2015-10-28T00:00
49,12334004,2.6.3,2015-12-17T00:00
50,12332954,2.7.2,2016-01-25T00:00
51,12334242,2.6.4,2016-02-11T00:00
52,12334007,2.7.3,2016-08-25T00:00
53,12335734,3.0.0-alpha1,2016-09-03T00:00
54,12334687,2.6.5,2016-10-08T00:00
55,12337977,3.0.0-alpha2,2017-01-25T00:00
56,12329060,2.8.0,2017-03-22T00:00
57,12340641,3.0.0-alpha3,2017-05-26T00:00
58,12338133,2.8.1,2017-06-08T00:00
59,12339181,3.0.0-alpha4,2017-07-07T00:00
60,12335547,2.7.4,2017-08-04T00:00
61,12338417,3.0.0-beta1,2017-10-03T00:00
62,12340355,2.8.2,2017-10-24T00:00
63,12334217,2.9.0,2017-11-17T00:00
64,12341542,2.8.3,2017-12-12T00:00
65,12341437,3.0.0,2017-12-13T00:00
66,12341258,2.7.5,2017-12-14T00:00
67,12342132,3.0.1,2018-03-25T00:00
68,12341438,3.1.0,2018-04-06T00:00
69,12342279,2.7.6,2018-04-16T00:00
70,12342734,3.0.2,2018-04-21T00:00
71,12342134,2.9.1,2018-05-03T00:00
72,12342179,2.8.4,2018-05-15T00:00
73,12343088,2.7.7,2018-05-31T00:00
74,12343051,3.1.1,2018-08-07T00:00
75,12343059,2.8.5,2018-09-15T00:00
76,12343383,2.9.2,2018-11-19T00:00
77,12342765,3.2.0,2019-01-16T00:00
78,12344043,3.1.2,2019-02-06T00:00
79,12344363,3.2.1,2019-09-22T00:00
80,12344934,3.1.3,2019-09-23T00:00
