Bug ID,Bug Resolution Date by Jira,Classes Touched by Last Fix,Earliest AV,Version of Ticket Creation,Version of Fix,Ticket Creation Date,Fix Date (of most recent commit),Hash (of most recent commit),Git Directory
HTTPCORE-345,2013-07-03 09:02:53 +0000,RELEASE_NOTES.txt|httpcore-nio/src/main/java/org/apache/http/nio/entity/EntityAsyncContentProducer.java|httpcore-nio/src/test/java/org/apache/http/nio/integration/TestHttpAsyncPrematureTermination.java|,28,30,30,2013-07-02 20:39:46 +0000,2013-07-03 08:51:29 +0000,8ad38d6ae31ad0854abd92ec5ed20ee3b344c877,httpcomponents-core
HTTPCORE-103,2007-07-18 20:45:36 +0000,RELEASE_NOTES.txt|module-nio/src/main/java/org/apache/http/impl/nio/DefaultNHttpClientConnection.java|module-nio/src/main/java/org/apache/http/impl/nio/DefaultNHttpServerConnection.java|module-niossl/src/test/java/org/apache/http/impl/nio/reactor/TestAll.java|module-niossl/src/test/java/org/apache/http/impl/nio/reactor/TestBaseIOReactorSSL.java|,5,6,6,2007-07-17 20:51:23 +0000,2007-07-18 20:43:24 +0000,210dd9a6734cbd7210c85cdf6c79508e616fd353,httpcomponents-core
HTTPCORE-588,2019-08-10 09:55:23 +0000,httpcore5/src/main/java/org/apache/hc/core5/concurrent/ComplexCancellable.java|,56,57,57,2019-08-08 04:00:47 +0000,2019-08-09 15:01:42 +0200,1e9d57e176b142ed05f48928e36c04149c1f9385,httpcomponents-core
HTTPCORE-585,2019-07-28 21:03:32 +0000,httpcore5/src/main/java/org/apache/hc/core5/pool/LaxConnPool.java|,56,57,57,2019-07-27 19:18:46 +0000,2019-07-28 23:01:07 +0200,8696fc66757f1112a602e223b3f89096304054fc,httpcomponents-core
HTTPCORE-343,2013-06-15 16:34:56 +0000,RELEASE_NOTES.txt|httpcore-nio/src/main/java/org/apache/http/nio/pool/AbstractNIOConnPool.java|httpcore-nio/src/main/java/org/apache/http/nio/pool/LeaseRequest.java|,27,30,30,2013-06-03 08:13:43 +0000,2013-06-15 16:21:06 +0000,836d174f32886ae3da10416b2e3977f5d0824157,httpcomponents-core
HTTPCORE-102,2007-07-17 12:26:08 +0000,RELEASE_NOTES.txt|module-nio/src/main/java/org/apache/http/impl/nio/codecs/HttpMessageParser.java|module-nio/src/test/java/org/apache/http/impl/nio/codecs/TestHttpMessageParser.java|,5,6,6,2007-07-17 02:42:17 +0000,2007-07-17 12:25:04 +0000,4876a2964c52239b99426a118019142a7eb8eb75,httpcomponents-core
HTTPCORE-220,2010-03-05 17:32:29 +0000,RELEASE_NOTES.txt|,12,13,13,2010-03-05 17:29:36 +0000,2010-03-06 07:23:54 +0000,75f0a0482e90c2586fc783384a5916b6f2815890,httpcomponents-core
HTTPCORE-581,2019-06-29 10:07:58 +0000,httpcore5-testing/src/main/java/org/apache/hc/core5/benchmark/HttpBenchmark.java|httpcore5-testing/src/main/java/org/apache/hc/core5/testing/nio/LoggingIOSession.java|httpcore5/src/main/java/org/apache/hc/core5/reactor/IOSession.java|httpcore5/src/main/java/org/apache/hc/core5/reactor/IOSessionImpl.java|httpcore5/src/main/java/org/apache/hc/core5/reactor/InternalChannel.java|httpcore5/src/main/java/org/apache/hc/core5/reactor/InternalConnectChannel.java|httpcore5/src/main/java/org/apache/hc/core5/reactor/InternalDataChannel.java|httpcore5/src/main/java/org/apache/hc/core5/reactor/ssl/SSLIOSession.java|,55,56,56,2019-06-27 14:11:03 +0000,2019-06-28 16:18:52 +0200,9a1b26e06e35220fb349de2e8c4197c1ac87dcf9,httpcomponents-core
HTTPCORE-582,2019-07-09 08:36:54 +0000,httpcore5/src/main/java/org/apache/hc/core5/reactor/SingleCoreIOReactor.java|,55,56,56,2019-07-06 13:39:00 +0000,2019-07-08 16:49:32 +0200,6e81a9e3250368dcc6f125bc5864495659a749b1,httpcomponents-core
HTTPCORE-228,2010-07-02 10:09:36 +0000,RELEASE_NOTES.txt|httpcore-nio/src/main/java/org/apache/http/nio/protocol/AsyncNHttpServiceHandler.java|httpcore-nio/src/test/java/org/apache/http/nio/protocol/TestAsyncNHttpHandlers.java|,11,14,14,2010-06-11 12:18:22 +0000,2010-07-02 10:00:23 +0000,30c2b1251da8c3315f591415090eeeb43c4d62eb,httpcomponents-core
HTTPCORE-229,2010-07-13 20:06:10 +0000,RELEASE_NOTES.txt|httpcore/src/main/java/org/apache/http/impl/io/AbstractSessionInputBuffer.java|httpcore/src/test/java/org/apache/http/impl/TestSessionBuffers.java|,11,14,14,2010-07-13 13:44:01 +0000,2010-07-13 19:52:00 +0000,81401f887a11946f3ee3d3e198620a41cada964e,httpcomponents-core
HTTPCORE-108,2007-08-05 12:08:53 +0000,RELEASE_NOTES.txt|module-nio/src/main/java/org/apache/http/impl/nio/reactor/AbstractIOReactor.java|module-nio/src/main/java/org/apache/http/impl/nio/reactor/DefaultConnectingIOReactor.java|module-nio/src/main/java/org/apache/http/impl/nio/reactor/DefaultListeningIOReactor.java|module-nio/src/test/java/org/apache/http/impl/nio/reactor/TestAllImplReactor.java|module-nio/src/test/java/org/apache/http/impl/nio/reactor/TestDefaultListeningIOReactor.java|,5,6,6,2007-08-02 09:39:22 +0000,2007-08-05 12:06:28 +0000,bc20b829b44714d22da26609490642156ab96eb7,httpcomponents-core
HTTPCORE-589,2019-08-16 07:55:19 +0000,httpcore5/src/main/java/org/apache/hc/core5/pool/LaxConnPool.java|,56,57,57,2019-08-12 04:45:39 +0000,2019-08-16 09:31:26 +0200,68a1d783314de5e53291f3f7361125089d6044e6,httpcomponents-core
HTTPCORE-347,2013-09-04 13:36:41 +0000,RELEASE_NOTES.txt|httpcore/src/main/java/org/apache/http/HttpResponse.java|httpcore/src/main/java/org/apache/http/ReasonPhraseCatalog.java|httpcore/src/main/java/org/apache/http/impl/DefaultHttpResponseFactory.java|httpcore/src/main/java/org/apache/http/message/BasicHttpResponse.java|httpcore/src/test/java/org/apache/http/message/TestBasicHttpResponse.java|,30,31,31,2013-09-04 12:46:24 +0000,2013-09-04 13:35:16 +0000,536c177add6af3e901b1945b0a1b463a033c1018,httpcomponents-core
HTTPCORE-226,2010-05-07 10:21:19 +0000,RELEASE_NOTES.txt|httpcore-nio/src/main/java/org/apache/http/impl/nio/reactor/AbstractIOReactor.java|httpcore-nio/src/main/java/org/apache/http/impl/nio/reactor/DefaultConnectingIOReactor.java|,11,14,14,2010-04-30 03:58:45 +0000,2010-05-07 10:19:08 +0000,957e5fc2089706ea92d46ef695819a9a8c6f2ab7,httpcomponents-core
HTTPCORE-348,2013-09-09 12:24:12 +0000,httpcore-nio/src/main/java/org/apache/http/nio/protocol/HttpAsyncRequester.java|,30,31,31,2013-09-09 10:55:02 +0000,2013-09-09 12:22:38 +0000,005a9d129379ef2110ce0ca5ef9b6bc100b69064,httpcomponents-core
HTTPCORE-227,2010-06-09 20:51:52 +0000,RELEASE_NOTES.txt|httpcore-nio/src/main/java/org/apache/http/impl/nio/DefaultNHttpClientConnection.java|httpcore-nio/src/main/java/org/apache/http/impl/nio/DefaultNHttpServerConnection.java|,13,14,14,2010-06-08 18:25:46 +0000,2010-06-09 20:49:59 +0000,b9c03f28a2198bb5fe77290f26f0286d366167bc,httpcomponents-core
HTTPCORE-590,2019-08-16 20:36:44 +0000,httpcore5/src/main/java/org/apache/hc/core5/pool/LaxConnPool.java|,56,57,57,2019-08-13 04:39:04 +0000,2019-08-16 22:36:02 +0200,57ec4b7bc774d5c1a2c2c418444a70a31e5c9582,httpcomponents-core
HTTPCORE-598,2019-09-09 13:21:53 +0000,httpcore5-h2/src/main/java/org/apache/hc/core5/http2/impl/nio/bootstrap/H2RequesterBootstrap.java|httpcore5-h2/src/main/java/org/apache/hc/core5/http2/impl/nio/bootstrap/H2ServerBootstrap.java|httpcore5/src/main/java/org/apache/hc/core5/http/impl/bootstrap/AsyncRequesterBootstrap.java|httpcore5/src/main/java/org/apache/hc/core5/http/impl/bootstrap/AsyncServerBootstrap.java|httpcore5/src/main/java/org/apache/hc/core5/http/impl/bootstrap/ServerBootstrap.java|,56,58,58,2019-09-08 19:37:44 +0000,2019-09-09 15:14:40 +0200,22d5d41080d10e63304fcb6bc94c5c218fc1de6c,httpcomponents-core
HTTPCORE-114,2007-09-08 16:43:12 +0000,RELEASE_NOTES.txt|module-main/src/main/java/org/apache/http/HttpVersion.java|module-main/src/main/java/org/apache/http/impl/entity/StrictContentLengthStrategy.java|module-main/src/test/java/org/apache/http/impl/TestBasicRequest.java|module-main/src/test/java/org/apache/http/message/TestBasicLineParser.java|module-niossl/src/main/java/org/apache/http/impl/nio/reactor/SSLClientIOEventDispatch.java|module-niossl/src/main/java/org/apache/http/impl/nio/reactor/SSLIOSession.java|,5,6,6,2007-09-06 04:50:16 +0000,2007-09-08 16:41:24 +0000,dc354a70a839dc3e0781d2e2a5eb158408ff8031,httpcomponents-core
HTTPCORE-599,2019-09-12 08:12:52 +0000,httpcore5/src/main/java/org/apache/hc/core5/http/impl/nio/AbstractHttp1StreamDuplexer.java|httpcore5/src/main/java/org/apache/hc/core5/reactor/IOSessionImpl.java|,56,58,58,2019-09-09 21:24:37 +0000,2019-09-26 22:37:57 +0200,dac54708766ece837f2755b7928ef83e12f9e384,httpcomponents-core
HTTPCORE-236,2010-09-28 07:11:11 +0000,RELEASE_NOTES.txt|httpcore-nio/src/main/java/org/apache/http/impl/nio/reactor/SSLIOSession.java|,14,15,15,2010-09-26 08:53:30 +0000,2010-09-26 14:29:39 +0000,1ca92f229e25e745bd8b7d3ed54e12ddd9b724a2,httpcomponents-core
HTTPCORE-233,2010-09-16 20:12:54 +0000,RELEASE_NOTES.txt|,11,15,15,2010-09-16 10:16:51 +0000,2010-09-16 20:12:39 +0000,1e20ba006fd84af19fd7ca9cd58f0d3f5cbe6808,httpcomponents-core
HTTPCORE-112,2007-12-08 16:56:38 +0000,module-main/src/main/java/org/apache/http/impl/DefaultConnectionReuseStrategy.java|,5,6,7,2007-09-01 17:54:30 +0000,2007-12-08 19:42:06 +0000,4ac8710bca53628e7c3297c6a2835db810c5ca8e,httpcomponents-core
HTTPCORE-597,2019-09-07 09:32:11 +0000,httpcore5/src/main/java/org/apache/hc/core5/http/nio/entity/AsyncEntityProducers.java|,56,58,58,2019-09-05 19:09:52 +0000,2019-09-06 09:42:47 +0200,0cb51672f7316b8b4423a78bec4cab5cea4e0059,httpcomponents-core
HTTPCORE-355,2013-10-11 20:07:13 +0000,RELEASE_NOTES.txt|httpcore-nio/src/main/java/org/apache/http/nio/protocol/HttpAsyncRequestExecutor.java|httpcore-nio/src/test/java/org/apache/http/nio/protocol/TestHttpAsyncRequestExecutor.java|,30,31,31,2013-10-11 19:04:59 +0000,2013-10-11 20:05:37 +0000,9fb8c4984baba1faa6fe9e85caad5f321acf3bc0,httpcomponents-core
HTTPCORE-113,2007-09-02 16:15:48 +0000,RELEASE_NOTES.txt|module-main/src/main/java/org/apache/http/protocol/RequestTargetHost.java|module-nio/src/main/java/org/apache/http/nio/protocol/BufferingHttpClientHandler.java|module-nio/src/main/java/org/apache/http/nio/protocol/ThrottlingHttpClientHandler.java|,5,6,6,2007-08-30 14:58:24 +0000,2007-09-02 16:12:22 +0000,da62aa1b7bfda2f92f36e3cc6882c68921c15b16,httpcomponents-core
HTTPCORE-231,2010-09-08 19:53:56 +0000,RELEASE_NOTES.txt|httpcore-nio/src/main/java/org/apache/http/impl/nio/codecs/LengthDelimitedDecoder.java|,14,15,15,2010-09-02 17:30:38 +0000,2010-09-08 19:42:58 +0000,4d1384d7d2eae7533cff1aef6e1b822c6e4125e1,httpcomponents-core
HTTPCORE-595,2019-09-06 07:27:19 +0000,httpcore5/src/main/java/org/apache/hc/core5/reactor/ssl/SSLIOSession.java|,56,57,58,2019-09-04 15:28:52 +0000,2019-09-05 16:52:34 +0200,547655dfcb618da138cdaffe337a7126715dc4a2,httpcomponents-core
HTTPCORE-353,2013-10-03 07:52:19 +0000,httpcore/src/main/java/org/apache/http/HttpHost.java|httpcore/src/test/java/org/apache/http/TestHttpHost.java|,30,31,31,2013-10-02 23:11:06 +0000,2013-10-03 07:51:12 +0000,3830a3b1aa10a8ed18520184692faf09114d45be,httpcomponents-core
HTTPCORE-592,2019-08-18 09:35:17 +0000,httpcore5/src/main/java/org/apache/hc/core5/pool/LaxConnPool.java|,56,57,57,2019-08-17 18:59:54 +0000,2019-08-18 11:34:26 +0200,5c4f310850d595e3cb588c891ccb0d011e42c59f,httpcomponents-core
HTTPCORE-472,2017-06-15 13:26:06 +0000,httpcore5/src/main/java/org/apache/hc/core5/http/impl/io/SessionInputBufferImpl.java|httpcore5/src/test/java/org/apache/hc/core5/http/impl/io/TestSessionInOutBuffers.java|,43,45,45,2017-06-14 20:45:16 +0000,2017-06-15 15:21:05 +0200,09d65b9b3e4aefe9c36b1a5ee6b8d6944e411302,httpcomponents-core
HTTPCORE-351,2013-09-26 09:26:40 +0000,httpcore-nio/src/main/java/org/apache/http/nio/protocol/HttpAsyncService.java|,30,31,31,2013-09-25 15:54:53 +0000,2013-09-26 09:25:25 +0000,1c264ba5dda731621dd6cd4f2a7b791b5baf92a0,httpcomponents-core
HTTPCORE-239,2010-10-14 19:03:56 +0000,RELEASE_NOTES.txt|httpcore-nio/src/main/java/org/apache/http/impl/nio/codecs/ChunkEncoder.java|httpcore-nio/src/test/java/org/apache/http/impl/nio/codecs/TestChunkEncoder.java|,14,15,15,2010-10-14 15:15:31 +0000,2010-10-14 19:01:45 +0000,f260c89b6dcf4e175c3d314349caa4a69ea1ccaa,httpcomponents-core
HTTPCORE-118,2007-10-01 13:08:12 +0000,RELEASE_NOTES.txt|module-nio/src/main/java/org/apache/http/impl/nio/reactor/AbstractIOReactor.java|,5,6,6,2007-09-29 02:46:44 +0000,2007-10-01 13:01:33 +0000,a70e7abec9b1a8af9727d40b782a4a7d7282bf6f,httpcomponents-core
HTTPCORE-117,2007-09-30 12:57:10 +0000,RELEASE_NOTES.txt|module-nio/src/main/java/org/apache/http/nio/protocol/BufferingHttpClientHandler.java|module-nio/src/main/java/org/apache/http/nio/protocol/NHttpHandlerBase.java|module-nio/src/main/java/org/apache/http/nio/protocol/NHttpServiceHandlerBase.java|module-nio/src/main/java/org/apache/http/nio/protocol/ThrottlingHttpClientHandler.java|,5,6,6,2007-09-26 06:21:34 +0000,2007-09-30 15:32:01 +0000,dcc07d86d537aac18f210a5535d7226eba5496e0,httpcomponents-core
HTTPCORE-323,2012-11-26 21:52:05 +0000,RELEASE_NOTES.txt|,25,26,26,2012-11-24 14:02:45 +0000,2012-11-26 21:36:08 +0000,eedc926d47dc4e51b324f8ce63c8ebf51273ab5a,httpcomponents-core
HTTPCORE-445,2017-02-17 03:09:04 +0000,httpcore5/src/main/java/org/apache/hc/core5/http/impl/bootstrap/AsyncServerExchangeHandlerRegistry.java|httpcore5/src/test/java/org/apache/hc/core5/http/impl/bootstrap/TestAsyncServerExchangeHandlerRegistry.java|,42,44,44,2017-02-10 06:33:29 +0000,2017-02-17 02:59:13 +0000,c93020cbb56dccd39bb4557c53aaedd99473c0b5,httpcomponents-core
HTTPCORE-324,2012-12-27 16:21:55 +0000,httpcore/src/main/java/org/apache/http/util/EntityUtils.java|,27,28,28,2012-12-26 08:52:35 +0000,2012-12-27 16:20:34 +0000,24035d130ca1946b11d194dc8f36530702daa24a,httpcomponents-core
HTTPCORE-203,2009-08-25 11:26:49 +0000,httpcore-nio/pom.xml|httpcore/pom.xml|pom.xml|src/main/resources/NOTICE.txt|,11,12,12,2009-08-24 12:44:42 +0000,2009-08-25 11:24:24 +0000,701c024f69b0e7352f516afa9f01615973d91b6a,httpcomponents-core
HTTPCORE-442,2017-01-23 20:25:22 +0000,httpcore5/src/main/java/org/apache/hc/core5/reactor/ssl/SSLIOSession.java|,39,44,44,2017-01-20 12:56:41 +0000,2017-01-23 20:00:17 +0000,5e331f5aeb3d8aaf472fce51851a6badb8a9a9f7,httpcomponents-core
HTTPCORE-562,2018-11-04 22:04:49 +0000,RELEASE_NOTES.txt|,51,53,53,2018-11-04 22:02:40 +0000,2018-11-04 15:03:41 -0700,b8c80d1f139a335aa311b83cefc23d96e00f9c39,httpcomponents-core
HTTPCORE-560,2018-10-24 07:53:13 +0000,httpcore5/src/main/java/org/apache/hc/core5/pool/LaxConnPool.java|,52,53,53,2018-10-23 18:02:03 +0000,2018-10-24 09:37:40 +0200,c93ea4082a08a130da0afe36e0d5bfae030a21a9,httpcomponents-core
HTTPCORE-328,2013-01-18 11:13:33 +0000,httpcore/src/main/java/org/apache/http/entity/InputStreamEntity.java|httpcore/src/main/java/org/apache/http/util/EntityUtils.java|,27,28,28,2013-01-16 10:40:19 +0000,2013-01-18 11:12:08 +0000,0e4ad5bf8b51491ef3b68ab57f26e1a17bb20dd6,httpcomponents-core
HTTPCORE-207,2009-09-24 19:08:18 +0000,RELEASE_NOTES.txt|httpcore/src/main/java/org/apache/http/impl/SocketHttpClientConnection.java|httpcore/src/main/java/org/apache/http/impl/SocketHttpServerConnection.java|,11,13,13,2009-09-24 05:52:22 +0000,2009-09-24 19:07:33 +0000,05194404972ea7dadcf23785c0db9c4d3c1eba45,httpcomponents-core
HTTPCORE-568,2019-02-24 21:55:12 +0000,httpcore5-reactive/src/main/java/org/apache/hc/core5/reactive/ReactiveDataConsumer.java|httpcore5-testing/src/test/java/org/apache/hc/core5/testing/reactive/ReactiveClientTest.java|,53,55,55,2019-02-05 21:00:48 +0000,2019-02-20 10:02:26 +0100,9b898d9206950b4602930f36c5b217c6364cdee0,httpcomponents-core
HTTPCORE-447,2017-02-23 13:27:25 +0000,httpcore5/src/main/java/org/apache/hc/core5/http/HttpHost.java|httpcore5/src/main/java/org/apache/hc/core5/util/Args.java|httpcore5/src/test/java/org/apache/hc/core5/http/TestHttpHost.java|,39,44,44,2017-02-16 17:32:54 +0000,2017-02-23 13:26:36 +0000,dec1d4c66100f02d3f9dc6ceddb464c004cfeed0,httpcomponents-core
HTTPCORE-456,2017-04-24 10:07:17 +0000,httpcore5-testing/src/test/java/org/apache/hc/core5/testing/nio/Http1IntegrationTest.java|httpcore5/src/main/java/org/apache/hc/core5/concurrent/BasicFuture.java|httpcore5/src/test/java/org/apache/hc/core5/concurrent/TestBasicFuture.java|,42,44,44,2017-04-12 03:02:11 +0000,2017-04-24 10:06:38 +0000,c0815154c785054f4a66f6f2876ffa465891519c,httpcomponents-core
HTTPCORE-453,2017-04-18 07:40:47 +0000,RELEASE_NOTES.txt|httpcore5/src/main/java/org/apache/hc/core5/http/impl/bootstrap/ServerBootstrap.java|,42,44,44,2017-04-18 07:28:57 +0000,2017-04-18 07:31:27 +0000,29ca009b876d16525fdb70cc2e854ff8daf39ef7,httpcomponents-core
HTTPCORE-211,2009-12-17 11:40:23 +0000,httpcore-nio/src/main/java/org/apache/http/impl/nio/reactor/SSLIOSession.java|,11,13,13,2009-12-17 11:23:48 +0000,2009-12-17 11:35:40 +0000,ec24411fc5aa5dfdcc11ba555dc10664235f0662,httpcomponents-core
HTTPCORE-573,2019-03-29 08:02:31 +0000,httpcore5/src/main/java/org/apache/hc/core5/http/impl/nio/IdentityDecoder.java|httpcore5/src/main/java/org/apache/hc/core5/http/impl/nio/LengthDelimitedDecoder.java|httpcore5/src/test/java/org/apache/hc/core5/http/impl/nio/TestIdentityDecoder.java|httpcore5/src/test/java/org/apache/hc/core5/http/impl/nio/TestLengthDelimitedDecoder.java|,54,56,56,2019-03-26 16:44:24 +0000,2019-03-28 12:20:04 +0100,7068d0c3750cd54a136df7fadb1dbbac9cd3e201,httpcomponents-core
HTTPCORE-331,2013-01-18 14:42:36 +0000,httpcore-nio/src/main/java/org/apache/http/nio/protocol/HttpAsyncRequester.java|httpcore-nio/src/test/java/org/apache/http/nio/protocol/TestHttpAsyncRequester.java|,27,28,28,2013-01-17 22:35:03 +0000,2013-01-18 14:36:24 +0000,133bae52d575d0bde2d915397069ed75681c9c58,httpcomponents-core
HTTPCORE-218,2010-03-01 22:09:31 +0000,RELEASE_NOTES.txt|httpcore-nio/src/main/java/org/apache/http/impl/nio/codecs/ChunkEncoder.java|httpcore-nio/src/test/java/org/apache/http/impl/nio/codecs/TestChunkEncoder.java|,11,13,13,2010-03-01 19:19:23 +0000,2010-03-01 22:04:24 +0000,87da8451bab5177eb6bf544a8044c1df7cac4f69,httpcomponents-core
HTTPCORE-578,2019-05-20 14:07:40 +0000,RELEASE_NOTES.txt|,54,56,56,2019-05-19 08:35:43 +0000,2019-05-20 09:55:51 -0400,5b525196a430c1b935a5c2c8f7b10903e67dad6e,httpcomponents-core
HTTPCORE-336,2013-04-02 16:12:11 +0000,RELEASE_NOTES.txt|httpcore-nio/src/main/java/org/apache/http/impl/nio/reactor/AbstractIOReactor.java|,27,29,29,2013-03-27 11:44:36 +0000,2013-04-02 16:10:56 +0000,1bf6882dafaeeb700092b772f2002e26a7fef542,httpcomponents-core
HTTPCORE-260,2011-06-11 11:16:42 +0000,RELEASE_NOTES.txt|httpcore-nio/src/main/java/org/apache/http/impl/nio/reactor/SSLIOSession.java|,16,17,17,2011-06-11 10:55:52 +0000,2011-06-11 11:04:46 +0000,70183fd6f8835e6878502d0e0a6d0535809ddee4,httpcomponents-core
HTTPCORE-261,2011-06-27 17:30:56 +0000,RELEASE_NOTES.txt|,16,17,17,2011-06-27 04:04:32 +0000,2011-06-27 19:10:21 +0000,8536d5bbda6a0079338f98a3789e8d6fc1b9fd0d,httpcomponents-core
HTTPCORE-140,2008-01-26 12:52:38 +0000,RELEASE_NOTES.txt|module-nio/src/main/java/org/apache/http/nio/protocol/ThrottlingHttpServiceHandler.java|module-nio/src/test/java/org/apache/http/nio/protocol/TestAllProtocol.java|module-nio/src/test/java/org/apache/http/nio/protocol/TestBufferingNHttpHandlers.java|module-nio/src/test/java/org/apache/http/nio/protocol/TestThrottlingNHttpHandler.java|,6,7,8,2008-01-17 15:23:08 +0000,2008-01-26 12:43:29 +0000,3e452b0a3f8a5680471044ca0182005164d5f3ca,httpcomponents-core
HTTPCORE-268,2011-08-12 14:21:52 +0000,RELEASE_NOTES.txt|httpcore-nio/src/main/java/org/apache/http/impl/nio/reactor/SSLIOSession.java|,18,19,19,2011-08-10 13:07:41 +0000,2011-08-12 14:08:02 +0000,cc4b23b2df1ecc7b1097c795ba31d7ef7f3ca157,httpcomponents-core
HTTPCORE-147,2008-03-13 20:19:50 +0000,RELEASE_NOTES.txt|module-nio/src/main/java/org/apache/http/nio/entity/ContentInputStream.java|module-nio/src/main/java/org/apache/http/nio/protocol/ThrottlingHttpServiceHandler.java|module-nio/src/test/java/org/apache/http/nio/protocol/TestThrottlingNHttpHandlers.java|,7,8,8,2008-02-15 15:39:25 +0000,2008-03-13 20:19:44 +0000,dcdc8eaff69a3fe75dc3f1ef10fbf66a70eb3273,httpcomponents-core
HTTPCORE-269,2011-08-22 15:43:39 +0000,RELEASE_NOTES.txt|httpcore-nio/src/main/java/org/apache/http/nio/pool/AbstractNIOConnPool.java|httpcore-nio/src/main/java/org/apache/http/nio/pool/LeaseRequest.java|httpcore-nio/src/main/java/org/apache/http/nio/pool/RouteSpecificPool.java|httpcore-nio/src/test/java/org/apache/http/nio/pool/TestNIOConnPool.java|httpcore-nio/src/test/java/org/apache/http/nio/pool/TestRouteSpecificPool.java|httpcore/src/main/java/org/apache/http/pool/AbstractConnPool.java|httpcore/src/main/java/org/apache/http/pool/RouteSpecificPool.java|httpcore/src/test/java/org/apache/http/pool/TestConnPool.java|httpcore/src/test/java/org/apache/http/pool/TestRouteSpecificPool.java|,19,20,20,2011-08-22 15:36:51 +0000,2011-08-22 15:41:34 +0000,49247d208bde47f652812493e1d3576e136b8eb8,httpcomponents-core
HTTPCORE-266,2011-07-23 19:53:51 +0000,httpcore-nio/src/main/java/org/apache/http/impl/nio/reactor/SSLIOSession.java|,17,18,18,2011-07-21 18:06:39 +0000,2011-07-22 21:19:12 +0000,a9989b22cefee6cd9beebbd5c8158070befabc30,httpcomponents-core
HTTPCORE-143,2008-02-02 17:51:56 +0000,RELEASE_NOTES.txt|module-nio/src/main/java/org/apache/http/impl/nio/reactor/SessionRequestImpl.java|,7,8,8,2008-02-01 18:16:36 +0000,2008-02-02 17:51:00 +0000,e059d751b2e4047d0bcf2b14f2782ea171302ebb,httpcomponents-core
HTTPCORE-141,2008-01-18 00:29:03 +0000,RELEASE_NOTES.txt|module-nio/src/main/java/org/apache/http/impl/nio/reactor/SessionRequestImpl.java|,6,7,7,2008-01-17 19:26:02 +0000,2008-01-18 00:23:50 +0000,d585f08a48f76953604567b706e5e3c29f1f56b1,httpcomponents-core
HTTPCORE-263,2012-05-23 20:02:53 +0000,RELEASE_NOTES.txt|httpcore/src/main/java/org/apache/http/impl/io/AbstractSessionInputBuffer.java|httpcore/src/test/java/org/apache/http/impl/io/TestSessionBuffers.java|,16,17,24,2011-07-05 20:04:52 +0000,2012-05-23 19:55:05 +0000,dd00a9e6acf714dc7379a4173bace6abe81a06ca,httpcomponents-core
HTTPCORE-149,2008-03-01 14:00:20 +0000,RELEASE_NOTES.txt|module-nio/src/main/java/org/apache/http/impl/nio/reactor/BaseIOReactor.java|module-nio/src/main/java/org/apache/http/impl/nio/reactor/SessionHandle.java|,6,8,8,2008-02-19 01:47:01 +0000,2008-03-01 13:58:40 +0000,ebff9b20297007450fb659416fb8fca30b1ff3cf,httpcomponents-core
HTTPCORE-89,2007-07-06 22:18:02 +0000,RELEASE_NOTES.txt|module-nio/src/main/java/org/apache/http/impl/nio/reactor/DefaultConnectingIOReactor.java|,5,6,6,2007-07-06 17:37:09 +0000,2007-07-06 22:16:25 +0000,92ce429afb33e6983a85a0d43ceb94ccc491a487,httpcomponents-core
HTTPCORE-272,2011-09-13 12:59:03 +0000,httpcore-nio/src/examples/org/apache/http/examples/nio/NHttpReverseProxy.java|httpcore-nio/src/examples/org/apache/http/examples/nio/NHttpServer.java|httpcore-nio/src/main/java/org/apache/http/nio/protocol/AbstractAsyncResponseConsumer.java|httpcore-nio/src/main/java/org/apache/http/nio/protocol/BufferingAsyncRequestHandler.java|httpcore-nio/src/main/java/org/apache/http/nio/protocol/HttpAsyncClientExchangeHandlerImpl.java|httpcore-nio/src/main/java/org/apache/http/nio/protocol/HttpAsyncContinueTrigger.java|httpcore-nio/src/main/java/org/apache/http/nio/protocol/HttpAsyncExpectationVerifier.java|httpcore-nio/src/main/java/org/apache/http/nio/protocol/HttpAsyncRequestHandler.java|httpcore-nio/src/main/java/org/apache/http/nio/protocol/HttpAsyncResponseConsumer.java|httpcore-nio/src/main/java/org/apache/http/nio/protocol/HttpAsyncServiceHandler.java|httpcore-nio/src/main/java/org/apache/http/nio/protocol/NullRequestHandler.java|httpcore-nio/src/test/java/org/apache/http/nio/protocol/TestHttpAsyncHandlers.java|httpcore/src/main/java/org/apache/http/concurrent/BasicFuture.java|httpcore/src/main/java/org/apache/http/concurrent/Cancellable.java|httpcore/src/main/java/org/apache/http/concurrent/FutureCallback.java|,18,20,20,2011-09-04 01:45:08 +0000,2011-09-13 12:25:01 +0000,1a9e79bf3ed15ea8920c82061940eac3a0591ae3,httpcomponents-core
HTTPCORE-270,2011-08-24 09:12:56 +0000,RELEASE_NOTES.txt|httpcore/src/main/java/org/apache/http/impl/io/AbstractSessionInputBuffer.java|httpcore/src/main/java/org/apache/http/impl/io/AbstractSessionOutputBuffer.java|httpcore/src/test/java/org/apache/http/impl/TestSessionBuffers.java|httpcore/src/test/java/org/apache/http/impl/io/TestSocketOutputBuffer.java|,19,20,20,2011-08-23 14:43:31 +0000,2011-08-24 09:04:55 +0000,f95fe6c9601713cdce1b947c6d572006b7a9b8e9,httpcomponents-core
HTTPCORE-156,2008-03-29 22:59:47 +0000,module-nio/src/examples/org/apache/http/examples/nio/NHttpSSLClient.java|,7,8,8,2008-03-28 14:23:54 +0000,2008-03-31 20:56:38 +0000,fc93cb34367e4e14f348fc96e612c946c4b53e8e,httpcomponents-core
HTTPCORE-399,2015-04-23 14:33:16 +0000,httpcore-nio/src/main/java/org/apache/http/impl/nio/DefaultNHttpClientConnection.java|httpcore-nio/src/main/java/org/apache/http/impl/nio/DefaultNHttpServerConnection.java|,37,38,38,2015-04-22 10:20:27 +0000,2015-09-04 18:29:24 +0000,fb006f4b2364a6d3bd7b1ded429d0dc717490f1c,httpcomponents-core
HTTPCORE-396,2015-02-18 13:34:31 +0000,httpcore/src/main/java/org/apache/http/ssl/PrivateKeyStrategy.java|httpcore/src/main/java/org/apache/http/ssl/SSLContextBuilder.java|httpcore/src/test/java/org/apache/http/ssl/TestSSLContextBuilder.java|,36,37,37,2015-02-17 21:04:50 +0000,2015-02-18 13:25:03 +0000,96f1bf3d1de570bf08c7383746126562d01ea179,httpcomponents-core
HTTPCORE-275,2011-09-06 21:21:50 +0000,httpcore-nio/src/main/java/org/apache/http/nio/protocol/BasicAsyncRequestProducer.java|httpcore-nio/src/test/java/org/apache/http/nio/protocol/TestBasicAsyncRequestProducer.java|,19,20,20,2011-09-06 19:14:26 +0000,2011-09-06 21:20:58 +0000,97a226e08e9064fec517c5e0d348ce3a2ca56f17,httpcomponents-core
HTTPCORE-397,2015-04-13 18:33:05 +0000,httpcore/src/main/java/org/apache/http/impl/DefaultConnectionReuseStrategy.java|httpcore/src/test/java/org/apache/http/impl/TestDefaultConnectionReuseStrategy.java|,37,38,38,2015-04-10 20:26:24 +0000,2015-04-13 18:32:00 +0000,7f6dc0fdbe1b84e43b78e86229917881f0e2252a,httpcomponents-core
HTTPCORE-155,2009-03-26 22:45:32 +0000,RELEASE_NOTES.txt|httpcore-nio/src/main/java/org/apache/http/impl/nio/reactor/AbstractIOReactor.java|httpcore-nio/src/main/java/org/apache/http/impl/nio/reactor/AbstractMultiworkerIOReactor.java|httpcore-nio/src/main/java/org/apache/http/impl/nio/reactor/BaseIOReactor.java|httpcore-nio/src/main/java/org/apache/http/impl/nio/reactor/IOSessionImpl.java|httpcore-nio/src/main/java/org/apache/http/impl/nio/reactor/InterestOpEntry.java|httpcore-nio/src/main/java/org/apache/http/impl/nio/reactor/InterestOpsCallback.java|httpcore-nio/src/main/java/org/apache/http/nio/params/NIOReactorPNames.java|httpcore-nio/src/main/java/org/apache/http/nio/params/NIOReactorParams.java|httpcore-nio/src/test/java/org/apache/http/impl/nio/reactor/TestDefaultIOReactors.java|,7,8,11,2008-03-17 19:56:24 +0000,2009-03-26 22:43:26 +0000,a282431fe7031626c63c5dd85a37fd671dc54be3,httpcomponents-core
HTTPCORE-395,2015-02-11 14:24:48 +0000,httpcore/src/main/java/org/apache/http/util/VersionInfo.java|,36,37,37,2015-02-09 12:45:31 +0000,2015-02-12 09:31:11 +0000,45458d449e6209c22f03482f02f374e3a858ebda,httpcomponents-core
HTTPCORE-80,2007-06-11 15:58:44 +0000,module-nio/src/main/java/org/apache/http/impl/nio/reactor/SessionOutputBuffer.java|module-nio/src/test/java/org/apache/http/impl/nio/reactor/TestSessionInOutBuffers.java|,4,5,5,2007-06-11 14:59:12 +0000,2007-06-11 15:57:31 +0000,ef22fce270a2cffce3bcc25e31ad613b9124bf60,httpcomponents-core
HTTPCORE-71,2007-05-20 07:42:49 +0000,module-main/src/main/java/org/apache/http/params/BasicHttpParams.java|module-main/src/test/java/org/apache/http/TestAll.java|module-main/src/test/java/org/apache/http/params/TestAllParams.java|module-main/src/test/java/org/apache/http/params/TestBasicHttpParams.java|,4,5,5,2007-05-05 09:07:31 +0000,2007-05-20 07:40:37 +0000,37502bd3e05e7ae1797d3a8709ecb1e0cc516554,httpcomponents-core
HTTPCORE-75,2007-05-16 21:12:46 +0000,RELEASE_NOTES.txt|module-nio/src/main/java/org/apache/http/impl/nio/DefaultNHttpClientConnection.java|module-nio/src/main/java/org/apache/http/impl/nio/DefaultNHttpServerConnection.java|module-nio/src/main/java/org/apache/http/nio/protocol/BufferingHttpServiceHandler.java|,4,5,5,2007-05-16 17:59:42 +0000,2007-05-16 21:09:54 +0000,5466eb4df6bc4f89d0a8cdd22b790209b35a5d31,httpcomponents-core
HTTPCORE-488,2017-09-06 13:01:08 +0000,httpcore5/src/main/java/org/apache/hc/core5/reactor/InternalChannel.java|httpcore5/src/main/java/org/apache/hc/core5/reactor/InternalConnectChannel.java|,45,46,46,2017-09-05 07:57:31 +0000,2017-09-06 14:08:00 +0200,6e22c52f689597741503ce2a85881b249f4728f4,httpcomponents-core
HTTPCORE-367,2013-12-13 09:14:10 +0000,RELEASE_NOTES.txt|httpcore-nio/src/main/java/org/apache/http/impl/nio/DefaultNHttpClientConnection.java|httpcore-nio/src/main/java/org/apache/http/impl/nio/DefaultNHttpServerConnection.java|,30,31,31,2013-12-12 22:19:54 +0000,2013-12-13 09:04:32 +0000,918a4dbcb9fbf7c525aefc2fd2df6ee09a858db2,httpcomponents-core
HTTPCORE-246,2010-12-10 11:39:58 +0000,httpcore-nio/src/main/java/org/apache/http/nio/protocol/ThrottlingHttpClientHandler.java|,15,16,16,2010-12-09 23:54:51 +0000,2010-12-10 11:29:07 +0000,838d4ff71a5838d5f8c594a5a922920762731af5,httpcomponents-core
HTTPCORE-123,2007-10-12 11:57:51 +0000,RELEASE_NOTES.txt|module-niossl/src/main/java/org/apache/http/impl/nio/reactor/SSLIOSession.java|,6,7,7,2007-10-12 10:53:25 +0000,2007-10-12 11:54:37 +0000,0dc88dceedb97116a6ec9a13600a55fc40525d7b,httpcomponents-core
HTTPCORE-366,2013-12-04 21:14:42 +0000,RELEASE_NOTES.txt|httpcore-nio/src/main/java/org/apache/http/nio/reactor/ssl/SSLIOSession.java|,30,31,31,2013-11-26 16:40:20 +0000,2013-12-04 21:07:43 +0000,c20958e88ac44a0ce34f4288fd22fd13ac537bbc,httpcomponents-core
HTTPCORE-242,2010-11-22 22:21:21 +0000,httpcore-nio/src/main/java/org/apache/http/nio/protocol/AsyncNHttpClientHandler.java|,15,16,16,2010-11-20 22:51:36 +0000,2010-11-23 20:21:26 +0000,ec57be834eb4be793dfc9672b941a64856905642,httpcomponents-core
HTTPCORE-243,2010-11-29 19:45:33 +0000,httpcore-nio/src/main/java/org/apache/http/impl/nio/DefaultClientIOEventDispatch.java|httpcore-nio/src/main/java/org/apache/http/impl/nio/DefaultServerIOEventDispatch.java|httpcore-nio/src/main/java/org/apache/http/impl/nio/ssl/SSLClientIOEventDispatch.java|httpcore-nio/src/main/java/org/apache/http/impl/nio/ssl/SSLServerIOEventDispatch.java|,15,16,16,2010-11-28 13:19:47 +0000,2010-11-29 19:33:20 +0000,cadcda1ddeff70329191de82ef6e498dcd342244,httpcomponents-core
HTTPCORE-240,2010-11-02 14:11:49 +0000,RELEASE_NOTES.txt|httpcore-nio/src/main/java/org/apache/http/impl/nio/reactor/AbstractMultiworkerIOReactor.java|httpcore-nio/src/main/java/org/apache/http/impl/nio/reactor/DefaultConnectingIOReactor.java|httpcore-nio/src/main/java/org/apache/http/impl/nio/reactor/DefaultListeningIOReactor.java|httpcore-nio/src/main/java/org/apache/http/impl/nio/reactor/SessionRequestImpl.java|,11,15,15,2010-11-01 21:23:27 +0000,2010-11-02 14:02:35 +0000,96a75e8a944adefada7a0f365540db4a9bdfa3e7,httpcomponents-core
HTTPCORE-66,2007-04-24 09:10:18 +0000,RELEASE_NOTES.txt|module-nio/src/main/java/org/apache/http/impl/nio/DefaultNHttpClientConnection.java|,4,5,5,2007-04-19 20:26:13 +0000,2007-04-22 22:01:28 +0000,f4d7c061dd2eb3ec42f812164a25f715d493fdb6,httpcomponents-core
HTTPCORE-370,2014-01-31 15:58:40 +0000,RELEASE_NOTES.txt|httpcore-nio/src/main/java/org/apache/http/impl/nio/reactor/DefaultConnectingIOReactor.java|,31,32,32,2014-01-16 00:32:28 +0000,2014-01-31 15:53:32 +0000,c8806bfb9afaf91eca5351fc2dddd258af091025,httpcomponents-core
HTTPCORE-379,2014-04-28 13:15:25 +0000,httpcore-nio/src/main/java/org/apache/http/nio/protocol/HttpAsyncService.java|httpcore-nio/src/test/java/org/apache/http/nio/protocol/TestHttpAsyncService.java|,32,33,33,2014-04-27 13:53:40 +0000,2014-04-28 13:08:37 +0000,025e299b6490bed1709ec8e9df95e5b2bb00d4f6,httpcomponents-core
HTTPCORE-376,2014-03-25 12:24:00 +0000,RELEASE_NOTES.txt|httpcore-nio/src/main/java/org/apache/http/nio/pool/AbstractNIOConnPool.java|httpcore-nio/src/test/java/org/apache/http/nio/pool/TestNIOConnPool.java|,32,33,33,2014-03-25 11:25:02 +0000,2014-03-25 12:19:46 +0000,28cc2ed08299bfc8092fbbbfdced342fd37d16cf,httpcomponents-core
HTTPCORE-255,2011-04-25 14:24:07 +0000,RELEASE_NOTES.txt|httpcore/src/main/java/org/apache/http/entity/InputStreamEntity.java|,15,16,16,2011-04-20 07:14:56 +0000,2011-04-25 14:23:57 +0000,e0d832c13bc34e847ccdf78525e03d38a04abbfd,httpcomponents-core
HTTPCORE-254,2011-04-14 11:00:09 +0000,RELEASE_NOTES.txt|httpcore/src/main/java/org/apache/http/impl/io/AbstractSessionInputBuffer.java|,15,16,16,2011-04-14 10:55:51 +0000,2011-04-14 10:59:14 +0000,dfc63f8093b7681319662de738a5e2b0c54e8be8,httpcomponents-core
HTTPCORE-130,2007-11-23 08:42:26 +0000,RELEASE_NOTES.txt|module-niossl/src/main/java/org/apache/http/impl/nio/reactor/SSLClientIOEventDispatch.java|module-niossl/src/main/java/org/apache/http/impl/nio/reactor/SSLServerIOEventDispatch.java|,6,7,7,2007-11-22 12:19:20 +0000,2007-11-23 08:37:39 +0000,3a7fd09047fa3408568d4a0fdd62a11ab3c43b51,httpcomponents-core
HTTPCORE-373,2014-02-11 13:23:22 +0000,RELEASE_NOTES.txt|httpcore-nio/src/main/java/org/apache/http/nio/protocol/HttpAsyncRequestExecutor.java|httpcore-nio/src/test/java/org/apache/http/nio/integration/TestClientOutOfSequenceResponse.java|,31,32,32,2014-02-11 08:22:37 +0000,2014-02-11 13:20:38 +0000,500599af40e521774071c7ee6360ff58c57c010a,httpcomponents-core
HTTPCORE-259,2011-06-11 11:22:52 +0000,httpcore/src/main/java/org/apache/http/protocol/ResponseContent.java|,15,17,17,2011-06-11 05:51:57 +0000,2011-06-11 11:20:05 +0000,7f5ba5e7e62ae1c492b858e994b098a5ecb1ff50,httpcomponents-core
HTTPCORE-58,2007-04-03 16:44:28 +0000,RELEASE_NOTES.txt|,4,4,5,2007-03-15 01:08:00 +0000,2007-04-03 16:43:48 +0000,ad542bc3e28995a317f341b00a94fbabc937b186,httpcomponents-core
HTTPCORE-180,2009-01-19 21:03:23 +0000,RELEASE_NOTES.txt|module-nio/src/main/java/org/apache/http/impl/nio/DefaultClientIOEventDispatch.java|module-nio/src/main/java/org/apache/http/impl/nio/DefaultServerIOEventDispatch.java|module-nio/src/main/java/org/apache/http/impl/nio/SSLClientIOEventDispatch.java|module-nio/src/main/java/org/apache/http/impl/nio/SSLServerIOEventDispatch.java|,8,10,10,2009-01-15 00:31:15 +0000,2009-01-19 20:57:37 +0000,1c2ae894d2007e33ba9b1a9a91bfcc86c62b6572,httpcomponents-core
HTTPCORE-508,2018-02-02 14:59:52 +0000,httpcore5-h2/src/main/java/org/apache/hc/core5/http2/impl/nio/ClientHttp2StreamHandler.java|httpcore5/src/main/java/org/apache/hc/core5/http/impl/io/HttpRequestExecutor.java|httpcore5/src/main/java/org/apache/hc/core5/http/impl/nio/ClientHttp1StreamHandler.java|,49,51,51,2018-02-02 10:51:32 +0000,2018-02-02 15:55:59 +0100,5739fb646dd5634eb36b736683c9118c40a49b0f,httpcomponents-core
HTTPCORE-193,2009-03-19 03:42:01 +0000,RELEASE_NOTES.txt|httpcore-nio/src/main/java/org/apache/http/impl/nio/reactor/SSLIOSession.java|,10,11,11,2009-03-18 02:35:52 +0000,2009-05-03 21:16:34 +0000,7babf061d485b8ede78b219dac956b4c27c3352a,httpcomponents-core
HTTPCORE-190,2009-03-09 18:46:44 +0000,RELEASE_NOTES.txt|httpcore/src/main/java/org/apache/http/impl/io/AbstractSessionInputBuffer.java|httpcore/src/main/java/org/apache/http/impl/io/ChunkedInputStream.java|httpcore/src/test/java/org/apache/http/impl/io/TestChunkCoding.java|httpcore/src/test/java/org/apache/http/mockup/TimeoutByteArrayInputStream.java|,10,10,11,2009-02-25 09:11:30 +0000,2009-03-09 18:36:49 +0000,b06c497e3746833daab26b3e6695e610e7547336,httpcomponents-core
HTTPCORE-191,2009-03-10 19:56:53 +0000,RELEASE_NOTES.txt|httpcore/src/main/java/org/apache/http/impl/io/AbstractMessageParser.java|httpcore/src/test/java/org/apache/http/impl/io/TestChunkCoding.java|httpcore/src/test/java/org/apache/http/impl/io/TestMessageParser.java|httpcore/src/test/java/org/apache/http/impl/io/TestRequestParser.java|httpcore/src/test/java/org/apache/http/impl/io/TestResponseParser.java|httpcore/src/test/java/org/apache/http/mockup/TimeoutByteArrayInputStream.java|,10,11,11,2009-03-10 12:55:02 +0000,2009-03-10 19:52:13 +0000,2f485ed2f63148bf4be5df891506177bd3be6f2a,httpcomponents-core
HTTPCORE-198,2009-06-02 18:40:36 +0000,RELEASE_NOTES.txt|httpcore/src/main/java/org/apache/http/protocol/RequestTargetHost.java|httpcore/src/test/java/org/apache/http/protocol/TestStandardInterceptors.java|,10,11,11,2009-06-02 09:48:51 +0000,2009-06-02 18:18:51 +0000,e6b7127f695eb4d4321921a36709256f72e8e0f2,httpcomponents-core
HTTPCORE-199,2009-07-06 18:22:41 +0000,RELEASE_NOTES.txt|httpcore-nio/src/main/java/org/apache/http/nio/entity/ContentInputStream.java|httpcore-nio/src/main/java/org/apache/http/nio/util/SharedInputBuffer.java|httpcore-nio/src/main/java/org/apache/http/nio/util/SharedOutputBuffer.java|,11,12,12,2009-07-02 16:31:59 +0000,2009-07-06 18:21:14 +0000,3481060a960e10e92624ebbd0eb60d688ceb9dd5,httpcomponents-core
HTTPCORE-196,2009-05-21 14:01:23 +0000,RELEASE_NOTES.txt|httpcore-nio/src/main/java/org/apache/http/impl/nio/reactor/SSLIOSession.java|,10,11,11,2009-05-13 23:00:46 +0000,2009-05-21 13:51:46 +0000,ca751ae081352a48715fc9a00b11cda5ffe1ca6a,httpcomponents-core
HTTPCORE-197,2009-05-21 12:45:57 +0000,RELEASE_NOTES.txt|httpcore-nio/src/main/java/org/apache/http/impl/nio/codecs/ChunkDecoder.java|httpcore-nio/src/test/java/org/apache/http/impl/nio/codecs/TestChunkDecoder.java|,10,11,11,2009-05-20 00:35:30 +0000,2009-05-21 12:44:48 +0000,242ed4707075e3e86cf0394fa2870b1e289f6043,httpcomponents-core
HTTPCORE-519,2018-04-12 09:32:50 +0000,httpcore5-testing/src/test/resources/test.keystore|httpcore5/src/test/java/org/apache/hc/core5/ssl/TestSSLContextBuilder.java|httpcore5/src/test/resources/ca.keystore|httpcore5/src/test/resources/test-client.keystore|httpcore5/src/test/resources/test-keypasswd.keystore|httpcore5/src/test/resources/test-server.keystore|httpcore5/src/test/resources/test-ssl.txt|httpcore5/src/test/resources/test.keystore|test-CA/ca-cert.pem|test-CA/ca-key.pem|test-CA/openssl.cnf|,50,51,51,2018-03-19 12:07:46 +0000,2018-04-12 14:55:37 +0200,654d4a6cbae56cc73abe124ed6a38f29fb5fa8cf,httpcomponents-core
HTTPCORE-514,2018-02-24 15:38:21 +0000,httpcore5/src/main/java/org/apache/hc/core5/http/ConnectionClosedException.java|httpcore5/src/main/java/org/apache/hc/core5/http/HttpException.java|httpcore5/src/main/java/org/apache/hc/core5/http/NoHttpResponseException.java|httpcore5/src/test/java/org/apache/hc/core5/http/TestHttpExceptions.java|,50,51,51,2018-02-24 15:25:52 +0000,2018-02-24 08:46:06 -0700,458d7c628eaf8371c53ba906316ac3077235e40c,httpcomponents-core
HTTPCORE-513,2018-02-13 18:30:09 +0000,httpcore5/src/main/java/org/apache/hc/core5/http/impl/nio/ExpandableBuffer.java|,50,51,51,2018-02-09 10:45:03 +0000,2018-02-16 09:57:31 +0100,b8ff4c30677de86f4ec2ee0fadffb8d961a1193c,httpcomponents-core
HTTPCORE-282,2011-11-22 10:03:04 +0000,RELEASE_NOTES.txt|httpcore-nio/src/main/java/org/apache/http/impl/nio/NHttpConnectionBase.java|httpcore-nio/src/main/java/org/apache/http/impl/nio/reactor/IOSessionImpl.java|,18,21,21,2011-11-21 17:19:37 +0000,2011-11-22 12:16:00 +0000,a81d026c21646918fd14896791aa9ab829d02617,httpcomponents-core
HTTPCORE-283,2011-12-01 17:35:49 +0000,httpcore-nio/src/examples/org/apache/http/examples/nio/NHttpReverseProxy.java|httpcore-nio/src/examples/org/apache/http/examples/nio/NHttpServer.java|httpcore-nio/src/main/java/org/apache/http/impl/nio/DefaultClientIODispatch.java|httpcore-nio/src/main/java/org/apache/http/impl/nio/DefaultNHttpClientConnection.java|httpcore-nio/src/main/java/org/apache/http/impl/nio/DefaultNHttpClientConnectionFactory.java|httpcore-nio/src/main/java/org/apache/http/impl/nio/DefaultNHttpServerConnection.java|httpcore-nio/src/main/java/org/apache/http/impl/nio/DefaultNHttpServerConnectionFactory.java|httpcore-nio/src/main/java/org/apache/http/impl/nio/DefaultServerIODispatch.java|httpcore-nio/src/main/java/org/apache/http/impl/nio/NHttpClientProtocolHandlerAdaptor.java|httpcore-nio/src/main/java/org/apache/http/impl/nio/NHttpServerProtocolHandlerAdaptor.java|httpcore-nio/src/main/java/org/apache/http/impl/nio/SSLNHttpClientConnectionFactory.java|httpcore-nio/src/main/java/org/apache/http/impl/nio/SSLNHttpServerConnectionFactory.java|httpcore-nio/src/main/java/org/apache/http/nio/NHttpClientHandler.java|httpcore-nio/src/main/java/org/apache/http/nio/NHttpClientIOTarget.java|httpcore-nio/src/main/java/org/apache/http/nio/NHttpClientProtocolHandler.java|httpcore-nio/src/main/java/org/apache/http/nio/NHttpServerIOTarget.java|httpcore-nio/src/main/java/org/apache/http/nio/NHttpServerProtocolHandler.java|httpcore-nio/src/main/java/org/apache/http/nio/NHttpServiceHandler.java|httpcore-nio/src/main/java/org/apache/http/nio/protocol/HttpAsyncClientProtocolHandler.java|httpcore-nio/src/main/java/org/apache/http/nio/protocol/HttpAsyncServiceHandler.java|httpcore-nio/src/test/java/org/apache/http/HttpCoreNIOTestBase.java|httpcore-nio/src/test/java/org/apache/http/LoggingClientConnectionFactory.java|httpcore-nio/src/test/java/org/apache/http/LoggingNHttpClientConnection.java|httpcore-nio/src/test/java/org/apache/http/LoggingNHttpServerConnection.java|httpcore-nio/src/test/java/org/apache/http/LoggingSSLClientConnectionFactory.java|httpcore-nio/src/test/java/org/apache/http/LoggingSSLServerConnectionFactory.java|httpcore-nio/src/test/java/org/apache/http/LoggingServerConnectionFactory.java|httpcore-nio/src/test/java/org/apache/http/impl/nio/reactor/TestBaseIOReactorSSL.java|httpcore-nio/src/test/java/org/apache/http/impl/nio/reactor/TestDefaultIOReactors.java|httpcore-nio/src/test/java/org/apache/http/impl/nio/reactor/TestDefaultIOReactorsSSL.java|httpcore-nio/src/test/java/org/apache/http/nio/integration/TestAsyncNHttpHandlers.java|httpcore-nio/src/test/java/org/apache/http/nio/integration/TestHttpAsyncHandlers.java|httpcore-nio/src/test/java/org/apache/http/nio/integration/TestHttpsAsyncHandlers.java|httpcore-nio/src/test/java/org/apache/http/nio/integration/TestThrottlingNHttpHandlers.java|httpcore-nio/src/test/java/org/apache/http/nio/integration/TestTruncatedChunks.java|httpcore-nio/src/test/java/org/apache/http/nio/protocol/TestHttpAsyncClientProtocolHandler.java|httpcore-nio/src/test/java/org/apache/http/nio/protocol/TestHttpAsyncServiceHandler.java|httpcore-nio/src/test/java/org/apache/http/testserver/HttpClientNio.java|httpcore-nio/src/test/java/org/apache/http/testserver/HttpServerNio.java|httpcore-nio/src/test/java/org/apache/http/testserver/NHttpClientProtocolHandlerAdaptor.java|httpcore-nio/src/test/java/org/apache/http/testserver/NHttpServerProtocolHandlerAdaptor.java|,18,21,21,2011-11-25 11:13:33 +0000,2011-12-01 17:20:25 +0000,14d4dbc68d5fb5150ea2d0c7fa74fb05eb0f1b50,httpcomponents-core
HTTPCORE-169,2008-08-20 17:52:05 +0000,RELEASE_NOTES.txt|module-nio/src/main/java/org/apache/http/impl/nio/reactor/AbstractIOReactor.java|,8,9,9,2008-08-18 02:17:37 +0000,2008-08-20 17:47:52 +0000,42a879d89ba04b4295ffb2cdaf850e702d361fd0,httpcomponents-core
HTTPCORE-167,2008-07-22 18:03:00 +0000,module-main/src/main/java/org/apache/http/io/EofSensor.java|,8,9,9,2008-07-22 11:10:23 +0000,2008-07-22 18:01:49 +0000,68e7d5d8311b5921646027b64dfbd4ad6d0dcd1d,httpcomponents-core
HTTPCORE-289,2012-02-25 16:57:43 +0000,RELEASE_NOTES.txt|httpcore-nio/src/main/java/org/apache/http/nio/protocol/HttpAsyncService.java|httpcore-nio/src/test/java/org/apache/http/nio/integration/TestHttpAsyncHandlerCancellable.java|httpcore-nio/src/test/java/org/apache/http/nio/integration/TestHttpAsyncHandlers.java|httpcore-nio/src/test/java/org/apache/http/nio/integration/TestPipelining.java|,22,22,23,2012-01-08 16:28:17 +0000,2012-02-25 16:47:26 +0000,c8baae0e5d17445cb04c226184ea381c2c56ee56,httpcomponents-core
HTTPCORE-286,2011-12-18 13:52:22 +0000,RELEASE_NOTES.txt|httpcore-nio/src/main/java/org/apache/http/impl/nio/reactor/BaseIOReactor.java|,16,21,21,2011-12-16 21:30:50 +0000,2011-12-18 13:44:20 +0000,50029260b075cf5cd49ee1c528f7b44543ca0967,httpcomponents-core
HTTPCORE-165,2008-07-12 12:44:11 +0000,RELEASE_NOTES.txt|module-nio/src/main/java/org/apache/http/impl/nio/reactor/AbstractIOReactor.java|module-nio/src/main/java/org/apache/http/impl/nio/reactor/BaseIOReactor.java|,8,9,9,2008-07-10 21:22:37 +0000,2008-07-12 12:28:02 +0000,81dcb6762a2c4ceb5cde64b88b59aa39a7e790bb,httpcomponents-core
HTTPCORE-600,2019-09-16 20:51:26 +0000,httpcore5/src/main/java/org/apache/hc/core5/reactor/ssl/SSLIOSession.java|,51,58,58,2019-09-12 15:11:09 +0000,2019-09-16 20:49:14 +0200,116bf0c4df0d290edb51dd2795599e8faadc1469,httpcomponents-core
HTTPCORE-23,2007-01-13 14:29:22 +0000,RELEASE_NOTES.txt|module-nio/src/main/java/org/apache/http/nio/impl/reactor/DefaultConnectingIOReactor.java|,3,4,4,2007-01-12 18:21:55 +0000,2007-01-13 14:27:54 +0000,6304ae2cfc44c4ee43c196a5bb9cbc72ac4d4314,httpcomponents-core
HTTPCORE-601,2019-09-18 08:52:29 +0000,httpcore5/src/main/java/org/apache/hc/core5/reactor/ssl/SSLIOSession.java|,56,58,58,2019-09-13 16:15:16 +0000,2019-09-18 10:51:25 +0200,b10bd3061fca534322d041fa8a5e4e2ed91eeda5,httpcomponents-core
HTTPCORE-22,2007-01-05 18:16:33 +0000,module-main/src/main/java/org/apache/http/impl/SocketHttpClientConnection.java|,3,4,4,2007-01-05 18:08:24 +0000,2007-01-05 18:14:10 +0000,ee6efe93b0e345ab1e861b044499b72119c6b9a3,httpcomponents-core
HTTPCORE-24,2007-01-13 17:23:14 +0000,RELEASE_NOTES.txt|module-nio/src/main/java/org/apache/http/nio/impl/DefaultNHttpClientConnection.java|module-nio/src/main/java/org/apache/http/nio/impl/DefaultNHttpServerConnection.java|module-nio/src/main/java/org/apache/http/nio/impl/NHttpConnectionBase.java|,3,4,4,2007-01-12 18:26:50 +0000,2007-01-13 17:21:36 +0000,90c02901481cef3490876b73157d174d2926415e,httpcomponents-core
HTTPCORE-29,2007-01-26 18:00:59 +0000,module-nio/src/main/java/org/apache/http/nio/impl/reactor/AbstractIOReactor.java|module-nio/src/main/java/org/apache/http/nio/impl/reactor/AbstractMultiworkerIOReactor.java|module-nio/src/main/java/org/apache/http/nio/impl/reactor/BaseIOReactor.java|module-nio/src/main/java/org/apache/http/nio/impl/reactor/DefaultConnectingIOReactor.java|module-nio/src/main/java/org/apache/http/nio/impl/reactor/DefaultListeningIOReactor.java|module-nio/src/main/java/org/apache/http/nio/reactor/IOReactorException.java|module-nio/src/main/java/org/apache/http/nio/reactor/IOReactorExceptionHandler.java|,3,4,4,2007-01-24 01:05:44 +0000,2007-01-26 17:53:04 +0000,5a7634af3c8304d44a4d3ceb9f7490655e76ce1d,httpcomponents-core
HTTPCORE-28,2007-01-24 21:39:41 +0000,RELEASE_NOTES.txt|module-nio/src/examples/org/apache/http/nio/examples/NHttpClient.java|module-nio/src/main/java/org/apache/http/nio/impl/reactor/DefaultConnectingIOReactor.java|module-nio/src/main/java/org/apache/http/nio/impl/reactor/SessionRequestImpl.java|module-nio/src/main/java/org/apache/http/nio/impl/reactor/SessionRequestQueue.java|module-nio/src/main/java/org/apache/http/nio/reactor/ConnectingIOReactor.java|,3,4,4,2007-01-23 23:39:48 +0000,2007-01-24 21:37:32 +0000,b33512440c7b6c3dcb2777eff5ea28eae957278a,httpcomponents-core
HTTPCORE-172,2008-09-20 11:54:38 +0000,module-nio/src/main/java/org/apache/http/nio/util/SharedOutputBuffer.java|,8,9,9,2008-08-28 21:47:32 +0000,2008-09-20 11:52:02 +0000,3802d87f304f2965397ef79ba4f7283f90478988,httpcomponents-core
HTTPCORE-170,2008-08-29 08:45:16 +0000,RELEASE_NOTES.txt|module-nio/src/main/java/org/apache/http/nio/util/SharedOutputBuffer.java|,8,9,9,2008-08-27 20:04:47 +0000,2008-08-29 08:37:42 +0000,6817ab4a5f7e0a37d98aca26ade691362232b382,httpcomponents-core
HTTPCORE-171,2008-08-29 08:46:09 +0000,module-main/src/main/java/org/apache/http/impl/SocketHttpServerConnection.java|,8,9,9,2008-08-28 16:36:39 +0000,2008-08-29 08:42:39 +0000,cb8e5d28466af959beda869fc60ad6895a833619,httpcomponents-core
HTTPCORE-299,2012-06-06 19:59:40 +0000,RELEASE_NOTES.txt|httpcore/src/main/java/org/apache/http/entity/ContentType.java|,23,24,24,2012-06-06 18:45:29 +0000,2012-06-06 19:57:50 +0000,0fdb8f0a2ce73a777e5f4d507dbdc4d230fe5698,httpcomponents-core
HTTPCORE-298,2012-05-06 13:09:20 +0000,RELEASE_NOTES.txt|httpcore-nio/src/main/java/org/apache/http/nio/reactor/ssl/SSLIOSession.java|,21,23,24,2012-05-01 23:51:19 +0000,2012-05-06 13:06:09 +0000,53d05d032131689b4794ce4c4ed1987511f12790,httpcomponents-core
HTTPCORE-174,2008-10-07 19:20:12 +0000,RELEASE_NOTES.txt|module-main/src/main/java/org/apache/http/impl/io/ContentLengthInputStream.java|module-main/src/test/java/org/apache/http/impl/io/TestContentLengthInputStream.java|,8,9,9,2008-09-30 13:19:33 +0000,2008-10-07 19:19:21 +0000,240bdffbab893db9ae19e35ccb740b304ab7bbc8,httpcomponents-core
HTTPCORE-296,2012-03-18 15:55:17 +0000,httpcore-nio/src/main/java/org/apache/http/impl/nio/DefaultNHttpServerConnection.java|httpcore-nio/src/main/java/org/apache/http/impl/nio/NHttpConnectionBase.java|httpcore-nio/src/test/java/org/apache/http/nio/integration/TestHttpAsyncHandlers.java|httpcore/src/main/java/org/apache/http/impl/AbstractHttpServerConnection.java|httpcore/src/main/java/org/apache/http/impl/entity/DisallowIdentityContentLengthStrategy.java|httpcore/src/test/java/org/apache/http/impl/entity/TestDisallowIdentityContentLengthStrategy.java|httpcore/src/test/java/org/apache/http/integration/TestSyncHttp.java|httpcore/src/test/java/org/apache/http/testserver/HttpClient.java|,20,23,23,2012-03-12 16:51:22 +0000,2012-03-18 15:31:37 +0000,91d9855ed26bd4ea72871ca3a2a3c484b13d606e,httpcomponents-core
HTTPCORE-422,2016-06-18 12:19:04 +0000,httpcore5/src/main/java/org/apache/hc/core5/http/impl/nio/HttpAsyncRequestExecutor.java|,41,41,42,2016-05-31 15:50:08 +0000,2016-06-18 12:17:21 +0000,3480f034c051c33f55c099fbf28b19d5506cfb7d,httpcomponents-core
HTTPCORE-423,2016-06-11 14:59:25 +0000,httpcore5/src/main/java/org/apache/hc/core5/http/entity/ContentType.java|,39,41,42,2016-06-09 09:17:39 +0000,2016-06-11 15:11:54 +0000,92f2375c07e81c06178ff02d872d4792fc800675,httpcomponents-core
HTTPCORE-420,2016-04-21 10:44:14 +0000,httpcore5/src/main/java/org/apache/hc/core5/http/bootstrap/io/HttpServer.java|httpcore5/src/main/java/org/apache/hc/core5/http/bootstrap/io/WorkerPoolExecutor.java|,38,41,41,2016-03-29 15:13:35 +0000,2016-04-21 10:43:20 +0000,45c77307fc0b4c1f9b5cb5f11460910e215d9745,httpcomponents-core
HTTPCORE-309,2012-09-12 21:53:36 +0000,RELEASE_NOTES.txt|httpcore-nio/src/main/java/org/apache/http/nio/protocol/BasicAsyncRequestConsumer.java|httpcore-nio/src/main/java/org/apache/http/nio/protocol/BasicAsyncResponseConsumer.java|httpcore-nio/src/main/java/org/apache/http/nio/protocol/HttpAsyncRequestExecutor.java|httpcore-nio/src/test/java/org/apache/http/nio/protocol/TestHttpAsyncRequestExecutor.java|,24,25,25,2012-09-11 23:54:51 +0000,2012-09-12 21:47:34 +0000,d0ba921e79018085b261e7fc0aa93319b4795226,httpcomponents-core
HTTPCORE-428,2016-07-23 13:12:41 +0000,httpcore5/src/main/java/org/apache/hc/core5/reactor/ssl/SSLIOSession.java|,41,42,42,2016-07-20 16:00:08 +0000,2016-07-23 13:11:52 +0000,5ff0b332487c68c50eb1af910427fd5a81f3af72,httpcomponents-core
HTTPCORE-429,2016-12-02 19:09:16 +0000,httpcore5/src/main/java/org/apache/hc/core5/pool/nio/AbstractNIOConnPool.java|,41,42,42,2016-08-01 09:19:46 +0000,2016-12-02 18:56:41 +0000,9c7152da6b832ef7112d0cc6c490dcdb8d6060d1,httpcomponents-core
HTTPCORE-427,2016-07-23 11:04:48 +0000,httpcore5/src/main/java/org/apache/hc/core5/reactor/ssl/SSLIOSession.java|,41,42,42,2016-07-18 20:48:33 +0000,2016-07-23 11:03:23 +0000,9eaa2e4ee7bc6c5df482b8e6c96457fd18f1a0c6,httpcomponents-core
HTTPCORE-312,2012-09-18 19:03:02 +0000,RELEASE_NOTES.txt|httpcore-nio/src/main/java/org/apache/http/impl/nio/codecs/LengthDelimitedEncoder.java|,23,25,25,2012-09-17 16:08:32 +0000,2012-09-18 19:01:17 +0000,f05b204cbbdb3de17c71b7189352a9dc1111b189,httpcomponents-core
HTTPCORE-434,2016-10-08 11:19:03 +0000,httpcore5/src/main/java/org/apache/hc/core5/http/impl/DefaultConnectionReuseStrategy.java|httpcore5/src/test/java/org/apache/hc/core5/http/impl/TestDefaultConnectionReuseStrategy.java|,41,42,42,2016-10-04 10:44:44 +0000,2016-10-08 11:13:00 +0000,2b95f256f97dcfa8ec95bb3e5a96182224094c02,httpcomponents-core
HTTPCORE-313,2012-09-20 19:29:31 +0000,RELEASE_NOTES.txt|httpcore/src/main/java/org/apache/http/entity/ContentType.java|httpcore/src/main/java/org/apache/http/util/Args.java|httpcore/src/main/java/org/apache/http/util/Asserts.java|httpcore/src/main/java/org/apache/http/util/EntityUtils.java|httpcore/src/main/java/org/apache/http/util/TextUtils.java|httpcore/src/test/java/org/apache/http/util/TestArgs.java|httpcore/src/test/java/org/apache/http/util/TestAsserts.java|,24,25,25,2012-09-19 13:24:45 +0000,2012-09-20 19:04:00 +0000,0a6cc7b4ad5103b026aa65bcd53a1029828db156,httpcomponents-core
HTTPCORE-310,2012-09-14 13:50:05 +0000,RELEASE_NOTES.txt|httpcore-nio/src/test/java/org/apache/http/nio/integration/TestHttpAsyncHandlers.java|httpcore/src/main/java/org/apache/http/impl/DefaultConnectionReuseStrategy.java|httpcore/src/test/java/org/apache/http/impl/TestDefaultConnectionReuseStrategy.java|httpcore/src/test/java/org/apache/http/integration/TestSyncHttp.java|,24,25,25,2012-09-11 14:27:39 +0000,2012-09-14 13:39:04 +0000,199b199f666140855cc812700d0d07e063e06b6f,httpcomponents-core
HTTPCORE-319,2013-01-18 22:06:12 +0000,RELEASE_NOTES.txt|httpcore-nio/src/main/java/org/apache/http/nio/protocol/HttpAsyncRequestExecutor.java|httpcore-nio/src/main/java/org/apache/http/nio/protocol/HttpAsyncService.java|httpcore-nio/src/main/java/org/apache/http/nio/reactor/ssl/SSLIOSession.java|,25,26,28,2012-10-15 22:15:39 +0000,2013-01-23 11:29:51 +0000,454a916e891112c69a85d5601748abbe4475288c,httpcomponents-core
HTTPCORE-316,2012-10-14 12:06:58 +0000,RELEASE_NOTES.txt|httpcore/src/main/java/org/apache/http/message/HeaderGroup.java|httpcore/src/test/java/org/apache/http/message/TestHeaderGroup.java|,25,26,26,2012-10-12 18:01:19 +0000,2012-10-14 11:57:42 +0000,c634076138057c16d4c322e0374ff8c48717407d,httpcomponents-core
HTTPCORE-435,2016-10-15 19:14:27 +0000,httpcore5/src/main/java/org/apache/hc/core5/http/config/ConnectionConfig.java|,40,42,42,2016-10-14 17:50:56 +0000,2016-10-15 19:11:41 +0000,9c7e2b3fdd790def5deeda1f12eae987527b2011,httpcomponents-core
HTTPCORE-315,2012-10-03 14:47:31 +0000,RELEASE_NOTES.txt|httpcore-nio/src/main/java/org/apache/http/nio/pool/AbstractNIOConnPool.java|httpcore-nio/src/main/java/org/apache/http/nio/pool/RouteSpecificPool.java|httpcore-nio/src/test/java/org/apache/http/nio/pool/TestRouteSpecificPool.java|,25,26,26,2012-10-03 01:11:45 +0000,2012-10-03 14:34:44 +0000,37d28ba804adb89212f027f570ff6f8c19ecbfb7,httpcomponents-core
HTTPCORE-409,2015-09-28 08:12:38 +0000,httpcore-nio/src/main/java/org/apache/http/impl/nio/bootstrap/HttpServer.java|,38,39,39,2015-09-25 19:07:17 +0000,2015-09-28 08:09:22 +0000,76c3a90e12350edc149fbe8b92d575cf47236a5f,httpcomponents-core
HTTPCORE-528,2018-06-26 13:56:49 +0000,httpcore5/src/main/java/org/apache/hc/core5/reactor/ssl/SSLIOSession.java|,50,51,51,2018-06-21 23:56:17 +0000,2018-06-26 14:39:38 +0200,1a10681f41e35f4660e71c9e8058089613af427c,httpcomponents-core
HTTPCORE-403,2015-06-04 07:33:08 +0000,httpcore-nio/src/main/java/org/apache/http/nio/protocol/HttpAsyncRequestExecutor.java|httpcore-nio/src/test/java/org/apache/http/nio/integration/TestHttpAsyncTimeout.java|,37,38,38,2015-06-03 13:22:47 +0000,2015-06-04 07:31:24 +0000,eaa2451026bbdb5976b190fc32bfd554328b7449,httpcomponents-core
HTTPCORE-538,2018-07-15 10:39:58 +0000,httpcore5/src/main/java/org/apache/hc/core5/http/protocol/HttpCoreContext.java|,49,52,52,2018-07-15 01:08:38 +0000,2018-07-15 12:35:55 +0200,b275fd2bb24905e0ebf61368788fc0f4aa565045,httpcomponents-core
HTTPCORE-417,2016-01-27 09:51:02 +0000,httpcore5/src/main/java/org/apache/hc/core5/reactor/ssl/SSLIOSession.java|,39,41,41,2016-01-19 19:49:38 +0000,2016-01-27 09:46:25 +0000,94aa6822ea2fafc3324438282a0800f8ef3749d5,httpcomponents-core
HTTPCORE-416,2016-01-08 21:27:44 +0000,httpcore/src/main/java/org/apache/hc/core5/reactor/DefaultConnectingIOReactor.java|,39,41,41,2016-01-04 16:26:04 +0000,2016-01-08 21:25:06 +0000,a03b1ecaf714a199f8123db8e14b70dac376c170,httpcomponents-core
