Bug ID,Bug Resolution Date by Jira,Classes Touched by Last Fix,Earliest AV,Version of Ticket Creation,Version of Fix,Ticket Creation Date,Fix Date (of most recent commit),Hash (of most recent commit),Git Directory
HARMONY-5323,2007-12-18 19:09:07 +0000,modules/text/src/main/java/java/text/MessageFormat.java|modules/text/src/test/java/org/apache/harmony/text/tests/java/text/MessageFormatTest.java|,1,2,2,2007-12-18 11:21:00 +0000,2007-12-18 19:06:44 +0000,39ebcd2870a874af78e82337c06010137dddfcec,harmony-classlib
HARMONY-5358,2007-12-29 10:24:32 +0000,modules/luni/src/main/native/luni/shared/luniglob.c|,1,2,2,2007-12-29 10:12:03 +0000,2007-12-29 10:23:21 +0000,520dec7b50cc8244c2589a6efe29f137368b3c38,harmony-classlib
HARMONY-5475,2008-02-13 15:36:04 +0000,modules/luni/src/main/java/java/util/TreeMap.java|modules/luni/src/test/api/common/org/apache/harmony/luni/tests/java/util/RefSortedMap.java|modules/luni/src/test/api/common/org/apache/harmony/luni/tests/java/util/SortedMapTestBase.java|modules/luni/src/test/api/common/org/apache/harmony/luni/tests/java/util/TreeMapRndTest.java|,1,2,2,2008-02-08 12:52:36 +0000,2008-02-13 15:33:52 +0000,21441f92229eff1951fa395ef5e9e185010eb739,harmony-classlib
HARMONY-5530,2008-03-03 12:35:08 +0000,modules/nio/src/main/java/common/org/apache/harmony/nio/internal/PipeImpl.java|,1,2,3,2008-02-19 14:54:17 +0000,2008-03-03 12:33:59 +0000,67e305817532c91f6ba9d19c0fbfed6f5997b18f,harmony-classlib
HARMONY-5658,2008-03-27 14:40:52 +0000,modules/jndi/src/main/java/org/apache/harmony/jndi/provider/ldap/LdapContextImpl.java|modules/jndi/src/main/java/org/apache/harmony/jndi/provider/ldap/LdapSchemaAttrDefContextImpl.java|modules/jndi/src/main/java/org/apache/harmony/jndi/provider/ldap/LdapSchemaClassDefContextImpl.java|modules/jndi/src/main/java/org/apache/harmony/jndi/provider/ldap/LdapSchemaContextImpl.java|modules/jndi/src/main/java/org/apache/harmony/jndi/provider/ldap/LdapSearchResult.java|modules/jndi/src/main/java/org/apache/harmony/jndi/provider/ldap/LdapUtils.java|modules/jndi/src/test/java/org/apache/harmony/jndi/provider/ldap/LdapUtilsTest.java|,2,3,3,2008-03-27 07:04:22 +0000,2008-03-27 14:42:19 +0000,999de2498923d513ec6191dd73e150ab2781fb65,harmony-classlib
HARMONY-5626,2008-03-31 13:34:20 +0000,depends/files/bootclasspath.properties|,2,3,3,2008-03-20 15:56:47 +0000,2008-03-31 16:03:40 +0000,3c06f3f77fba0f662be9d667ecd53b00fa44e201,harmony-classlib
HARMONY-5670,2008-04-01 03:45:44 +0000,modules/jndi/src/main/java/org/apache/harmony/jndi/provider/ldap/LdapClient.java|modules/jndi/src/main/java/org/apache/harmony/jndi/provider/ldap/LdapContextImpl.java|modules/jndi/src/test/java/org/apache/harmony/jndi/provider/ldap/LdapContextServerMockedTest.java|modules/jndi/src/test/java/org/apache/harmony/jndi/provider/ldap/MockLdapClient.java|modules/jndi/src/test/java/org/apache/harmony/jndi/provider/ldap/ReferralExceptionTest.java|modules/jndi/src/test/java/org/apache/harmony/jndi/provider/ldap/ldapURLContextTest.java|modules/jndi/src/test/java/org/apache/harmony/jndi/provider/ldap/mock/MockLdapServer.java|,2,3,3,2008-03-31 08:08:33 +0000,2008-04-01 03:47:21 +0000,eef49ae89de7fe26a594b0c48819970b6b4b183e,harmony-classlib
HARMONY-5711,2008-04-10 11:13:27 +0000,modules/beans/src/main/java/org/apache/harmony/beans/editors/BooleanEditor.java|modules/beans/src/test/java/org/apache/harmony/beans/tests/java/beans/PropertyEditorManagerTest.java|,2,3,3,2008-04-10 02:59:58 +0000,2008-04-10 11:14:05 +0000,e50fabee509c11c95745e90d5cbcd2e362cd8d54,harmony-classlib
HARMONY-5731,2008-04-17 07:39:38 +0000,modules/sql/src/main/java/org/apache/harmony/sql/internal/nls/messages.properties|modules/sql/src/main/java/org/apache/harmony/sql/internal/rowset/CachedRowSetImpl.java|modules/sql/src/main/java/org/apache/harmony/sql/internal/rowset/FilteredRowSetImpl.java|modules/sql/src/main/java/org/apache/harmony/sql/internal/rowset/JoinRowSetImpl.java|modules/sql/src/main/java/org/apache/harmony/sql/internal/rowset/WebRowSetImpl.java|modules/sql/src/test/java/org/apache/harmony/sql/tests/internal/rowset/CachedRowSetImplTest.java|modules/sql/src/test/java/org/apache/harmony/sql/tests/internal/rowset/JdbcRowSetTest.java|modules/sql/src/test/java/org/apache/harmony/sql/tests/internal/rowset/JoinRowSetCachedRowSetTest.java|modules/sql/src/test/java/org/apache/harmony/sql/tests/internal/rowset/JoinRowSetJoinTest.java|modules/sql/src/test/java/org/apache/harmony/sql/tests/internal/rowset/JoinRowSetOtherTest.java|modules/sql/src/test/java/org/apache/harmony/sql/tests/internal/rowset/JoinRowSetResultSetTest.java|modules/sql/src/test/java/org/apache/harmony/sql/tests/internal/rowset/JoinRowSetWebRowSetTest.java|,2,3,3,2008-04-15 07:29:47 +0000,2008-04-17 07:37:50 +0000,a2f6801a15093b05b41ae5fcbc097b4faf2c2c60,harmony-classlib
HARMONY-5762,2008-04-18 09:26:05 +0000,modules/sql/src/main/java/org/apache/harmony/sql/internal/nls/messages.properties|modules/sql/src/main/java/org/apache/harmony/sql/internal/rowset/CachedRowSetImpl.java|modules/sql/src/main/java/org/apache/harmony/sql/internal/rowset/CachedRowSetReader.java|modules/sql/src/main/java/org/apache/harmony/sql/internal/rowset/CachedRowSetWriter.java|modules/sql/src/main/java/org/apache/harmony/sql/internal/rowset/JoinRowSetImpl.java|modules/sql/src/test/java/org/apache/harmony/sql/tests/internal/rowset/CachedRowSetGetTest.java|modules/sql/src/test/java/org/apache/harmony/sql/tests/internal/rowset/CachedRowSetImplTest.java|modules/sql/src/test/java/org/apache/harmony/sql/tests/internal/rowset/CachedRowSetStreamTest.java|modules/sql/src/test/java/org/apache/harmony/sql/tests/internal/rowset/JdbcRowSetTest.java|modules/sql/src/test/java/org/apache/harmony/sql/tests/internal/rowset/JoinRowSetOtherTest.java|modules/sql/src/test/java/org/apache/harmony/sql/tests/internal/rowset/JoinRowSetTest.java|modules/sql/src/test/java/org/apache/harmony/sql/tests/internal/rowset/XmlReaderTest.java|,2,3,3,2008-04-18 06:56:29 +0000,2008-04-18 09:17:50 +0000,fa9eeb2c88077b9a3f49a6e3e59cab4183bf0078,harmony-classlib
HARMONY-5773,2008-04-22 07:37:55 +0000,modules/sql/src/test/java/org/apache/harmony/sql/tests/internal/rowset/CachedRowSetStreamTest.java|,2,3,3,2008-04-22 06:00:44 +0000,2008-04-22 07:40:10 +0000,26e1076fa9009cb631f6ca11c974342755c9024e,harmony-classlib
HARMONY-5716,2008-04-22 10:09:22 +0000,modules/jndi/src/main/java/org/apache/harmony/jndi/provider/ldap/LdapContextImpl.java|modules/jndi/src/main/java/org/apache/harmony/jndi/provider/ldap/LdapSchemaContextImpl.java|modules/jndi/src/main/java/org/apache/harmony/jndi/provider/ldap/parser/SchemaParser.java|modules/jndi/src/test/java/org/apache/harmony/jndi/provider/ldap/LdapSchemaContextTest.java|,2,3,3,2008-04-11 07:08:40 +0000,2008-04-22 10:11:49 +0000,aa0f292c6b8b3fab2462e3e5da6a7a4b264da777,harmony-classlib
HARMONY-5775,2008-04-22 16:07:55 +0000,modules/sql/src/test/java/org/apache/harmony/sql/tests/internal/rowset/CachedRowSetTestCase.java|,2,3,3,2008-04-22 10:23:54 +0000,2008-04-22 16:10:20 +0000,2a62703a8a671d79c19bb0d52d8ae1d83d98d2a2,harmony-classlib
HARMONY-5782,2008-04-23 15:32:40 +0000,modules/jndi/src/main/java/org/apache/harmony/jndi/provider/ldap/ExtendedOp.java|modules/jndi/src/main/java/org/apache/harmony/jndi/provider/ldap/LdapContextImpl.java|modules/jndi/src/main/java/org/apache/harmony/jndi/provider/ldap/LdapMessage.java|modules/jndi/src/test/java/org/apache/harmony/jndi/provider/ldap/LdapContextServerMockedTest.java|modules/jndi/src/test/java/org/apache/harmony/jndi/provider/ldap/mock/MockLdapServer.java|,2,3,3,2008-04-23 10:32:14 +0000,2008-04-23 15:35:17 +0000,e5000986c448fb86e67f8cd4be9ce2fd6da4d5e2,harmony-classlib
HARMONY-5781,2008-04-24 05:56:29 +0000,modules/jndi/src/main/java/org/apache/harmony/jndi/internal/nls/messages.properties|modules/jndi/src/main/java/org/apache/harmony/jndi/provider/ldap/LdapSchemaContextImpl.java|modules/jndi/src/main/java/org/apache/harmony/jndi/provider/ldap/parser/SchemaParser.java|modules/jndi/src/test/java/org/apache/harmony/jndi/provider/ldap/LdapSchemaContextImplTest.java|modules/jndi/src/test/java/org/apache/harmony/jndi/provider/ldap/LdapSchemaContextTest.java|,2,3,3,2008-04-23 10:25:36 +0000,2008-04-24 05:58:33 +0000,246c52c87a2367fd97f5771dcb067ae11047e676,harmony-classlib
HARMONY-5786,2008-04-24 10:14:19 +0000,modules/jndi/src/main/java/org/apache/harmony/jndi/provider/ldap/LdapContextImpl.java|modules/jndi/src/main/java/org/apache/harmony/jndi/provider/ldap/UnsolicitedNotificationImpl.java|modules/jndi/src/test/java/org/apache/harmony/jndi/provider/ldap/LdapContextServerMockedTest.java|modules/jndi/src/test/java/org/apache/harmony/jndi/provider/ldap/mock/BindResponse.java|modules/jndi/src/test/java/org/apache/harmony/jndi/provider/ldap/mock/DisconnectResponse.java|modules/jndi/src/test/java/org/apache/harmony/jndi/provider/ldap/mock/MockLdapServer.java|,2,3,3,2008-04-24 08:14:15 +0000,2008-04-24 10:16:47 +0000,943f349e39b937208c957d76b7d6711c8d4ef0b6,harmony-classlib
HARMONY-5793,2008-04-25 11:01:59 +0000,modules/jndi/src/main/java/org/apache/harmony/jndi/provider/ldap/LdapContextImpl.java|modules/jndi/src/main/java/org/apache/harmony/jndi/provider/ldap/asn1/ASN1LdapFilter.java|modules/jndi/src/main/java/org/apache/harmony/jndi/provider/ldap/ldapURLContext.java|modules/jndi/src/test/java/org/apache/harmony/jndi/provider/ldap/FilterTest.java|modules/jndi/src/test/java/org/apache/harmony/jndi/provider/ldap/LdapContextImplTest.java|,2,3,3,2008-04-25 07:36:42 +0000,2008-04-25 10:33:18 +0000,aa7a7c1d9c9a28d4a3b18e1255fad3a8dce2621c,harmony-classlib
HARMONY-5796,2008-05-01 08:12:45 +0000,modules/pack200/src/main/java5/org/apache/harmony/unpack200/Pack200UnpackerAdapter.java|,2,3,3,2008-04-25 21:10:26 +0000,2008-05-01 08:13:28 +0000,614d98248ba0e8a828cedfd174476597305e011a,harmony-classlib
HARMONY-5832,2008-05-21 05:22:37 +0000,modules/jndi/src/main/java/org/apache/harmony/jndi/provider/ldap/LdapContextImpl.java|modules/jndi/src/test/java/org/apache/harmony/jndi/provider/ldap/ExtendedOpTest.java|modules/jndi/src/test/java/org/apache/harmony/jndi/provider/ldap/LdapContextImplTest.java|modules/jndi/src/test/java/org/apache/harmony/jndi/provider/ldap/LdapContextServerMockedTest.java|modules/jndi/src/test/java/org/apache/harmony/jndi/provider/ldap/ReferralExceptionTest.java|,2,4,4,2008-05-20 10:15:55 +0000,2008-05-21 05:20:52 +0000,343ed80cd6891cde42edaf6e81965199be4aa867,harmony-classlib
HARMONY-5831,2008-05-22 09:27:28 +0000,modules/beans/src/main/java/java/beans/XMLDecoder.java|modules/beans/src/main/java/org/apache/harmony/beans/internal/nls/messages.properties|modules/beans/src/test/java/org/apache/harmony/beans/tests/java/beans/XMLDecoderTest.java|modules/beans/src/test/resources/xml/MockOwner.xml|modules/beans/src/test/resources/xml/MockOwner_Ambiguous.xml|modules/beans/src/test/resources/xml/MockOwner_Null.xml|modules/beans/src/test/resources/xml/MockOwner_Specific.xml|modules/beans/src/test/support/java/org/apache/harmony/beans/tests/support/MockOwnerClass.java|,3,4,4,2008-05-20 07:39:46 +0000,2008-05-22 09:25:53 +0000,084bbec2706daa43392e239f17260aed44653e33,harmony-classlib
HARMONY-5840,2008-05-26 08:45:46 +0000,modules/beans/src/main/java/java/beans/Statement.java|modules/beans/src/main/java/java/beans/XMLDecoder.java|modules/beans/src/main/java/org/apache/harmony/beans/internal/nls/messages.properties|modules/beans/src/test/java/org/apache/harmony/beans/tests/java/beans/XMLDecoderTest.java|modules/beans/src/test/resources/xml/Array_Illegal.xml|modules/beans/src/test/resources/xml/Array_Null.xml|modules/beans/src/test/resources/xml/Array_Object.xml|modules/beans/src/test/resources/xml/Array_Primitive.xml|modules/beans/src/test/resources/xml/Array_Wrapper.xml|,3,4,4,2008-05-23 03:05:45 +0000,2008-05-26 08:33:18 +0000,920a01af0796bef788693ff4943fd37b6ab97f45,harmony-classlib
HARMONY-5817,2008-05-26 09:01:27 +0000,modules/nio/src/test/java/common/org/apache/harmony/nio/tests/java/nio/MappedByteBufferTest.java|,3,4,4,2008-05-09 07:49:25 +0000,2008-05-26 08:57:58 +0000,fcfa8763a03b3b6fa113be7b8ef3e9c969cfc89f,harmony-classlib
HARMONY-5808,2008-09-11 15:30:09 +0000,modules/luni/src/main/java/java/util/AbstractList.java|modules/luni/src/test/api/common/org/apache/harmony/luni/tests/java/util/AbstractListTest.java|,3,4,4,2008-05-06 02:50:17 +0000,2008-05-27 05:55:26 +0000,d244a452758837c35452c4cdb6b72e53bf3ef126,harmony-classlib
HARMONY-5845,2008-05-29 06:02:05 +0000,modules/luni/src/main/java/java/util/Formatter.java|modules/luni/src/test/api/common/org/apache/harmony/luni/tests/java/util/FormatterTest.java|,3,4,4,2008-05-28 03:06:43 +0000,2008-05-29 06:01:22 +0000,e9115fc70e13ba0ff625de3f0704aa99318eff58,harmony-classlib
HARMONY-5848,2008-05-29 06:04:40 +0000,modules/luni/src/main/java/java/util/EnumSet.java|,3,4,4,2008-05-29 05:26:41 +0000,2008-05-29 06:03:40 +0000,67fb0a150f1211519c1e64412432e1aa29a5af05,harmony-classlib
HARMONY-5854,2008-06-03 02:10:27 +0000,modules/beans/src/main/java/java/beans/Statement.java|modules/beans/src/main/java/org/apache/harmony/beans/internal/nls/messages.properties|modules/beans/src/test/java/org/apache/harmony/beans/tests/java/beans/StatementTest.java|modules/beans/src/test/support/java/org/apache/harmony/beans/tests/support/TInspectorCluster.java|,3,4,4,2008-06-02 10:22:51 +0000,2008-06-03 01:57:55 +0000,935f724047135841764e6034f09132efaa67d57e,harmony-classlib
HARMONY-5858,2008-06-04 02:54:13 +0000,modules/regex/src/main/java/java/util/regex/Pattern.java|modules/regex/src/test/java/org/apache/harmony/tests/java/util/regex/PatternTest.java|,3,4,4,2008-06-03 11:55:00 +0000,2008-06-04 02:53:15 +0000,b70ba2b0bad238e8730c76707fdd7ee860390e2b,harmony-classlib
HARMONY-5860,2008-06-06 01:57:20 +0000,modules/luni/src/main/java/java/util/TimeZone.java|modules/luni/src/test/api/common/org/apache/harmony/luni/tests/java/util/TimeZoneTest.java|,3,4,4,2008-06-04 03:14:06 +0000,2008-06-06 01:56:46 +0000,491180eff281d490f230717dcecbf8806010099e,harmony-classlib
HARMONY-5866,2008-06-12 10:25:48 +0000,modules/beans/src/main/java/java/beans/XMLDecoder.java|modules/beans/src/test/java/org/apache/harmony/beans/tests/java/beans/XMLDecoderTest.java|,3,4,4,2008-06-05 09:06:52 +0000,2008-06-12 10:08:49 +0000,53b6b06ed4ccd8566b6216f0d6a1ad8e82e33446,harmony-classlib
HARMONY-5839,2008-06-18 13:06:23 +0000,modules/luni/src/test/api/common/org/apache/harmony/luni/tests/java/util/ArrayListTest.java|,3,4,4,2008-05-22 12:34:39 +0000,2008-06-18 13:04:26 +0000,23bfb6e6a3390960c0f2a5917352ebca9d9d9a90,harmony-classlib
HARMONY-5915,2008-07-21 01:41:40 +0000,modules/beans/src/main/java/java/beans/StandardBeanInfo.java|modules/beans/src/test/java/org/apache/harmony/beans/tests/java/beans/IntrospectorTest.java|,3,4,4,2008-07-17 06:43:11 +0000,2008-07-21 01:39:52 +0000,cfe24108b93fee8d514efbe04868079b03672ba8,harmony-classlib
HARMONY-5923,2008-07-24 09:55:53 +0000,modules/pack200/src/main/java/org/apache/harmony/unpack200/bytecode/CPClass.java|,3,4,4,2008-07-23 18:23:32 +0000,2008-07-24 09:14:59 +0000,653ae2d8e1875193151f7c6047242389459e834e,harmony-classlib
HARMONY-5818,2008-07-29 15:15:26 +0000,modules/luni/src/test/api/common/org/apache/harmony/luni/tests/java/util/GregorianCalendarTest.java|,3,4,4,2008-05-09 08:07:20 +0000,2008-07-29 15:14:24 +0000,8628a4f198d386057a36f2aef30b0dae2c496e38,harmony-classlib
HARMONY-5961,2008-09-02 02:33:29 +0000,modules/luni/src/main/java/java/io/File.java|modules/luni/src/test/api/windows/org/apache/harmony/luni/tests/java/io/WinFileTest.java|,4,5,5,2008-08-28 04:22:39 +0000,2008-09-02 02:31:14 +0000,3ce7cb6cd201f08415517e4093a88d56c2f14ccd,harmony-classlib
HARMONY-5962,2008-09-02 16:01:19 +0000,support/src/test/java/org/apache/harmony/testframework/serialization/SerializationTest.java|,1,5,5,2008-08-28 06:47:27 +0000,2008-09-02 14:06:42 +0000,7577df699850d25ba01a5f717ccececd192b33bb,harmony-classlib
HARMONY-5968,2008-09-05 14:04:55 +0000,modules/pack200/src/main/java/org/apache/harmony/unpack200/ClassBands.java|modules/pack200/src/main/java/org/apache/harmony/unpack200/NewAttributeBands.java|modules/pack200/src/main/java/org/apache/harmony/unpack200/bytecode/NewAttribute.java|,4,5,5,2008-09-03 21:11:59 +0000,2008-09-04 16:30:07 +0000,3f440a2f6e1a041199329ade8dffa491d7eed2a3,harmony-classlib
HARMONY-5969,2008-09-06 19:20:08 +0000,modules/x-net/src/main/java/org/apache/harmony/xnet/provider/jsse/CipherSuite.java|,4,5,5,2008-09-03 22:36:11 +0000,2008-09-06 16:15:17 +0000,0ef8f26bb1bf6b0d90e9af784ef4f6f35e3bc103,harmony-classlib
HARMONY-5973,2008-09-08 10:41:26 +0000,modules/beans/src/main/java/java/beans/StandardBeanInfo.java|modules/beans/src/test/java/org/apache/harmony/beans/tests/java/beans/IntrospectorTest.java|,3,5,5,2008-09-08 09:11:05 +0000,2008-09-08 10:41:06 +0000,e7435526ccd403a11d8eb1cd533c6daef8fa4904,harmony-classlib
HARMONY-5970,2008-09-08 16:04:55 +0000,modules/pack200/src/main/java/org/apache/harmony/unpack200/Segment.java|,4,5,5,2008-09-04 17:44:05 +0000,2008-09-08 15:47:02 +0000,43766cff5cc1830d9456db7ec5adee39530e4109,harmony-classlib
HARMONY-5974,2008-09-10 06:51:34 +0000,modules/beans/src/test/java/org/apache/harmony/beans/tests/java/beans/XMLEncoderTest.java|modules/beans/src/test/resources/xml/MockBean4Codec_BornFriendChange.xml|modules/beans/src/test/resources/xml/MockBean4Codec_ManyChanges.xml|modules/beans/src/test/resources/xml/MockBean4Codec_ManyChanges_2.xml|modules/beans/src/test/resources/xml/MockBean4Codec_NoChange.xml|modules/beans/src/test/resources/xml/MockBean4Owner_SetOwner.xml|modules/beans/src/test/resources/xml/MockBean4Owner_SetOwnerWithWriteStatement.xml|modules/beans/src/test/resources/xml/MockBean4StaticField.xml|modules/beans/src/test/resources/xml/MockBean4StaticField_Original.xml|modules/beans/src/test/resources/xml/Test6.xml|modules/beans/src/test/resources/xml/Test7.xml|modules/beans/src/test/resources/xml/bad_int.xml|modules/beans/src/test/resources/xml/int.xml|modules/beans/src/test/resources/xml/null.xml|,4,5,5,2008-09-09 07:32:26 +0000,2008-09-10 06:09:32 +0000,174acf54d22992115b481c5b05a30fd778f7bed7,harmony-classlib
HARMONY-5977,2008-09-11 12:27:25 +0000,modules/pack200/src/main/java/org/apache/harmony/unpack200/IcBands.java|modules/pack200/src/main/java/org/apache/harmony/unpack200/IcTuple.java|,4,5,5,2008-09-10 22:46:12 +0000,2008-09-11 09:14:45 +0000,e04329053e28cf68a75c97d149c8330596eb8e12,harmony-classlib
HARMONY-5978,2008-09-12 09:34:32 +0000,modules/jndi/src/main/java/org/apache/harmony/jndi/internal/parser/LdapRdnParser.java|modules/jndi/src/test/java/org/apache/harmony/jndi/internal/parser/LdapRdnParserTest.java|,4,5,5,2008-09-11 02:01:13 +0000,2008-09-12 07:49:46 +0000,51f65dc8e771dce613fb5f6fe5b7c167ae70c77c,harmony-classlib
HARMONY-5982,2008-09-14 05:48:18 +0000,modules/jndi/src/main/java/javax/naming/directory/Attribute.java|,4,5,5,2008-09-12 03:19:19 +0000,2008-09-14 17:39:01 +0000,181553c5adb2d0f2562924d3d6e016612a55ceeb,harmony-classlib
HARMONY-5960,2008-10-23 09:58:58 +0000,modules/pack200/src/main/java/org/apache/harmony/unpack200/AttrDefinitionBands.java|modules/pack200/src/main/java/org/apache/harmony/unpack200/MetadataBandGroup.java|modules/pack200/src/main/java/org/apache/harmony/unpack200/Segment.java|modules/pack200/src/main/java/org/apache/harmony/unpack200/bytecode/AnnotationDefaultAttribute.java|modules/pack200/src/main/java/org/apache/harmony/unpack200/bytecode/CodeAttribute.java|modules/pack200/src/main/java/org/apache/harmony/unpack200/bytecode/ConstantValueAttribute.java|modules/pack200/src/main/java/org/apache/harmony/unpack200/bytecode/DeprecatedAttribute.java|modules/pack200/src/main/java/org/apache/harmony/unpack200/bytecode/EnclosingMethodAttribute.java|modules/pack200/src/main/java/org/apache/harmony/unpack200/bytecode/ExceptionsAttribute.java|modules/pack200/src/main/java/org/apache/harmony/unpack200/bytecode/InnerClassesAttribute.java|modules/pack200/src/main/java/org/apache/harmony/unpack200/bytecode/LineNumberTableAttribute.java|modules/pack200/src/main/java/org/apache/harmony/unpack200/bytecode/LocalVariableTableAttribute.java|modules/pack200/src/main/java/org/apache/harmony/unpack200/bytecode/LocalVariableTypeTableAttribute.java|modules/pack200/src/main/java/org/apache/harmony/unpack200/bytecode/SignatureAttribute.java|modules/pack200/src/main/java/org/apache/harmony/unpack200/bytecode/SourceFileAttribute.java|,3,5,5,2008-08-27 17:21:34 +0000,2008-09-15 13:08:14 +0000,31e6d6b2d51045ff02f9b0dedf295723e1c50856,harmony-classlib
HARMONY-5979,2008-09-17 08:54:06 +0000,modules/luni/src/main/java/org/apache/harmony/luni/util/DeleteOnExit.java|,4,5,5,2008-09-11 03:58:24 +0000,2008-09-17 08:53:36 +0000,8d554cc0c69ea8594c6301d8d64dbc7316be59e5,harmony-classlib
HARMONY-5990,2008-09-26 11:32:46 +0000,modules/jndi/src/main/java/javax/naming/RefAddr.java|modules/jndi/src/main/java/javax/naming/Reference.java|modules/jndi/src/test/java/org/apache/harmony/jndi/tests/javax/naming/RefAddrTest.java|modules/jndi/src/test/java/org/apache/harmony/jndi/tests/javax/naming/ReferenceTest.java|,4,5,5,2008-09-26 10:46:22 +0000,2008-09-26 11:31:25 +0000,9c633df9174048713c8d14bf76cdcb1501726329,harmony-classlib
HARMONY-5995,2008-10-09 04:21:29 +0000,modules/annotation/.classpath|modules/applet/.classpath|modules/archive/.classpath|modules/auth/.classpath|modules/awt/.classpath|modules/beans/.classpath|modules/concurrent/.classpath|modules/crypto/.classpath|modules/imageio/.classpath|modules/instrument/.classpath|modules/jndi/.classpath|modules/lang-management/.classpath|modules/logging/.classpath|modules/luni/.classpath|modules/math/.classpath|modules/misc/.classpath|modules/nio/.classpath|modules/pack200/.classpath|modules/prefs/.classpath|modules/print/.classpath|modules/regex/.classpath|modules/rmi/.classpath|modules/security/.classpath|modules/sound/.classpath|modules/sql/.classpath|modules/suncompat/.classpath|modules/text/.classpath|modules/x-net/.classpath|,4,5,5,2008-10-09 03:41:24 +0000,2008-10-09 04:01:26 +0000,a30d8d20957674891553c42c961c87fa9c7704b4,harmony-classlib
HARMONY-6000,2008-10-22 20:20:57 +0000,modules/luni/src/main/java/java/lang/reflect/Proxy.java|modules/luni/src/test/api/common/Proxy2Test.java|,4,5,5,2008-10-21 05:12:11 +0000,2008-10-22 20:18:59 +0000,9ef9333e5d715f88f79dac3b059080377b6cc233,harmony-classlib
HARMONY-6004,2008-10-30 08:45:38 +0000,modules/luni/src/main/java/org/apache/harmony/luni/internal/process/SystemProcess.java|modules/luni/src/test/api/common/org/apache/harmony/luni/tests/internal/process/SystemProcessTest.java|support/src/test/java/tests/support/Support_Exec.java|,4,5,5,2008-10-30 03:22:12 +0000,2008-10-30 08:40:51 +0000,f2043b3f6c79f47586d76aaa4ccaac58834e1dd5,harmony-classlib
HARMONY-5986,2008-10-30 15:48:41 +0000,modules/beans/src/main/java/java/beans/XMLEncoder.java|,3,5,5,2008-09-23 00:03:39 +0000,2008-10-30 15:39:36 +0000,98ec1a788f351f478118fef0bffb837c36a0e50a,harmony-classlib
HARMONY-6017,2008-11-17 18:49:04 +0000,modules/luni/src/main/java/java/util/Hashtable.java|modules/luni/src/test/api/common/org/apache/harmony/luni/tests/java/util/HashtableTest.java|modules/luni/src/test/api/common/org/apache/harmony/luni/tests/java/util/PropertiesTest.java|,4,5,6,2008-11-13 10:41:02 +0000,2008-11-17 18:47:57 +0000,66c0c74beff18455af8be9cdbcddfa3c5bcdae6c,harmony-classlib
HARMONY-6006,2008-11-27 02:39:43 +0000,modules/luni/src/main/java/java/io/File.java|modules/luni/src/test/api/unix/org/apache/harmony/luni/tests/java/io/UnixFileTest.java|,4,5,6,2008-11-03 09:20:21 +0000,2008-11-27 02:29:02 +0000,ef3e7b69ffebdeda92209758ca5d79eb3d05ddd1,harmony-classlib
HARMONY-6038,2008-12-12 01:51:03 +0000,modules/beans/src/main/java/java/beans/StandardBeanInfo.java|modules/beans/src/test/java/org/apache/harmony/beans/tests/java/beans/IntrospectorTest.java|,5,6,6,2008-12-09 14:51:23 +0000,2008-12-11 18:19:59 +0000,8a67c6221cc5ad03f66f43a3308753c24d8d465e,harmony-classlib
HARMONY-6043,2008-12-22 03:25:13 +0000,modules/security/src/main/java/common/java/security/UnresolvedPermission.java|modules/security/src/test/impl/java.injected/java/security/UnresolvedPermission_ImplTest.java|,5,6,6,2008-12-12 06:27:10 +0000,2008-12-22 03:23:17 +0000,43ce7f38d81d21a89ce04c4c5e2afb94e05bf8fa,harmony-classlib
HARMONY-6015,2008-12-22 04:48:32 +0000,modules/beans/src/main/java/java/beans/XMLDecoder.java|modules/beans/src/test/java/org/apache/harmony/beans/tests/java/beans/XMLDecoderTest.java|,4,5,6,2008-11-13 08:20:08 +0000,2008-12-22 04:47:27 +0000,5ee98430b953f742fc86c78daba46706408e35c5,harmony-classlib
HARMONY-6036,2009-01-04 04:45:19 +0000,modules/luni/src/main/java/org/apache/harmony/luni/internal/net/www/protocol/http/HttpURLConnection.java|modules/luni/src/test/api/common/org/apache/harmony/luni/tests/internal/net/www/protocol/http/HttpURLConnectionTest.java|,5,6,6,2008-12-08 07:53:38 +0000,2009-01-04 04:43:56 +0000,12831e56aa567aa81c4301d78e5cbe59bd9c46fd,harmony-classlib
HARMONY-6028,2009-01-07 08:37:27 +0000,modules/luni/src/main/java/java/net/SocketPermission.java|modules/luni/src/main/java/org/apache/harmony/luni/util/Inet6Util.java|modules/luni/src/test/api/common/org/apache/harmony/luni/tests/java/net/SocketPermissionTest.java|,5,6,6,2008-11-25 03:34:04 +0000,2009-01-07 08:35:52 +0000,d3ee1a6ce83af772bb263c6aac8e47525c507d6c,harmony-classlib
HARMONY-6042,2009-01-12 03:21:24 +0000,modules/luni/src/main/java/java/net/URLClassLoader.java|modules/luni/src/main/java/org/apache/harmony/luni/util/ExternalMessages.properties|modules/luni/src/test/api/common/org/apache/harmony/luni/tests/java/lang/PackageTest.java|,5,6,6,2008-12-12 02:07:18 +0000,2009-01-12 03:07:33 +0000,ef7c3c232ee8a96f3aef4c72785138ea55e0582f,harmony-classlib
HARMONY-6073,2009-01-16 05:34:26 +0000,modules/nio/META-INF/MANIFEST.MF|modules/nio/src/main/java/common/java/nio/channels/spi/AbstractSelector.java|modules/nio/src/main/java/common/org/apache/harmony/nio/internal/SelectorImpl.java|,5,6,6,2009-01-15 05:11:35 +0000,2009-01-16 05:32:40 +0000,482eaf3aa8aa93c2c3ab6e680f749cfa24e20b3c,harmony-classlib
HARMONY-6075,2009-01-28 17:32:27 +0000,modules/luni/src/main/java/java/net/URI.java|modules/luni/src/test/api/common/org/apache/harmony/luni/tests/java/net/URITest.java|,5,6,6,2009-01-21 06:47:17 +0000,2009-01-28 17:31:55 +0000,2d8c9266958454187878b9457326e9b73da0a21b,harmony-classlib
HARMONY-6076,2009-02-10 05:00:26 +0000,modules/luni/src/test/api/common/org/apache/harmony/luni/tests/java/util/ArraysTest.java|,5,6,6,2009-01-22 07:34:48 +0000,2009-02-11 05:30:56 +0000,6de70fdc86fe980dbae17cb53c86035207c324fc,harmony-classlib
HARMONY-6102,2009-02-27 08:56:36 +0000,depends/files/bootclasspath.properties|,5,6,6,2009-02-26 09:56:59 +0000,2009-02-27 08:52:26 +0000,9b3b5787c089faaba59df94546d97a3e5c5be4b0,harmony-classlib
HARMONY-6086,2009-04-10 03:22:10 +0000,modules/luni/src/main/java/java/util/Scanner.java|,5,6,7,2009-02-10 06:55:04 +0000,2009-04-10 03:18:14 +0000,f45975b09a1ef8beb249b4493dc860da26c70c30,harmony-classlib
HARMONY-6122,2009-04-11 16:24:06 +0000,modules/luni/src/main/java/java/util/Collections.java|modules/luni/src/test/api/common/org/apache/harmony/luni/tests/java/util/Collections2Test.java|,5,6,7,2009-03-20 03:18:07 +0000,2009-04-11 16:22:52 +0000,97e55a3dbf4f2d2354c9dff3472011d7263345ea,harmony-classlib
HARMONY-6136,2009-04-14 00:56:04 +0000,modules/luni/src/main/java/java/net/URLClassLoader.java|modules/luni/src/test/api/common/org/apache/harmony/luni/tests/java/net/URLClassLoaderTest.java|,6,6,7,2009-03-30 06:35:27 +0000,2009-04-14 00:55:02 +0000,79c83828602a97fabb3c674e1cd134b2cac26497,harmony-classlib
HARMONY-6113,2009-04-14 06:52:30 +0000,depends/files/java.security|,5,6,7,2009-03-05 06:43:38 +0000,2009-04-14 06:51:45 +0000,df31f5a48e86376dca693cddab88643c95205ca6,harmony-classlib
HARMONY-6090,2009-04-14 07:56:28 +0000,modules/luni/src/test/api/common/org/apache/harmony/luni/tests/java/net/ServerSocketTest.java|,5,6,7,2009-02-12 09:24:16 +0000,2009-04-14 07:47:46 +0000,1df7108ea527b4e309331db4f844d98391aa1f29,harmony-classlib
HARMONY-6147,2009-04-14 13:08:14 +0000,modules/luni/src/main/java/java/util/Scanner.java|,6,7,7,2009-04-10 11:14:46 +0000,2009-04-14 13:07:52 +0000,3d165a39c77bc36b3f34a336c92b2fb57a08140d,harmony-classlib
HARMONY-6108,2009-04-16 09:13:28 +0000,modules/prefs/src/main/java/java/util/prefs/AbstractPreferences.java|modules/prefs/src/test/java/org/apache/harmony/prefs/tests/java/util/prefs/AbstractPreferencesTest.java|,5,6,7,2009-03-04 02:46:52 +0000,2009-04-16 09:11:55 +0000,48998e0ee77834199d811b1b1bda0bc367f4f480,harmony-classlib
HARMONY-6145,2009-04-16 10:04:58 +0000,modules/luni/src/main/java/java/util/LinkedList.java|modules/luni/src/test/api/common/org/apache/harmony/luni/tests/java/util/LinkedListTest.java|,5,7,7,2009-04-10 08:09:42 +0000,2009-04-16 10:03:29 +0000,b82c589072b9e366b199d39ebc2b3eff62f49272,harmony-classlib
HARMONY-6143,2009-04-16 10:27:27 +0000,modules/beans/src/main/java/java/beans/beancontext/BeanContextSupport.java|modules/beans/src/test/java/org/apache/harmony/beans/tests/java/beans/beancontext/BeanContextSupportTest.java|,5,7,7,2009-04-09 06:07:15 +0000,2009-04-16 10:26:46 +0000,9e8c1a2c9b6a36471f6563d95f3d20b1becfff66,harmony-classlib
HARMONY-6110,2009-04-16 10:52:18 +0000,modules/luni/src/main/java/java/io/BufferedReader.java|modules/luni/src/test/api/common/org/apache/harmony/luni/tests/java/io/BufferedReaderTest.java|,5,6,7,2009-03-05 02:16:39 +0000,2009-04-16 10:51:33 +0000,6fe7891207f7099af94c74eaefcd94ab76d20370,harmony-classlib
HARMONY-6092,2009-04-17 02:36:52 +0000,modules/luni/src/test/api/common/org/apache/harmony/luni/tests/java/net/SocketTest.java|,5,6,7,2009-02-17 04:19:45 +0000,2009-04-17 02:36:00 +0000,be721e89b6330520b4300bd23b21ddff1177f305,harmony-classlib
HARMONY-6093,2009-04-17 03:23:20 +0000,modules/luni/src/main/java/java/io/File.java|,5,6,7,2009-02-17 06:46:46 +0000,2009-04-17 03:21:29 +0000,a51d52890e7c5ee073911e8f9b610557fbd4b73a,harmony-classlib
HARMONY-6119,2009-04-17 07:32:05 +0000,modules/luni/src/test/api/common/org/apache/harmony/luni/tests/java/lang/CharacterTest.java|,5,6,7,2009-03-16 09:55:55 +0000,2009-04-17 07:20:39 +0000,2ce297a43fcba5fd823b47f71664f3b5f656287a,harmony-classlib
HARMONY-6153,2009-04-17 07:33:20 +0000,modules/luni/src/test/api/common/org/apache/harmony/luni/tests/java/util/TimeZoneTest.java|,6,7,7,2009-04-15 05:50:52 +0000,2009-04-17 07:23:27 +0000,704fc8fac9f4abe54365bba58e649e64263a7556,harmony-classlib
HARMONY-6154,2009-04-17 07:34:24 +0000,modules/luni/src/test/api/common/org/apache/harmony/luni/tests/java/util/LocaleTest.java|,6,7,7,2009-04-15 06:02:33 +0000,2009-04-17 07:24:12 +0000,33d0bd9e1b2d65d26b43e21e97cb3e39a0bc496d,harmony-classlib
HARMONY-6087,2009-04-20 11:26:02 +0000,modules/luni/src/main/java/java/util/Scanner.java|modules/luni/src/test/api/common/org/apache/harmony/luni/tests/java/util/ScannerTest.java|,5,6,7,2009-02-10 08:45:25 +0000,2009-04-20 11:25:19 +0000,6270d682b3553eb8d87aa3a927c807ca904ef09a,harmony-classlib
HARMONY-6152,2009-04-22 05:32:02 +0000,modules/luni/src/test/api/common/org/apache/harmony/luni/tests/java/io/WriterTest.java|,6,7,7,2009-04-14 04:58:58 +0000,2009-04-22 05:30:22 +0000,5ee8e6216f774039053afef854dc970ed42744e5,harmony-classlib
HARMONY-6166,2009-04-22 06:09:13 +0000,modules/prefs/src/main/java/java/util/prefs/AbstractPreferences.java|,6,7,7,2009-04-22 05:47:21 +0000,2009-04-22 06:07:41 +0000,e94ca64dfcc366b398738fd842af59c9be886ab5,harmony-classlib
HARMONY-6163,2009-04-22 12:34:45 +0000,modules/luni/make/exclude.common|modules/luni/src/test/api/common/org/apache/harmony/luni/tests/java/util/FormatterTest.java|,6,7,7,2009-04-21 09:51:11 +0000,2009-04-22 12:34:19 +0000,57d009c8cfd335b10029d7317873abb77ec97d4d,harmony-classlib
HARMONY-6160,2009-04-22 13:57:17 +0000,modules/beans/src/main/java/java/beans/XMLEncoder.java|modules/beans/src/test/java/org/apache/harmony/beans/tests/java/beans/XMLEncoderTest.java|modules/beans/src/test/resources/xml/MockTreeMap.xml|modules/beans/src/test/support/java/org/apache/harmony/beans/tests/support/mock/MockTreeMapClass.java|,6,7,7,2009-04-20 09:47:08 +0000,2009-04-22 13:56:31 +0000,1c254e80896eaa871ae06eb9c8d5acbfec2640a8,harmony-classlib
HARMONY-6159,2009-04-22 14:03:03 +0000,modules/beans/src/main/java/java/beans/Statement.java|modules/beans/src/test/java/org/apache/harmony/beans/tests/java/beans/StatementTest.java|,6,7,7,2009-04-20 09:36:28 +0000,2009-04-22 14:02:36 +0000,e6cd7793c352a2a923138e351270cbf5ff111e0e,harmony-classlib
HARMONY-6148,2009-04-24 02:55:23 +0000,modules/lang-management/src/main/java/java/lang/management/MemoryNotificationInfo.java|modules/lang-management/src/main/java/java/lang/management/MemoryUsage.java|modules/lang-management/src/test/api/java/org/apache/harmony/lang/management/tests/java/lang/management/MemoryNotificationInfoTest.java|modules/lang-management/src/test/api/java/org/apache/harmony/lang/management/tests/java/lang/management/MemoryUsageTest.java|,5,7,7,2009-04-13 08:34:56 +0000,2009-04-24 02:53:31 +0000,2e0dcf52bcb416f6b89a4aa0e79b32970c4c7c0d,harmony-classlib
HARMONY-6177,2009-04-24 13:38:16 +0000,modules/beans/src/main/java/java/beans/PropertyDescriptor.java|modules/beans/src/main/java/org/apache/harmony/beans/internal/nls/messages.properties|modules/beans/src/test/java/org/apache/harmony/beans/tests/java/beans/PropertyDescriptorTest.java|,6,7,7,2009-04-24 09:29:04 +0000,2009-04-24 13:37:56 +0000,8acfef2864bf5879cbdd3e0d92a423c816aca126,harmony-classlib
HARMONY-6100,2009-04-24 19:42:39 +0000,modules/jndi/src/main/java/javax/naming/CompositeName.java|modules/jndi/src/test/java/org/apache/harmony/jndi/tests/javax/naming/CompositeNameTest.java|,5,6,7,2009-02-26 08:19:30 +0000,2009-04-24 19:41:51 +0000,9fd1236138b50601dfe64f0b64fc95e65b1cf675,harmony-classlib
HARMONY-6142,2009-04-27 11:42:11 +0000,modules/luni/src/main/java/java/util/StringTokenizer.java|modules/luni/src/test/api/common/org/apache/harmony/luni/tests/java/util/StringTokenizerTest.java|,5,7,7,2009-04-09 02:32:51 +0000,2009-04-27 11:41:37 +0000,702399eadb610aa5744acef66b73460746436da0,harmony-classlib
HARMONY-6149,2009-04-29 03:09:07 +0000,modules/lang-management/src/main/java/java/lang/management/MemoryNotificationInfo.java|modules/lang-management/src/main/java/org/apache/harmony/lang/management/ManagementUtils.java|modules/lang-management/src/test/api/java/org/apache/harmony/lang/management/tests/java/lang/management/HARMONY6149Test.java|modules/lang-management/src/test/api/java/org/apache/harmony/lang/management/tests/java/lang/management/MemoryNotificationInfoTest.java|modules/lang-management/src/test/impl/java/org/apache/harmony/lang/management/ThreadInfoTest.java|,5,7,7,2009-04-14 02:22:30 +0000,2009-05-03 04:58:49 +0000,fd2f068272d332f3b05945cc8258fa07b7574fd4,harmony-classlib
HARMONY-6144,2009-05-05 06:57:32 +0000,modules/sql/META-INF/MANIFEST.MF|modules/sql/src/main/java/java/sql/Timestamp.java|modules/sql/src/test/java/org/apache/harmony/sql/tests/java/sql/TimestampTest.java|,6,7,7,2009-04-10 08:02:54 +0000,2009-05-05 06:10:25 +0000,30ebde36c49fba56e316950c224939aec9f42705,harmony-classlib
HARMONY-6181,2009-05-06 10:40:57 +0000,modules/text/src/main/java/java/text/SimpleDateFormat.java|,6,7,7,2009-04-27 03:37:46 +0000,2009-05-06 10:40:05 +0000,ee2e4ab99e88a328f42c665a48485cf2f7022e92,harmony-classlib
HARMONY-6141,2009-05-06 12:26:52 +0000,modules/luni/src/main/java/java/util/ArrayList.java|modules/luni/src/test/api/common/org/apache/harmony/luni/tests/java/util/ArrayListTest.java|,5,7,7,2009-04-08 09:48:24 +0000,2009-05-06 12:26:32 +0000,fef08c71c99e3c8baa81f4a28976f4c53d6aa8a1,harmony-classlib
HARMONY-6133,2009-05-06 12:53:55 +0000,modules/luni/src/main/java/java/io/BufferedInputStream.java|modules/luni/src/test/api/common/org/apache/harmony/luni/tests/java/io/BufferedInputStreamTest.java|,5,6,7,2009-03-27 02:54:42 +0000,2009-05-06 12:53:31 +0000,3ac02f1a5069286ce355d19e13d8e25f5b88cf5d,harmony-classlib
HARMONY-6188,2009-05-06 13:19:48 +0000,modules/text/src/main/java/java/text/SimpleDateFormat.java|modules/text/src/test/java/org/apache/harmony/text/tests/java/text/SimpleDateFormatTest.java|support/src/test/java/tests/support/Support_SimpleDateFormat.java|,6,7,7,2009-04-29 15:13:22 +0000,2009-05-06 13:18:51 +0000,9fa5d599f160bfcf6c28dff1f2f3cc94d623c9d4,harmony-classlib
HARMONY-6134,2009-05-06 13:52:07 +0000,modules/luni/src/main/java/java/io/BufferedInputStream.java|modules/luni/src/test/api/common/org/apache/harmony/luni/tests/java/io/BufferedInputStreamTest.java|,5,6,7,2009-03-27 05:10:06 +0000,2009-05-06 13:43:53 +0000,50607f04cd483d1601ad5878e213084cc75460e1,harmony-classlib
HARMONY-6041,2009-05-07 10:05:54 +0000,modules/luni/src/test/api/windows/org/apache/harmony/luni/tests/java/io/WinFileTest.java|modules/portlib/src/main/native/port/windows/hyfile.c|,5,6,7,2008-12-11 06:30:53 +0000,2009-05-07 10:01:37 +0000,87fc3bb76bbc3b30f423bca7e9958c89515b6051,harmony-classlib
HARMONY-6203,2009-05-12 13:27:27 +0000,modules/luni/src/main/java/java/util/Hashtable.java|modules/luni/src/test/api/common/org/apache/harmony/luni/tests/java/util/HashtableTest.java|,6,7,7,2009-05-12 05:24:47 +0000,2009-05-12 13:26:39 +0000,0d4be051b682885fdad87ac9517f00c5cc2817a6,harmony-classlib
HARMONY-6205,2009-05-14 09:58:28 +0000,modules/luni/src/main/java/java/util/IdentityHashMap.java|modules/luni/src/test/api/common/org/apache/harmony/luni/tests/java/util/IdentityHashMapTest.java|,6,7,7,2009-05-12 06:05:25 +0000,2009-05-14 09:56:38 +0000,d5a700e1c0c8358bf37b86e918a13f6bdc31ca32,harmony-classlib
HARMONY-6204,2009-05-15 09:12:30 +0000,modules/luni/src/main/java/java/util/IdentityHashMap.java|modules/luni/src/test/api/common/org/apache/harmony/luni/tests/java/util/IdentityHashMap2Test.java|,6,7,7,2009-05-12 05:44:53 +0000,2009-05-15 09:08:28 +0000,d2e533b9873cd43a64841b3f153d274f52293716,harmony-classlib
HARMONY-6209,2009-05-15 09:53:10 +0000,modules/nio/src/main/java/common/java/nio/CharBuffer.java|modules/nio/src/test/java/common/org/apache/harmony/nio/tests/java/nio/CharBufferTest.java|,6,7,7,2009-05-15 08:24:12 +0000,2009-05-15 09:47:07 +0000,364879cb2329050ccc43609b8831d504b27b1b2a,harmony-classlib
HARMONY-6212,2009-05-26 03:14:24 +0000,modules/luni/src/main/java/java/lang/AbstractStringBuilder.java|modules/luni/src/test/api/common/org/apache/harmony/luni/tests/java/lang/StringBuilderTest.java|,6,7,7,2009-05-25 04:49:00 +0000,2009-05-26 03:11:37 +0000,a3685037b183950f80e1582383ac8fee5935d5e8,harmony-classlib
HARMONY-6074,2009-05-29 01:14:48 +0000,modules/luni/src/main/java/java/net/URLClassLoader.java|,5,6,7,2009-01-21 05:36:29 +0000,2009-05-29 01:11:58 +0000,1cc5baabbf0a297f413ebe8cbe4bf3a8e2d11256,harmony-classlib
HARMONY-6155,2009-06-04 12:22:01 +0000,NOTICE|,6,7,7,2009-04-15 14:51:16 +0000,2009-06-04 12:50:41 +0000,74c9e3f608e6a5adde530da878c1c6edc9bc9758,harmony-classlib
HARMONY-6236,2009-06-16 09:20:47 +0000,modules/luni/src/main/java/java/util/ArrayList.java|modules/luni/src/test/api/common/org/apache/harmony/luni/tests/java/util/ArrayListTest.java|,7,8,8,2009-06-15 22:26:14 +0000,2009-06-16 09:20:09 +0000,7335cb5d70ddce07365b6cdb256b434d468c4f39,harmony-classlib
HARMONY-6213,2009-06-16 10:33:37 +0000,modules/beans/src/main/java/java/beans/XMLDecoder.java|modules/beans/src/test/java/org/apache/harmony/beans/tests/java/beans/XMLDecoderTest.java|,6,7,8,2009-05-27 06:14:09 +0000,2009-06-16 10:32:42 +0000,e5f884a657aba99c324627acd912b5fabdb35d8e,harmony-classlib
HARMONY-6218,2009-06-16 10:43:52 +0000,modules/lang-management/src/main/java/java/lang/management/MemoryUsage.java|modules/lang-management/src/test/api/java/org/apache/harmony/lang/management/tests/java/lang/management/MemoryUsageTest.java|,6,7,8,2009-05-31 03:18:46 +0000,2009-06-16 10:43:18 +0000,6eaa1f25cd5a10937ee6d901ca54906a3d75f994,harmony-classlib
HARMONY-6215,2009-06-16 10:46:34 +0000,modules/beans/src/main/java/java/beans/XMLEncoder.java|modules/beans/src/test/java/org/apache/harmony/beans/tests/java/beans/XMLEncoderTest.java|,6,7,8,2009-05-27 07:50:07 +0000,2009-06-16 10:46:13 +0000,78506fe758c831ed534fb66d7f3fb6e4c5e32334,harmony-classlib
HARMONY-6210,2009-06-16 10:55:07 +0000,modules/archive/src/main/java/java/util/zip/Inflater.java|modules/archive/src/test/java/org/apache/harmony/archive/tests/java/util/zip/ZipInputStreamTest.java|,6,7,8,2009-05-22 22:00:48 +0000,2009-06-16 10:54:51 +0000,be01c4095cfeea0e08fd87ea0c4c79d02059622a,harmony-classlib
HARMONY-6206,2009-06-16 11:08:22 +0000,modules/beans/src/main/java/java/beans/EventSetDescriptor.java|modules/beans/src/test/java/org/apache/harmony/beans/tests/java/beans/EventSetDescriptorTest.java|,6,7,8,2009-05-12 07:25:37 +0000,2009-06-16 11:08:12 +0000,530559c97922d9342c7ef88769c00dabaab4fa7d,harmony-classlib
HARMONY-6237,2009-06-18 11:03:33 +0000,modules/luni/src/main/java/java/util/HashMap.java|modules/luni/src/test/api/common/org/apache/harmony/luni/tests/java/util/HashMapTest.java|,7,8,8,2009-06-18 06:19:57 +0000,2009-06-18 11:01:36 +0000,c0cd39667a0c3d601b8e36d3ca3575c3953f0cd5,harmony-classlib
HARMONY-6242,2009-06-24 11:43:56 +0000,modules/luni/src/main/java/java/lang/Math.java|,7,8,8,2009-06-24 08:22:31 +0000,2009-06-24 13:48:54 +0000,ff86cc9634e17d2e2c532f0fead66834a635c4bb,harmony-classlib
HARMONY-6214,2009-06-30 07:24:08 +0000,modules/beans/src/main/java/java/beans/XMLDecoder.java|modules/beans/src/test/java/org/apache/harmony/beans/tests/java/beans/XMLDecoderTest.java|,6,7,8,2009-05-27 07:06:59 +0000,2009-06-30 07:18:29 +0000,25a82b17918fbea89d498cb09eed768557bf74c8,harmony-classlib
HARMONY-6254,2009-07-01 15:11:42 +0000,modules/luni/src/main/java/java/net/URLStreamHandler.java|modules/luni/src/test/api/common/org/apache/harmony/luni/tests/java/net/URLTest.java|,7,8,8,2009-07-01 14:19:36 +0000,2009-07-01 15:11:09 +0000,c4cfc92eed905714bcb447c9752f0a981c9115e2,harmony-classlib
HARMONY-6244,2009-07-02 06:44:56 +0000,modules/awt/src/main/java/common/java/awt/SystemColor.java|modules/awt/src/test/impl/boot/java/awt/SystemColorRTest.java|,7,8,8,2009-06-24 09:23:20 +0000,2009-07-02 06:36:48 +0000,22265923356a05c6c15c65ee3a9ca9bc41274933,harmony-classlib
HARMONY-6261,2009-07-07 18:42:53 +0000,modules/luni/src/main/native/luni/shared/fltparse.c|modules/luni/src/test/api/common/org/apache/harmony/luni/tests/java/lang/FloatTest.java|,1,8,8,2009-07-07 16:40:40 +0000,2009-07-07 18:33:31 +0000,22086bd7babac0ecff0a74bd3d19218115eb1321,harmony-classlib
HARMONY-5981,2009-07-08 09:11:21 +0000,modules/logging/src/main/java/java/util/logging/FileHandler.java|,4,5,8,2008-09-11 12:38:37 +0000,2009-07-08 09:10:28 +0000,8438c5264103bf6ffad9fb1694d5ebdf0c541986,harmony-classlib
HARMONY-6270,2009-07-13 10:05:02 +0000,modules/swing/src/main/java/common/javax/swing/plaf/basic/BasicSliderUI.java|,7,8,8,2009-07-12 07:58:59 +0000,2009-07-13 10:04:00 +0000,aca420cbcc2ea63fb46f44cc8383db7a681064dd,harmony-classlib
HARMONY-6256,2009-07-13 10:51:34 +0000,modules/awt/src/main/java/common/org/apache/harmony/awt/gl/CommonGraphics2D.java|,7,8,8,2009-07-05 20:54:09 +0000,2009-07-13 10:50:20 +0000,84da1155d2160034d09570a8a026925ca8a22b3e,harmony-classlib
HARMONY-6266,2009-07-16 03:43:29 +0000,modules/auth/src/main/native/auth/unix/authnix.c|modules/luni/src/main/native/luni/unix/procimpl.c|modules/portlib/src/main/native/port/unix/hyfiletext.c|modules/portlib/src/main/native/port/unix/hyosdump.c|modules/portlib/src/main/native/port/unix/hysl.c|,7,8,8,2009-07-10 10:47:32 +0000,2009-07-16 03:39:53 +0000,0cbeb18b1481a739f895cccb0b9ee3056b3ec749,harmony-classlib
HARMONY-6277,2009-07-21 04:56:57 +0000,modules/luni/.classpath|modules/luni/src/main/java/java/util/Timer.java|modules/luni/src/test/api/common/org/apache/harmony/luni/tests/java/util/TimerTest.java|,7,8,8,2009-07-20 21:41:51 +0000,2009-07-21 04:49:37 +0000,6d6427df47cb6dfcd18a8b537f24dcc4e76c0401,harmony-classlib
HARMONY-6299,2009-08-07 09:38:38 +0000,modules/luni/src/main/native/luni/unix/procimpl.c|,7,8,8,2009-08-07 02:46:40 +0000,2009-08-07 09:37:27 +0000,acaf17f60140f905c75ab2be48867824fa87b3c8,harmony-classlib
HARMONY-6308,2009-08-14 11:48:00 +0000,modules/nio_char/src/main/java/org/apache/harmony/niochar/charset/additional/IBM037.java|modules/nio_char/src/main/native/niochar/shared/additional/IBM037.c|modules/nio_char/src/test/java/tests/api/java/nio/charset/CP037CharsetTest.java|,7,8,8,2009-08-14 09:06:47 +0000,2009-08-14 11:47:33 +0000,3e1a16e5427917fad14e90077e143b70c3ef5830,harmony-classlib
HARMONY-6327,2009-09-02 12:07:06 +0000,modules/luni/src/main/native/luni/unix/OSFileSystemLinux32.c|,8,9,9,2009-09-01 02:19:39 +0000,2009-09-02 12:03:00 +0000,fceda1f93b230b52174e7e2bed792b665fd44c18,harmony-classlib
HARMONY-6324,2009-09-03 09:53:00 +0000,modules/nio/src/test/java/common/org/apache/harmony/nio/tests/java/nio/channels/SocketChannelTest.java|,8,8,9,2009-08-28 03:31:18 +0000,2009-09-03 09:45:16 +0000,48a516b5b19a5bd6d439c45a21fa965c65c79a62,harmony-classlib
HARMONY-6332,2009-09-03 13:17:44 +0000,modules/text/src/main/java/java/text/Format.java|modules/text/src/main/java/java/text/MessageFormat.java|modules/text/src/main/java/java/text/NumberFormat.java|modules/text/src/main/java/org/apache/harmony/text/internal/nls/messages.properties|,8,9,9,2009-09-03 12:36:25 +0000,2009-09-03 13:17:16 +0000,681f973e062b4d20a346d0963f380d6953a76a2f,harmony-classlib
HARMONY-6334,2009-09-04 12:53:04 +0000,modules/text/src/test/java/org/apache/harmony/text/tests/java/text/MessageFormatTest.java|,8,9,9,2009-09-03 13:21:39 +0000,2009-09-04 12:52:31 +0000,4a778e8cb8f1f6983b35d6f075d854e46e46299c,harmony-classlib
HARMONY-6357,2009-10-22 13:58:23 +0000,make/depends.properties|modules/security/src/test/api/java/tests/api/java/security/PermissionCollectionTest.java|support/src/test/java/tests/support/Support_PermissionCollection.java|,8,9,9,2009-10-19 22:02:42 +0000,2009-10-22 13:57:13 +0000,e595b65eada71c5cb68229d5d9371bd4e1b83d8c,harmony-classlib
HARMONY-6216,2009-11-05 08:04:29 +0000,,7,7,9,2009-05-29 17:24:12 +0000,2009-11-05 07:59:18 +0000,29a506a3e85d526f39cef7573dc514c61e29535c,harmony-classlib
HARMONY-6371,2009-11-09 13:04:46 +0000,modules/luni/src/main/java/java/io/PrintStream.java|,8,9,9,2009-11-06 07:48:38 +0000,2009-11-09 13:04:07 +0000,e5d557071474d7101e3d0355fdbec08ea9b4a2e6,harmony-classlib
HARMONY-6405,2009-12-18 11:40:20 +0000,modules/luni/src/main/java/java/lang/String.java|,9,10,10,2009-12-11 13:29:53 +0000,2009-12-18 11:39:47 +0000,b47f760ac81c67a0931ebd3e25aafd4f73073e55,harmony-classlib
HARMONY-6395,2010-01-05 14:21:32 +0000,modules/luni/src/main/java/java/util/Arrays.java|modules/luni/src/test/api/common/org/apache/harmony/luni/tests/java/util/ArraysTest.java|,8,9,10,2009-11-30 11:49:21 +0000,2010-01-05 14:21:00 +0000,4ff81412f1282cf76e43d6d8b82c9b47501c090a,harmony-classlib
HARMONY-6415,2010-01-06 02:32:41 +0000,modules/security/src/main/java/common/org/apache/harmony/security/DefaultPolicyScanner.java|modules/security/src/test/api/java/org/apache/harmony/security/tests/java/security/AccessController2Test.java|modules/security/src/test/resources/policyTest2.txt|,9,10,10,2010-01-05 16:43:50 +0000,2010-01-06 02:29:04 +0000,e7a5e73f25383db0c8d717224e7a9f28c8dd95c2,harmony-classlib
HARMONY-6262,2009-07-16 14:03:01 +0000,modules/concurrent/src/main/java/java/util/concurrent/CopyOnWriteArrayList.java|,7,8,10,2009-07-07 22:52:58 +0000,2010-01-20 10:43:57 +0000,acaf406033044074e314318e2fa8d21b08685cbe,harmony-classlib
HARMONY-6439,2010-02-08 14:02:09 +0000,modules/luni/src/test/api/common/org/apache/harmony/luni/tests/java/io/ObjectStreamFieldTest.java|,9,10,10,2010-02-05 12:37:12 +0000,2010-02-08 14:00:16 +0000,16a7ff87a45d2a161581f0a8797c0a582c5ee343,harmony-classlib
