Bug ID,Bug Resolution Date by Jira,Classes Touched by Last Fix,Earliest AV,Version of Ticket Creation,Version of Fix,Ticket Creation Date,Fix Date (of most recent commit),Hash (of most recent commit),Git Directory
AMQNET-81,2008-04-08 17:04:15 +0000,src/main/csharp/Transport/FutureResponse.cs|src/main/csharp/Transport/Tcp/TcpTransport.cs|,1,2,2,2008-04-08 17:01:02 +0000,2008-04-08 17:06:05 +0000,090e95a94c3ff89b3a9002d637521cddbd0c450c,activemq-nms-openwire
AMQNET-114,2008-09-10 00:21:01 +0000,nant.build|nmsprovider-test.config|src/main/csharp/Commands/WireFormatInfo.cs|src/main/csharp/Connection.cs|src/main/csharp/OpenWire/OpenWireFormat.cs|src/main/csharp/OpenWire/PrimitiveMap.cs|src/test/csharp/OpenWire/MaxInactivityDurationTest.cs|vs2008-activemq-test.csproj|vs2008-activemq.csproj|,1,2,2,2008-09-09 18:09:14 +0000,2008-09-10 00:20:49 +0000,7e82b88bfcda0586e80aba28cca1095676e46e1f,activemq-nms-openwire
AMQNET-112,2008-09-17 20:39:24 +0000,src/main/csharp/Transport/Tcp/TcpTransport.cs|,1,2,2,2008-09-08 15:49:12 +0000,2008-09-17 18:58:53 +0000,89c07eaaf7c9e8db229cf9387ba11c3cceafdd58,activemq-nms-openwire
AMQNET-145,2009-02-25 15:43:06 +0000,nant-common.xml|,1,2,2,2009-02-25 14:13:44 +0000,2009-02-25 15:42:00 +0000,ad79ab36b85b286723722eb6def2bb26c329196c,activemq-nms-openwire
AMQNET-128,2009-04-24 14:28:19 +0000,src/test/csharp/OpenWire/PrimitiveMapTest.cs|,1,2,2,2008-11-26 08:05:37 +0000,2009-04-22 20:13:59 +0000,388fd1703502c4382afac8cf7a41680d98cd40bd,activemq-nms-openwire
AMQNET-161,2009-05-15 20:05:34 +0000,src/main/csharp/Session.cs|,1,2,2,2009-05-15 19:53:29 +0000,2009-05-15 20:05:12 +0000,583ba37649a8c6a8067675a227c8140dc3b74349,activemq-nms-openwire
AMQNET-150,2009-06-01 20:15:01 +0000,nmsprovider-test.config|src/main/csharp/Connection.cs|src/main/csharp/ConnectionFactory.cs|src/main/csharp/Transport/Discovery/DiscoveryTransportFactory.cs|src/main/csharp/Transport/Discovery/Multicast/MulticastDiscoveryAgent.cs|src/main/csharp/Transport/Tcp/TcpTransportFactory.cs|src/test/csharp/NMSConnectionFactoryTest.cs|,1,2,2,2009-03-09 14:24:57 +0000,2009-06-01 20:14:42 +0000,d67026d86d0718ac9951b766e96d93cad60e8e0c,activemq-nms-openwire
AMQNET-160,2009-06-08 23:47:24 +0000,src/main/csharp/Transport/Failover/FailoverTransport.cs|,1,2,2,2009-05-06 19:18:14 +0000,2009-06-08 20:54:09 +0000,468755482d2a03a30de1f1d2353b487d32473030,activemq-nms-openwire
AMQNET-163,2009-06-11 14:45:30 +0000,src/main/csharp/Transport/Discovery/Multicast/MulticastDiscoveryAgent.cs|,1,2,2,2009-06-11 14:33:42 +0000,2009-06-11 14:35:29 +0000,87e71ef055221e32c07989b6610150dcc4df14e6,activemq-nms-openwire
AMQNET-167,2009-06-25 15:29:19 +0000,src/main/csharp/Transport/Stomp/StompFrameStream.cs|,1,2,2,2009-06-25 14:41:09 +0000,2009-06-25 15:10:40 +0000,1fb9dabd0caa29957314ea9d1cbaae1c704c4bce,activemq-nms-openwire
AMQNET-177,2009-08-18 13:32:50 +0000,nant-common.xml|,2,3,3,2009-07-22 13:38:24 +0000,2009-07-23 14:42:27 +0000,bd8b9f8f9fab77d2651b13f7b36efbf684c0e818,activemq-nms-openwire
AMQNET-184,2009-08-31 16:40:36 +0000,src/main/csharp/MessageConsumer.cs|src/main/csharp/Session.cs|src/main/csharp/TransactionContext.cs|src/main/csharp/Transport/Discovery/DiscoveryTransportFactory.cs|src/main/csharp/Transport/Failover/FailoverTransport.cs|src/main/csharp/Transport/ResponseCorrelator.cs|,2,3,3,2009-08-31 16:36:22 +0000,2009-09-16 22:49:16 +0000,a605f2c3943894272d94a9f8a237d9f8d486e862,activemq-nms-openwire
AMQNET-173,2009-09-28 17:06:54 +0000,src/main/csharp/Transport/Stomp/StompHelper.cs|,2,2,3,2009-07-06 21:09:07 +0000,2009-09-28 17:06:08 +0000,b12352dc90f88b2d1461a66ac5b73fbcd0e0a037,activemq-nms-openwire
AMQNET-181,2009-09-28 20:45:59 +0000,src/main/csharp/Transport/Stomp/StompWireFormat.cs|,2,3,3,2009-08-20 13:49:39 +0000,2009-09-28 20:42:55 +0000,9948eb8ee7c987ecf9f3d5aecc3b9f6fbd6b5d30,activemq-nms-openwire
AMQNET-194,2009-10-15 23:59:44 +0000,src/main/csharp/TransactionContext.cs|,1,3,3,2009-10-07 19:34:55 +0000,2009-10-15 23:52:07 +0000,b98bb9beb04dbee2e28b0c2b8525d4a45bd0e605,activemq-nms-openwire
AMQNET-179,2009-10-16 18:52:37 +0000,src/main/csharp/Connection.cs|src/main/csharp/Transport/ResponseCorrelator.cs|src/main/csharp/Transport/Tcp/TcpTransport.cs|,2,3,3,2009-08-14 20:51:38 +0000,2009-10-16 18:49:59 +0000,39f61eaa287595f8a9ad20aaf3fbd0ba42bce275,activemq-nms-openwire
AMQNET-197,2009-10-20 13:14:49 +0000,src/main/csharp/Connection.cs|,2,3,3,2009-10-20 12:45:29 +0000,2009-10-20 13:11:51 +0000,393624f081c2f91fa464acc2cef535f3f1c20457,activemq-nms-openwire
AMQNET-176,2009-10-28 20:28:15 +0000,src/main/csharp/Commands/Message.cs|src/main/csharp/MessageConsumer.cs|,2,2,3,2009-07-08 21:03:16 +0000,2009-10-27 20:01:08 +0000,bbd48b75db5ed87351446dda5bc430b529456b99,activemq-nms-openwire
AMQNET-202,2009-10-30 14:36:52 +0000,src/main/csharp/MessageConsumer.cs|src/main/csharp/Session.cs|,2,3,3,2009-10-30 13:07:44 +0000,2009-10-30 14:36:06 +0000,4d6b155893a11bfd833b5403ca2e200e12d4585b,activemq-nms-openwire
AMQNET-228,2010-01-20 23:47:54 +0000,src/test/csharp/NMSConnectionFactoryTest.cs|,3,4,4,2010-01-20 23:27:27 +0000,2010-01-21 15:38:14 +0000,b227c40a78e46409e4e542257a53b7d0da97f828,activemq-nms-openwire
AMQNET-218,2010-02-04 20:27:29 +0000,src/main/csharp/Threads/DedicatedTaskRunner.cs|,3,3,4,2009-12-10 18:57:58 +0000,2010-02-03 19:30:51 +0000,e8769b76f0e4f45db334de4674c700edcacfb4bd,activemq-nms-openwire
AMQNET-235,2010-02-18 22:30:09 +0000,src/main/csharp/Connection.cs|src/main/csharp/Session.cs|,3,4,4,2010-02-18 21:13:16 +0000,2010-02-18 22:27:37 +0000,2f6f613a4803dc9213ba25c50a86dfc2a0b5498b,activemq-nms-openwire
AMQNET-240,2010-03-04 16:31:25 +0000,src/main/csharp/Transport/InactivityMonitor.cs|,3,4,4,2010-03-04 15:53:54 +0000,2010-03-04 15:55:58 +0000,10ea6c5bd65c48db29b05f5a327e37a4fd65c87e,activemq-nms-openwire
AMQNET-241,2010-03-10 15:36:47 +0000,src/main/csharp/Transport/Failover/FailoverTransport.cs|,3,4,4,2010-03-08 18:09:52 +0000,2010-03-10 15:29:59 +0000,4a5aacd4f4426498463b4d51297138ea79210241,activemq-nms-openwire
AMQNET-246,2010-04-05 16:01:32 +0000,src/main/csharp/Commands/NetworkBridgeFilter.cs|src/main/csharp/Commands/XATransactionId.cs|,3,4,4,2010-04-05 14:25:26 +0000,2010-04-05 15:47:09 +0000,878f35d6bc191865840b9bbfd617875b38f22519,activemq-nms-openwire
AMQNET-258,2010-06-25 17:43:38 +0000,src/main/csharp/Transport/ResponseCorrelator.cs|,4,5,5,2010-06-24 16:34:45 +0000,2010-06-25 17:41:11 +0000,df11e4da03f81d11996ac2de9ef2911b301ee0fc,activemq-nms-openwire
AMQNET-120,2010-06-30 17:39:43 +0000,src/main/csharp/Commands/WireFormatInfo.cs|,1,2,5,2008-10-28 23:59:03 +0000,2010-06-30 17:37:57 +0000,c201ebfe119b58a0fa5aef453b4e00b50c9989d4,activemq-nms-openwire
AMQNET-259,2010-07-09 21:21:46 +0000,src/main/csharp/Connection.cs|src/main/csharp/ConnectionFactory.cs|src/main/csharp/Transport/Failover/FailoverTransport.cs|src/main/csharp/Transport/FutureResponse.cs|src/main/csharp/Transport/ITransport.cs|src/main/csharp/Transport/Mock/MockTransport.cs|src/main/csharp/Transport/Mock/MockTransportFactory.cs|src/main/csharp/Transport/ResponseCorrelator.cs|src/main/csharp/Transport/Tcp/TcpTransport.cs|src/main/csharp/Transport/Tcp/TcpTransportFactory.cs|src/main/csharp/Transport/TransportFilter.cs|,3,5,5,2010-07-08 21:00:17 +0000,2010-07-09 21:10:12 +0000,fb46f5942ff451ccc4d0d3693c13c54973e133e3,activemq-nms-openwire
AMQNET-264,2010-07-20 23:14:10 +0000,src/main/csharp/Connection.cs|src/main/csharp/MessageConsumer.cs|src/main/csharp/Session.cs|,4,5,5,2010-07-20 19:45:35 +0000,2010-07-20 21:42:42 +0000,998b1c80e6f983ab0d327d3ba4c3f4340209bf36,activemq-nms-openwire
AMQNET-267,2010-08-03 23:59:40 +0000,src/main/csharp/Commands/ActiveMQMessage.cs|vs2008-activemq.csproj|,1,5,5,2010-08-03 23:36:47 +0000,2010-08-03 23:58:22 +0000,8e6062b81712240d57f96082972e859962a4f6aa,activemq-nms-openwire
AMQNET-274,2010-08-20 23:35:11 +0000,src/main/csharp/Transport/Failover/FailoverTransport.cs|src/main/csharp/Transport/Failover/FailoverTransportFactory.cs|src/main/csharp/Transport/Mock/MockTransport.cs|src/main/csharp/Transport/Mock/MockTransportFactory.cs|src/test/csharp/NMSConnectionFactoryTest.cs|src/test/csharp/Transport/Mock/MockTransportTest.cs|src/test/csharp/Transport/failover/FailoverTransportTest.cs|,4,5,5,2010-08-19 21:45:42 +0000,2010-08-20 22:27:02 +0000,346af82250b408e65e4c1544c4077473f9fca3d3,activemq-nms-openwire
AMQNET-275,2010-08-24 15:02:04 +0000,src/main/csharp/TransactionContext.cs|src/test/csharp/AMQTransactionTestSupport.cs|,4,5,5,2010-08-23 14:15:55 +0000,2010-08-24 15:00:49 +0000,44b8c9fee35f33af5fb936d17bc933b21f9d39aa,activemq-nms-openwire
AMQNET-281,2010-09-23 16:02:01 +0000,src/main/csharp/Connection.cs|src/main/csharp/ConnectionFactory.cs|src/test/csharp/ConnectionFactoryTest.cs|,5,5,6,2010-09-09 19:56:53 +0000,2010-09-23 15:52:08 +0000,b2ad72418f55cce11e5c3901c811b8e4b5f695da,activemq-nms-openwire
AMQNET-287,2010-09-28 14:51:31 +0000,vs2008-activemq.csproj|,5,6,6,2010-09-28 00:51:16 +0000,2010-09-28 14:50:50 +0000,0f80d1f4294ea2bd631e9e82de12aa8a956f970c,activemq-nms-openwire
AMQNET-289,2010-11-04 19:24:45 +0000,src/main/csharp/SessionExecutor.cs|,6,7,7,2010-10-08 20:51:36 +0000,2010-11-04 19:15:17 +0000,fa90157919b56b1dcc688e7aa2a3f922cc07de15,activemq-nms-openwire
AMQNET-292,2010-11-10 01:25:17 +0000,src/main/csharp/Commands/ActiveMQMessage.cs|src/main/csharp/State/ConnectionState.cs|src/test/csharp/MessageProducerTest.cs|,5,7,7,2010-11-10 00:56:06 +0000,2010-11-10 01:22:19 +0000,c1617fe9474941c612265fbd39d4ec6cf834d03e,activemq-nms-openwire
AMQNET-296,2010-12-14 16:37:21 +0000,src/main/csharp/QueueBrowser.cs|src/main/csharp/Util/SimplePriorityMessageDispatchChannel.cs|src/test/csharp/QueueBrowserTests.cs|,6,7,7,2010-12-14 16:20:54 +0000,2010-12-14 16:24:24 +0000,c16a2da337c8302aea87416b786e866df3696fed,activemq-nms-openwire
AMQNET-298,2010-12-22 19:20:38 +0000,src/main/csharp/Transport/InactivityMonitor.cs|,6,7,7,2010-12-22 15:49:31 +0000,2010-12-22 21:16:37 +0000,9b43e15e4c6be2544edb2fcb6c3c26c32ffd7e1f,activemq-nms-openwire
AMQNET-293,2011-01-03 19:32:19 +0000,src/main/csharp/OpenWire/OpenWireFormat.cs|src/main/csharp/State/ConnectionStateTracker.cs|src/main/csharp/Transport/Failover/FailoverTransport.cs|src/main/csharp/Transport/ITransport.cs|src/main/csharp/Transport/IWireFormat.cs|src/main/csharp/Transport/Mock/MockTransport.cs|src/main/csharp/Transport/Tcp/TcpTransport.cs|src/main/csharp/Transport/TransportFilter.cs|src/main/csharp/Transport/WireFormatNegotiator.cs|,5,7,7,2010-11-24 23:53:04 +0000,2011-01-03 19:25:03 +0000,6fec150f8a82b987e8aac5b67c5f170f66dd1468,activemq-nms-openwire
AMQNET-323,2011-03-31 22:02:50 +0000,src/main/csharp/MessageConsumer.cs|src/test/csharp/AMQRedeliveryPolicyTest.cs|,7,8,8,2011-03-30 23:27:38 +0000,2011-03-31 21:59:56 +0000,998154d19c58aaa28f8e2dc88114dbee22caf71d,activemq-nms-openwire
AMQNET-326,2011-04-22 21:13:35 +0000,src/main/csharp/TransactionContext.cs|,7,8,8,2011-04-08 13:35:37 +0000,2011-05-12 13:58:19 +0000,9e8ed0138e726b3f28a6492b1ae1ae724b02ee01,activemq-nms-openwire
AMQNET-330,2011-06-14 23:08:14 +0000,src/main/csharp/Transport/Failover/FailoverTransport.cs|src/main/csharp/Transport/ITransport.cs|src/main/csharp/Transport/Mock/MockTransport.cs|src/main/csharp/Transport/MutexTransport.cs|src/main/csharp/Transport/Tcp/TcpTransport.cs|src/main/csharp/Transport/TransportFilter.cs|,8,9,9,2011-06-14 20:51:13 +0000,2011-06-14 22:41:40 +0000,2cf4016544a4ec0a6b532288d88f845463bc43b6,activemq-nms-openwire
AMQNET-331,2011-06-18 00:17:46 +0000,src/main/csharp/Connection.cs|src/main/csharp/State/ConnectionState.cs|src/main/csharp/State/ConnectionStateTracker.cs|src/main/csharp/State/SynchronizedObjects.cs|src/main/csharp/Transport/MutexTransport.cs|,8,9,9,2011-06-17 23:25:25 +0000,2011-06-18 00:11:21 +0000,adf23c10d224cf592c1ead5934c0d21f311f94fe,activemq-nms-openwire
AMQNET-334,2011-07-08 19:32:07 +0000,vs2008-activemq-test.csproj|vs2008-activemq.csproj|,8,9,9,2011-07-06 07:30:07 +0000,2011-07-08 18:01:31 +0000,f7b8eff0e8d2bb203af9db5ad0e40fe3c1bb92c3,activemq-nms-openwire
AMQNET-343,2011-09-17 00:26:47 +0000,nmsprovider-test.config|src/main/csharp/Transport/InactivityMonitor.cs|src/test/csharp/NetTxConnectionFactoryTest.cs|src/test/csharp/OpenWire/MaxInactivityDurationTest.cs|,8,9,9,2011-09-17 00:22:36 +0000,2011-09-17 00:24:27 +0000,527369b3b17c0b05a6d665ac9ea00dac00e94ed3,activemq-nms-openwire
AMQNET-339,2011-09-29 18:33:06 +0000,src/main/csharp/Transport/InactivityMonitor.cs|,8,9,9,2011-08-15 12:31:39 +0000,2011-09-29 18:28:20 +0000,9ad498e1f14b9b0803a599ffef29e7231668089b,activemq-nms-openwire
AMQNET-342,2011-09-29 18:48:47 +0000,src/main/csharp/MessageConsumer.cs|src/main/csharp/Session.cs|,8,9,9,2011-09-13 11:00:06 +0000,2011-09-29 18:47:53 +0000,3ab0f755debf5aa077d7b4a39dce560fbe6dfe1e,activemq-nms-openwire
AMQNET-340,2011-11-01 18:16:10 +0000,src/test/csharp/Commands/ActiveMQMessageTest.cs|,7,9,9,2011-08-23 18:17:00 +0000,2011-11-01 18:15:54 +0000,00a2144ffe4d251a2a3c1cb88ca19587560d6f2d,activemq-nms-openwire
AMQNET-344,2011-11-02 21:09:54 +0000,src/main/csharp/Transport/Failover/FailoverTransport.cs|src/main/csharp/Transport/InactivityMonitor.cs|,6,9,9,2011-11-02 19:48:18 +0000,2011-11-02 21:05:47 +0000,f3a27efc7e7745e3a2c6d029a524ff8bbc07edc5,activemq-nms-openwire
AMQNET-336,2011-11-12 21:36:00 +0000,nant.build|src/main/csharp/Transport/Tcp/SslTransportFactory.cs|,8,9,9,2011-07-11 22:24:50 +0000,2011-11-12 21:35:34 +0000,a2837a17a9cdebe41d2e7197f83ff23f396b8a69,activemq-nms-openwire
AMQNET-352,2011-11-21 23:26:13 +0000,src/test/csharp/Transport/failover/FailoverTransactionTest.cs|,9,10,10,2011-11-21 22:31:42 +0000,2011-11-21 22:51:07 +0000,276ccfffa9da72ec3484a996159f35790fadca12,activemq-nms-openwire
AMQNET-353,2011-11-22 20:55:58 +0000,src/main/csharp/State/ConnectionState.cs|src/main/csharp/State/ConnectionStateTracker.cs|src/main/csharp/State/ConsumerState.cs|src/main/csharp/State/ProducerState.cs|src/main/csharp/State/SessionState.cs|src/main/csharp/State/SynchronizedObjects.cs|src/main/csharp/State/Tracked.cs|src/main/csharp/State/TransactionState.cs|src/test/csharp/Transport/failover/FailoverTransactionTest.cs|,9,10,10,2011-11-22 15:36:01 +0000,2011-11-22 20:44:50 +0000,60dcd66eccbfa3d5d789c9bee618daf2f0aafd05,activemq-nms-openwire
AMQNET-360,2011-12-15 00:22:12 +0000,src/main/csharp/Transport/ResponseCorrelator.cs|,7,10,10,2011-12-14 16:45:29 +0000,2011-12-15 00:20:21 +0000,2c5bd6f47a22867e507b245321d04a288f70529c,activemq-nms-openwire
AMQNET-363,2011-12-15 00:23:25 +0000,src/main/csharp/Connection.cs|src/test/csharp/BrokerToNMSExceptionsTest.cs|,7,10,10,2011-12-14 23:26:33 +0000,2011-12-15 00:21:51 +0000,dc0549e2466f560091192840d838fec0be27b8a6,activemq-nms-openwire
AMQNET-362,2011-12-15 00:23:45 +0000,src/main/csharp/State/ConnectionStateTracker.cs|src/test/csharp/Transport/failover/FailoverTransactionTest.cs|,7,10,10,2011-12-14 20:57:14 +0000,2011-12-15 00:22:37 +0000,dbab8d570521e111683c1862854e9dc36550872a,activemq-nms-openwire
AMQNET-366,2011-12-28 19:06:24 +0000,src/main/csharp/Threads/ThreadPoolExecutor.cs|src/test/csharp/AMQNET366Test.cs|,9,10,10,2011-12-22 14:46:08 +0000,2011-12-28 18:52:49 +0000,846107e2bb7a77204155504e97e9a76a775f8af8,activemq-nms-openwire
AMQNET-372,2012-03-08 19:25:17 +0000,src/main/csharp/AdvisoryConsumer.cs|,7,11,11,2012-03-08 19:16:15 +0000,2012-03-08 19:16:40 +0000,8bc428cce8364d7d7e6eaf2d3fbb270415cd0809,activemq-nms-openwire
AMQNET-373,2012-03-08 22:11:33 +0000,src/main/csharp/MessageProducer.cs|,10,11,11,2012-03-08 20:53:20 +0000,2012-03-08 22:08:08 +0000,bfdd3614c4bf7dbc407eb848d2e7601f7fc033ff,activemq-nms-openwire
AMQNET-378,2012-04-11 00:58:17 +0000,src/main/csharp/Connection.cs|src/test/csharp/TempDestinationTest.cs|,10,11,11,2012-04-10 10:44:37 +0000,2012-04-10 23:56:04 +0000,0420c0c5fa650124b91a55804e3702d4120658b5,activemq-nms-openwire
AMQNET-377,2012-04-18 22:34:49 +0000,src/main/csharp/Connection.cs|,10,11,12,2012-04-10 00:48:19 +0000,2012-04-12 22:23:26 +0000,31dcddcba1fc7a2e613492c4c3c43603d9fd4342,activemq-nms-openwire
AMQNET-380,2012-04-13 13:58:31 +0000,src/main/csharp/Transport/Failover/FailoverTransport.cs|,10,12,12,2012-04-13 13:53:44 +0000,2012-04-13 13:54:34 +0000,e6894b90df079e14cda9feb6126ba4811e16150c,activemq-nms-openwire
AMQNET-379,2012-04-13 18:15:11 +0000,src/main/csharp/Connection.cs|,10,11,12,2012-04-11 14:57:10 +0000,2012-04-13 18:11:00 +0000,dd5f310db496747d3fed80ada09fc9845eb50496,activemq-nms-openwire
AMQNET-381,2012-04-16 15:49:54 +0000,src/main/csharp/Transport/TransportFactory.cs|,11,12,12,2012-04-16 08:54:43 +0000,2012-04-16 15:47:26 +0000,b62dbf4e375409f700c25b99a2d39799a25ae051,activemq-nms-openwire
AMQNET-382,2012-04-23 19:37:12 +0000,src/main/csharp/Transport/Discovery/Multicast/MulticastDiscoveryAgent.cs|,11,12,12,2012-04-19 16:13:25 +0000,2012-04-23 19:33:13 +0000,07dfe5aab18b2c56631cccad27522a28e8190837,activemq-nms-openwire
AMQNET-394,2012-08-21 16:42:40 +0000,src/main/csharp/Connection.cs|src/main/csharp/Transport/Failover/FailoverTransport.cs|,13,14,14,2012-08-17 23:05:42 +0000,2012-08-20 23:00:16 +0000,cad2c2a7e835e6a6c653b6e4b5bee0e4e7f2a96a,activemq-nms-openwire
AMQNET-395,2012-08-23 23:45:58 +0000,src/main/csharp/Connection.cs|,10,14,14,2012-08-23 23:38:07 +0000,2012-08-23 23:43:52 +0000,9b5516f05328c19b2cc113d9d958a0d2cf545698,activemq-nms-openwire
AMQNET-399,2012-10-30 21:21:54 +0000,src/main/csharp/NetTxConnection.cs|,13,14,14,2012-10-30 11:18:00 +0000,2012-10-30 21:16:07 +0000,721a9a09bae269f7956f4e2a9a12c454edf2ba32,activemq-nms-openwire
AMQNET-402,2013-01-09 17:14:21 +0000,src/main/csharp/Transport/InactivityMonitor.cs|,12,14,14,2013-01-04 07:13:06 +0000,2013-01-09 17:08:03 +0000,fb78f31b212f871d19f1d43a446eaafc4a3914bc,activemq-nms-openwire
AMQNET-409,2013-02-07 00:58:01 +0000,src/main/csharp/Connection.cs|,13,14,14,2013-02-06 03:49:08 +0000,2013-02-07 00:12:22 +0000,095d85a5f0a88df7625e451f8977c40624db3aea,activemq-nms-openwire
AMQNET-415,2013-02-26 22:13:31 +0000,nmsprovider-test.config|src/main/csharp/Connection.cs|src/main/csharp/ConnectionFactory.cs|src/main/csharp/State/ConnectionState.cs|src/main/csharp/State/ConnectionStateTracker.cs|src/main/csharp/State/SessionState.cs|src/main/csharp/State/SynchronizedObjects.cs|src/main/csharp/State/TransactionState.cs|src/main/csharp/Transport/InactivityMonitor.cs|src/test/csharp/AMQNET366Test.cs|src/test/csharp/AMQQueueTransactionTest.cs|src/test/csharp/AMQRedeliveryPolicyTest.cs|src/test/csharp/AMQTopicTransactionTest.cs|src/test/csharp/Commands/ActiveMQMessageTest.cs|src/test/csharp/Commands/MessageCompressionTest.cs|src/test/csharp/DtcTransactionsTestSupport.cs|src/test/csharp/ExclusiveConsumerTest.cs|src/test/csharp/InvalidCredentialsTest.cs|src/test/csharp/MessageConsumerTest.cs|src/test/csharp/NMSSessionRecoverTest.cs|src/test/csharp/OpenWire/MaxInactivityDurationTest.cs|src/test/csharp/OpenWire/PrefetchSizeZeroTest.cs|src/test/csharp/QueueBrowserTests.cs|src/test/csharp/QueueConsumerPriorityTest.cs|src/test/csharp/RollbackRedeliveryTest.cs|src/test/csharp/Transactions/RecoveryFileLoggerTest.cs|src/test/csharp/VirtualTopicTest.cs|vs2008-activemq-test.csproj|,13,14,14,2013-02-21 18:59:34 +0000,2013-02-26 22:13:02 +0000,220ca67f3a51b835765979dbb5c0e706713b6b2f,activemq-nms-openwire
AMQNET-426,2013-04-16 23:27:54 +0000,src/main/csharp/AdvisoryConsumer.cs|src/main/csharp/Connection.cs|src/main/csharp/ConnectionFactory.cs|src/main/csharp/MessageConsumer.cs|src/main/csharp/QueueBrowser.cs|src/main/csharp/Session.cs|src/test/csharp/InvalidCredentialsTest.cs|,13,14,14,2013-04-16 22:25:54 +0000,2013-04-16 23:27:35 +0000,7a45dec1f8046efb00c110a10a354e70a511cec4,activemq-nms-openwire
AMQNET-424,2013-04-26 20:05:48 +0000,src/test/csharp/MessageConsumerTest.cs|,12,14,14,2013-04-01 17:11:09 +0000,2013-04-26 20:05:15 +0000,a9188a8e8bbbd0d023601875610477eab08b97e2,activemq-nms-openwire
AMQNET-435,2013-04-29 17:32:23 +0000,src/main/csharp/State/ConnectionState.cs|src/main/csharp/State/ConnectionStateTracker.cs|src/main/csharp/State/SessionState.cs|src/main/csharp/State/TransactionState.cs|src/main/csharp/Util/LRUCache.cs|src/test/csharp/State/ConnectionStateTest.cs|src/test/csharp/State/ConnectionStateTrackerTest.cs|src/test/csharp/State/ConsumerStateTest.cs|src/test/csharp/State/ProducerStateTest.cs|src/test/csharp/State/SessionStateTest.cs|src/test/csharp/State/TransactionStateTest.cs|,13,14,14,2013-04-29 17:27:14 +0000,2013-04-29 17:31:07 +0000,7315c11658aa26a337e3bbafa608f7903840b6bd,activemq-nms-openwire
AMQNET-434,2013-04-30 21:17:48 +0000,src/main/csharp/State/ConnectionStateTracker.cs|,13,14,14,2013-04-26 13:25:47 +0000,2013-04-30 21:16:59 +0000,72274885c83dbf73ca132c790b723782de096fcf,activemq-nms-openwire
AMQNET-448,2013-10-09 16:17:52 +0000,src/main/csharp/Transport/Failover/FailoverTransport.cs|,14,15,15,2013-10-09 16:13:01 +0000,2013-10-09 16:14:22 +0000,da07a2791b6a8a62b15ebb117b57ff168c183fba,activemq-nms-openwire
AMQNET-449,2013-10-09 21:57:22 +0000,src/main/csharp/Connection.cs|src/main/csharp/Session.cs|src/main/csharp/State/ConnectionStateTracker.cs|,14,15,15,2013-10-09 21:53:43 +0000,2013-10-09 21:54:27 +0000,70f0612723c199e8dd0b947e6e636a68c4385465,activemq-nms-openwire
AMQNET-450,2013-10-29 13:53:44 +0000,src/main/csharp/NetTxTransactionContext.cs|,14,15,16,2013-10-15 06:38:07 +0000,2013-10-29 13:52:09 +0000,a0effa852e7fef9da976f62ef8105d826ade9020,activemq-nms-openwire
AMQNET-456,2013-10-29 15:43:27 +0000,src/main/csharp/Transport/TransportFactory.cs|,14,16,16,2013-10-29 15:13:29 +0000,2013-10-29 15:40:08 +0000,492038e2e56abeb8bc9174a29c4830af50e74dd5,activemq-nms-openwire
AMQNET-460,2013-11-14 16:29:27 +0000,src/main/csharp/MessageConsumer.cs|,14,16,16,2013-11-14 11:48:27 +0000,2013-11-14 16:26:56 +0000,c46ced5401ad1e6b1d03ed2ffa66baff83e38860,activemq-nms-openwire
AMQNET-338,2014-04-09 23:06:24 +0000,src/main/csharp/Transport/Tcp/TcpTransport.cs|,8,9,16,2011-08-04 22:42:44 +0000,2013-12-11 19:56:34 +0000,c4829fece925d683c23e031a1131b5406d0f5a6c,activemq-nms-openwire
AMQNET-467,2014-01-22 18:38:06 +0000,src/main/csharp/Connection.cs|,16,17,17,2014-01-22 13:43:08 +0000,2014-01-22 18:26:18 +0000,c01648a205e68ff15a1e733ae70b81f46260484f,activemq-nms-openwire
AMQNET-475,2014-04-09 23:56:50 +0000,src/main/csharp/Session.cs|,14,17,17,2014-04-09 23:12:19 +0000,2014-04-09 23:55:39 +0000,7c01110a7a18122d68af417c49c1d4a59e16ce0e,activemq-nms-openwire
AMQNET-480,2014-07-08 18:50:59 +0000,nant.build|,16,17,17,2014-07-07 12:26:12 +0000,2014-07-08 18:43:36 +0000,3de4533143fc72c63777fc3a4bf8000fc624239c,activemq-nms-openwire
AMQNET-482,2014-07-16 17:58:35 +0000,src/main/csharp/MessageConsumer.cs|src/main/csharp/MessageProducer.cs|src/main/csharp/QueueBrowser.cs|src/main/csharp/Session.cs|,13,17,17,2014-07-16 15:49:52 +0000,2014-07-16 17:55:19 +0000,0f5eb15a91dccd4f53cffc5a86403fb285a8d3b4,activemq-nms-openwire
AMQNET-483,2014-07-16 20:27:35 +0000,src/main/csharp/MessageConsumer.cs|,14,17,17,2014-07-16 19:41:03 +0000,2014-07-16 20:14:50 +0000,625b6344b898c4e6d329e0784db9be607ae391f3,activemq-nms-openwire
AMQNET-487,2014-08-11 17:57:54 +0000,src/main/csharp/State/ConnectionStateTracker.cs|,9,18,18,2014-08-07 13:39:05 +0000,2014-08-11 17:56:01 +0000,a39a5465bd224869626c94e28d11a79edf570889,activemq-nms-openwire
AMQNET-488,2014-08-12 17:45:51 +0000,src/main/csharp/Threads/CompositeTaskRunner.cs|src/test/csharp/Threads/CompositeTaskRunnerTest.cs|,16,18,18,2014-08-12 10:06:26 +0000,2014-08-12 16:38:21 +0000,ca858ccad4a6480ee83f16d696cc8cde4452b354,activemq-nms-openwire
AMQNET-471,2014-08-28 15:56:37 +0000,src/main/csharp/Commands/MessageDispatch.cs|src/main/csharp/Connection.cs|src/main/csharp/MessageConsumer.cs|src/main/csharp/Session.cs|src/main/csharp/TransactionContext.cs|src/main/csharp/Util/FifoMessageDispatchChannel.cs|src/main/csharp/Util/MessageDispatchChannel.cs|src/main/csharp/Util/SimplePriorityMessageDispatchChannel.cs|src/test/csharp/Transport/failover/FailoverTransactionTest.cs|,16,17,18,2014-02-21 10:44:02 +0000,2014-08-28 14:30:49 +0000,cf096d5c739ed55b8538460e7fa000a96b625ed9,activemq-nms-openwire
AMQNET-474,2014-08-29 15:31:22 +0000,src/main/csharp/NetTxTransactionContext.cs|,16,17,18,2014-03-19 12:50:03 +0000,2014-08-29 15:12:09 +0000,5b391fefb0eb4bac176adedbec3a7b657cdcb5f2,activemq-nms-openwire
AMQNET-495,2014-12-16 21:26:47 +0000,src/main/csharp/OpenWire/BaseDataStreamMarshaller.cs|src/test/csharp/OpenWire/BaseDataStreamMarshallerTest.cs|,18,19,19,2014-12-16 20:48:16 +0000,2014-12-16 21:01:31 +0000,9210d0a3fffea56abb62a4f9d8a25897a43d9f88,activemq-nms-openwire
AMQNET-496,2014-12-19 15:57:11 +0000,src/main/csharp/Connection.cs|src/main/csharp/ConnectionFactory.cs|src/main/csharp/MessageConsumer.cs|src/test/csharp/BatchedMessagePriorityConsumerTest.cs|vs2008-activemq-test.csproj|,17,19,19,2014-12-19 14:49:02 +0000,2014-12-19 15:56:51 +0000,ee351779eef11fc0abe73d41a9732f4e7a23188a,activemq-nms-openwire
AMQNET-497,2015-01-09 15:08:56 +0000,src/main/csharp/MessageConsumer.cs|,18,20,20,2015-01-09 13:52:05 +0000,2015-01-09 14:54:30 +0000,b9d7a805c06f753c481bee66c22717f3960393b1,activemq-nms-openwire
AMQNET-498,2015-02-24 14:46:29 +0000,src/main/csharp/Connection.cs|,18,21,21,2015-02-24 14:38:24 +0000,2015-02-24 14:44:24 +0000,b20dde9603a2d609b08bf85e3e87a222c4c1a503,activemq-nms-openwire
AMQNET-500,2015-07-08 17:41:25 +0000,src/main/csharp/Transport/Tcp/SslTransport.cs|,19,21,21,2015-04-29 17:50:47 +0000,2015-07-08 17:40:43 +0000,ecc841b68499e1310f8c9fb3f9d57bf642611c56,activemq-nms-openwire
AMQNET-506,2015-08-13 18:06:26 +0000,src/main/csharp/MessageConsumer.cs|src/test/csharp/IndividualAckTest.cs|,19,21,21,2015-08-12 21:07:09 +0000,2015-08-12 22:00:20 +0000,ed48f032697e1df3217ee85ba3c8822de9880068,activemq-nms-openwire
AMQNET-507,2015-08-13 18:03:42 +0000,src/main/csharp/MessageConsumer.cs|,19,21,21,2015-08-12 22:53:33 +0000,2015-08-12 23:09:24 +0000,009fa01fc6a469f64a82c64317168845090e5aef,activemq-nms-openwire
AMQNET-508,2015-08-13 18:03:26 +0000,src/main/csharp/MessageConsumer.cs|,19,21,21,2015-08-12 23:01:18 +0000,2015-08-12 23:09:24 +0000,009fa01fc6a469f64a82c64317168845090e5aef,activemq-nms-openwire
AMQNET-505,2015-08-13 18:06:39 +0000,src/test/csharp/QueueBrowserTests.cs|,19,21,21,2015-08-12 19:05:41 +0000,2015-08-13 16:39:19 +0000,262ebde72bf5a2a5ac67f29dbad2b364345a0bc3,activemq-nms-openwire
AMQNET-489,2014-08-21 22:14:03 +0000,src/main/csharp/Connection.cs|src/main/csharp/Session.cs|,14,18,22,2014-08-20 15:15:19 +0000,2015-09-30 18:55:48 +0000,34770b6010c7c4a1d250ec204d1b37652048bef0,activemq-nms-openwire
AMQNET-513,2015-12-22 20:40:19 +0000,src/main/csharp/MessageConsumer.cs|src/test/csharp/MessageListenerRedeliveryTest.cs|,16,22,22,2015-10-26 12:48:46 +0000,2015-11-19 23:18:39 +0000,78d40fd907781b688e42c5855a27030acb78c767,activemq-nms-openwire
AMQNET-514,2016-01-05 17:29:45 +0000,src/main/csharp/Commands/ActiveMQMapMessage.cs|src/test/csharp/Commands/ActiveMQMapMessageTest.cs|,19,22,22,2015-12-08 09:29:12 +0000,2016-01-05 17:17:31 +0000,44f43190fb3714c908f5d759501ba50958f172f9,activemq-nms-openwire
AMQNET-521,2016-03-15 14:56:27 +0000,src/main/csharp/Util/LRUCache.cs|,21,22,22,2016-03-15 10:37:15 +0000,2016-03-15 14:53:28 +0000,37c86bdc07289cd995a3c4d4ab12992bfafc9da0,activemq-nms-openwire
AMQNET-522,2016-04-01 19:06:15 +0000,src/main/csharp/AdvisoryConsumer.cs|,21,22,22,2016-03-04 14:59:34 +0000,2016-04-01 19:01:57 +0000,9adb65657365375cba3bbe9b95643e9df62e6037,activemq-nms-openwire
AMQNET-523,2016-04-01 20:16:36 +0000,src/main/csharp/Session.cs|,21,22,22,2016-04-01 20:10:35 +0000,2016-04-01 20:14:57 +0000,a3bfe8bed822f84d0d9deef18fd585b238c3f633,activemq-nms-openwire
