Bug ID,Bug Resolution Date by Jira,Classes Touched by Last Fix,Earliest AV,Version of Ticket Creation,Version of Fix,Ticket Creation Date,Fix Date (of most recent commit),Hash (of most recent commit),Git Directory
LANG-261,2006-06-06 02:37:22 +0000,src/java/org/apache/commons/lang/StringUtils.java|src/test/org/apache/commons/lang/StringUtilsTest.java|,4,5,5,2006-06-01 00:10:25 +0000,2006-06-05 19:37:19 +0000,80e957ecc44a5f0404baeb0f36484e4d560e7bce,commons-lang
LANG-100,2006-06-27 07:28:09 +0000,src/java/org/apache/commons/lang/RandomStringUtils.java|src/test/org/apache/commons/lang/RandomStringUtilsTest.java|,4,5,5,2005-11-29 21:57:38 +0000,2006-06-27 00:28:43 +0000,b01434196523fc67daa5d9379c4465b68961fd53,commons-lang
LANG-66,2009-07-19 18:30:42 +0000,src/java/org/apache/commons/lang/StringEscapeUtils.java|,4,5,5,2006-01-10 18:18:56 +0000,2006-07-03 19:19:51 +0000,9c2f070f611bd7cbc4454edc914b0b57c36b01aa,commons-lang
LANG-271,2006-08-10 21:25:47 +0000,src/test/org/apache/commons/lang/LocaleUtilsTest.java|,4,5,5,2006-07-08 23:51:26 +0000,2006-08-10 21:26:27 +0000,e6cde16e0a10771a6f9b82678ca4d5835207578c,commons-lang
LANG-259,2006-08-18 22:21:34 +0000,src/java/org/apache/commons/lang/enums/ValuedEnum.java|src/test/org/apache/commons/lang/enums/EnumEqualsTest.java|src/test/org/apache/commons/lang/enums/ValuedEnumTest.java|src/test/org/apache/commons/lang/enums/ValuedLanguageEnum.java|,4,5,5,2006-05-22 21:10:15 +0000,2006-08-18 22:21:47 +0000,07b7795b336b301def8a7dc6059c8e616ce5582e,commons-lang
LANG-277,2006-08-30 18:19:44 +0000,src/java/org/apache/commons/lang/StringUtils.java|src/test/org/apache/commons/lang/StringUtilsTest.java|,4,5,5,2006-08-30 06:22:04 +0000,2006-08-30 18:22:12 +0000,462a89b82ee3e5fd5d6f69289297f77df83f689a,commons-lang
LANG-278,2006-09-12 15:26:19 +0000,src/java/org/apache/commons/lang/StringUtils.java|src/test/org/apache/commons/lang/StringUtilsTest.java|,4,5,5,2006-09-12 12:09:36 +0000,2006-09-12 15:29:31 +0000,ba57d261f1dfa1926e6bea34726e396865b0411c,commons-lang
LANG-59,2006-07-21 05:15:42 +0000,src/test/org/apache/commons/lang/time/DateUtilsTest.java|,4,5,5,2005-10-26 07:22:00 +0000,2006-09-19 08:18:02 +0000,4b25008ec5afc550231c4b0032bd9a581d51ee36,commons-lang
LANG-281,2006-10-07 00:23:28 +0000,src/java/org/apache/commons/lang/time/DurationFormatUtils.java|src/test/org/apache/commons/lang/time/DurationFormatUtilsTest.java|,4,6,6,2006-10-05 16:51:37 +0000,2006-10-07 00:22:42 +0000,1d5c03fac601d6ce291c3fe3e5e51a11881e2fc0,commons-lang
LANG-294,2006-10-31 22:15:27 +0000,src/java/org/apache/commons/lang/text/StrBuilder.java|src/test/org/apache/commons/lang/text/StrBuilderTest.java|,5,6,6,2006-10-31 11:07:08 +0000,2006-10-31 22:15:00 +0000,8e52e2169b20f7bc3c6c520d4f0c98e5bf06b076,commons-lang
LANG-299,2006-12-12 22:35:59 +0000,src/java/org/apache/commons/lang/text/StrBuilder.java|src/test/org/apache/commons/lang/text/StrBuilderAppendInsertTest.java|,5,6,6,2006-12-11 11:58:25 +0000,2006-12-12 22:34:39 +0000,9b0b19a9162ae8d217b06716962b982703ab4d1b,commons-lang
LANG-300,2006-12-19 21:50:46 +0000,src/java/org/apache/commons/lang/NumberUtils.java|src/java/org/apache/commons/lang/math/NumberUtils.java|src/test/org/apache/commons/lang/math/NumberUtilsTest.java|,5,6,6,2006-12-19 17:47:43 +0000,2006-12-19 21:50:04 +0000,15360774099b2a7230e020751acdf6979b6e3f58,commons-lang
LANG-304,2006-12-22 20:35:51 +0000,src/java/org/apache/commons/lang/LocaleUtils.java|src/test/org/apache/commons/lang/LocaleUtilsTest.java|,5,6,6,2006-12-22 20:32:58 +0000,2006-12-22 20:34:37 +0000,cf20d13c64da51becd1351befe02a06144fd6fc1,commons-lang
LANG-303,2006-12-26 22:08:27 +0000,src/test/org/apache/commons/lang/time/FastDateFormatTest.java|,5,6,6,2006-12-22 19:55:34 +0000,2006-12-26 22:10:10 +0000,6847ebcf5e81ae272d0ff1829a6bb5aab3f9f64a,commons-lang
LANG-102,2007-01-01 23:29:28 +0000,RELEASE-NOTES.txt|,5,5,6,2006-04-24 13:19:35 +0000,2007-01-03 03:49:09 +0000,a1cf642b8d2789a3c6258f543b7e7b5fabc44502,commons-lang
LANG-313,2007-01-17 03:58:45 +0000,src/test/org/apache/commons/lang/StringEscapeUtilsTest.java|,4,6,6,2007-01-16 07:26:30 +0000,2007-01-17 03:56:33 +0000,87ee821a5d73b836d89203e15cec2ea86cbe2992,commons-lang
LANG-69,2007-02-06 21:10:31 +0000,src/java/org/apache/commons/lang/builder/ReflectionToStringBuilder.java|src/java/org/apache/commons/lang/builder/ToStringStyle.java|src/test/org/apache/commons/lang/builder/ToStringBuilderTest.java|,4,5,6,2005-08-07 05:14:30 +0000,2007-01-27 07:11:08 +0000,ec4a0fdfac5f8e27aec46f9e04a255cf31b40686,commons-lang
LANG-315,2007-02-06 22:49:59 +0000,RELEASE-NOTES.txt|xdocs/upgradeto2_3.xml|,3,6,6,2007-02-06 13:52:59 +0000,2007-02-06 22:52:29 +0000,406a86f4f3f964b8c20e0c8458e14220fbd5b7aa,commons-lang
LANG-328,2007-05-01 23:50:11 +0000,src/java/org/apache/commons/lang/LocaleUtils.java|src/test/org/apache/commons/lang/LocaleUtilsTest.java|,6,7,7,2007-04-16 23:11:44 +0000,2007-05-01 23:50:01 +0000,75d931a3264b73caa9cdd7d3373375cc33008ddf,commons-lang
LANG-346,2007-08-09 00:25:20 +0000,src/java/org/apache/commons/lang/time/DateUtils.java|src/test/org/apache/commons/lang/time/DateUtilsTest.java|,5,7,7,2007-07-06 20:06:55 +0000,2007-08-09 00:24:59 +0000,050fe8e916507c9716983868284d64e58c1b56d2,commons-lang
LANG-361,2007-10-23 05:32:23 +0000,src/java/org/apache/commons/lang/BooleanUtils.java|,6,7,7,2007-10-22 15:24:05 +0000,2007-10-23 05:31:58 +0000,1cc66e3095828e364dd87721cf8b42636e35f011,commons-lang
LANG-364,2007-10-25 06:25:23 +0000,src/java/org/apache/commons/lang/text/StrTokenizer.java|,6,7,7,2007-10-24 18:32:41 +0000,2007-10-25 06:25:02 +0000,ed7e9b43494e490a51c25c410b2950005fd685ea,commons-lang
LANG-363,2007-10-26 06:09:17 +0000,src/java/org/apache/commons/lang/StringEscapeUtils.java|src/test/org/apache/commons/lang/StringEscapeUtilsTest.java|,6,7,7,2007-10-23 07:12:48 +0000,2007-10-26 06:08:54 +0000,c22d9d59e5b86c33f91d7fa93d71cdc514c2edd9,commons-lang
LANG-380,2007-11-29 16:34:28 +0000,src/java/org/apache/commons/lang/math/Fraction.java|,6,7,7,2007-11-29 16:24:43 +0000,2007-11-29 16:25:54 +0000,673385b43d0d5783039242460ba1c12b3f1f4e92,commons-lang
LANG-385,2007-12-24 07:08:03 +0000,xdocs/developerguide.xml|,6,7,7,2007-12-18 01:28:09 +0000,2007-12-24 07:07:49 +0000,f237b96638f519288d6ba07056b45d69c7e1f505,commons-lang
LANG-381,2008-01-06 23:59:19 +0000,src/java/org/apache/commons/lang/math/IEEE754rUtils.java|src/java/org/apache/commons/lang/math/NumberUtils.java|src/test/org/apache/commons/lang/math/IEEE754rUtilsTest.java|src/test/org/apache/commons/lang/math/NumberUtilsTest.java|,6,7,7,2007-11-30 13:17:41 +0000,2008-01-06 23:58:59 +0000,bee5b923c54e59f877d392e35cb04ab62484c723,commons-lang
LANG-412,2008-02-13 05:45:03 +0000,src/java/org/apache/commons/lang/text/StrBuilder.java|src/test/org/apache/commons/lang/text/StrBuilderTest.java|,6,7,7,2008-02-13 04:23:25 +0000,2008-02-13 05:44:46 +0000,1fe5439baf32af2114958e3cfc3512bd72c84773,commons-lang
LANG-418,2008-03-25 07:36:02 +0000,src/java/org/apache/commons/lang/StringUtils.java|src/test/org/apache/commons/lang/StringUtilsStartsEndsWithTest.java|,7,8,8,2008-03-24 19:24:50 +0000,2008-03-25 07:37:12 +0000,bb8b6f4b0c54f25024b17d1f2abcd4bb98289983,commons-lang
LANG-419,2008-05-11 05:18:15 +0000,src/java/org/apache/commons/lang/WordUtils.java|src/test/org/apache/commons/lang/WordUtilsTest.java|,7,8,8,2008-03-26 17:05:47 +0000,2008-05-11 05:18:02 +0000,4342bd5d69d122a16c735416039b4b2ca27897ad,commons-lang
LANG-302,2008-05-11 05:58:13 +0000,src/java/org/apache/commons/lang/text/StrBuilder.java|,5,6,8,2006-12-22 19:47:10 +0000,2008-05-11 05:57:18 +0000,e1981a5d7be894993549cfc9ed03ab1527d7b634,commons-lang
LANG-442,2008-06-09 06:48:23 +0000,xdocs/userguide.xml|,7,8,8,2008-06-03 14:48:54 +0000,2008-06-09 06:48:45 +0000,b57e9b6fd4d496329ec540f3714dc1ca18138aad,commons-lang
LANG-459,2008-09-16 16:36:51 +0000,src/java/org/apache/commons/lang/IDKey.java|src/java/org/apache/commons/lang/builder/HashCodeBuilder.java|,7,8,8,2008-09-15 16:09:36 +0000,2008-09-16 16:03:14 +0000,3ed99652c84339375f1e6b99bd9c7f71d565e023,commons-lang
LANG-460,2008-09-17 23:27:39 +0000,src/java/org/apache/commons/lang/StringUtils.java|,7,8,8,2008-09-17 08:27:57 +0000,2008-09-17 23:26:20 +0000,fa436d849d61af287341e329f03ea6c16b405cae,commons-lang
LANG-463,2008-10-06 06:05:40 +0000,build.xml|,7,8,8,2008-09-22 09:36:37 +0000,2008-10-06 06:05:32 +0000,9d8846081ae80d36ca8da223dac2d1e116b0af33,commons-lang
LANG-440,2008-11-05 17:01:09 +0000,pom.xml|src/java/org/apache/commons/lang/time/DateUtils.java|src/test/org/apache/commons/lang/time/DateUtilsRoundingTest.java|src/test/org/apache/commons/lang/time/TimeTestSuite.java|,7,8,8,2008-06-02 20:47:48 +0000,2008-11-05 17:00:43 +0000,a6a2d04877d91a4c7cfff889bb64e2627ca60994,commons-lang
LANG-468,2008-11-06 20:36:54 +0000,src/java/org/apache/commons/lang/builder/EqualsBuilder.java|,7,8,8,2008-11-05 15:58:22 +0000,2008-11-06 20:36:17 +0000,b1e8a26177324ece7c786da8cd063076bc131ea1,commons-lang
LANG-477,2009-01-09 22:08:19 +0000,src/java/org/apache/commons/lang/text/ExtendedMessageFormat.java|src/test/org/apache/commons/lang/text/ExtendedMessageFormatTest.java|,7,8,8,2009-01-09 10:05:53 +0000,2009-01-09 22:05:14 +0000,a38e2e942d622c1a84ed35bedb9aba045db7ab79,commons-lang
LANG-480,2009-03-01 20:55:06 +0000,src/java/org/apache/commons/lang/Entities.java|src/test/org/apache/commons/lang/StringEscapeUtilsTest.java|,7,8,8,2009-01-20 17:36:44 +0000,2009-03-01 20:54:40 +0000,c0683957931ffa3df218ff68ca31e257174a6466,commons-lang
LANG-478,2009-03-01 21:18:29 +0000,src/java/org/apache/commons/lang/time/StopWatch.java|,6,8,8,2009-01-09 10:12:28 +0000,2009-03-01 21:18:18 +0000,cb8a0d43eade243f6bcfb391bb5865b0d49366e0,commons-lang
LANG-339,2009-07-19 18:41:12 +0000,src/test/org/apache/commons/lang/StringEscapeUtilsTest.java|,6,7,8,2007-06-10 15:30:53 +0000,2009-07-19 18:41:14 +0000,0bfa6b451ea7fc307904d0d27f853354a60bd4ba,commons-lang
LANG-421,2008-04-02 16:07:57 +0000,src/java/org/apache/commons/lang/StringEscapeUtils.java|,7,8,8,2008-04-02 15:42:39 +0000,2009-07-19 19:04:30 +0000,dff12292a01ee4f03e6f0bf318087790e325220f,commons-lang
LANG-535,2009-10-15 07:31:51 +0000,src/java/org/apache/commons/lang/ClassUtils.java|src/test/org/apache/commons/lang/ClassUtilsTest.java|,7,8,8,2009-09-22 19:53:54 +0000,2009-10-15 07:31:32 +0000,2dc56182579703153e5c9886b3ecd22bbc348b49,commons-lang
LANG-432,2009-10-22 05:47:05 +0000,src/java/org/apache/commons/lang/StringUtils.java|src/test/org/apache/commons/lang/StringUtilsEqualsIndexOfTest.java|,7,8,8,2008-04-25 16:02:31 +0000,2009-10-22 05:46:33 +0000,711e204e73f24e32acb3727a5d9d3b351b6639d1,commons-lang
LANG-393,2008-01-13 07:00:40 +0000,src/java/org/apache/commons/lang/builder/EqualsBuilder.java|src/test/org/apache/commons/lang/builder/EqualsBuilderTest.java|,6,7,8,2008-01-03 13:46:49 +0000,2009-11-14 10:10:19 +0000,9adbbb0bbfe1d76549dd8b6704f183dacb1de29f,commons-lang
LANG-467,2009-11-14 10:10:43 +0000,src/java/org/apache/commons/lang/builder/EqualsBuilder.java|src/test/org/apache/commons/lang/builder/EqualsBuilderTest.java|,7,8,8,2008-10-27 09:53:57 +0000,2009-11-14 10:10:19 +0000,9adbbb0bbfe1d76549dd8b6704f183dacb1de29f,commons-lang
LANG-552,2009-12-14 07:51:45 +0000,src/java/org/apache/commons/lang3/StringUtils.java|src/test/org/apache/commons/lang3/StringUtilsTest.java|,7,8,8,2009-11-09 12:40:57 +0000,2009-12-14 07:51:05 +0000,56550bf2779990da78d2bac1d8287c8a693c6e4b,commons-lang
LANG-538,2009-12-17 06:05:11 +0000,src/java/org/apache/commons/lang3/time/FastDateFormat.java|,7,8,8,2009-10-16 16:47:39 +0000,2009-12-18 07:21:10 +0000,e5ccf096569244af25820f7d8d94893fff00ce8c,commons-lang
LANG-521,2009-12-22 08:08:26 +0000,src/java/org/apache/commons/lang3/math/NumberUtils.java|src/test/org/apache/commons/lang3/math/NumberUtilsTest.java|,7,8,8,2009-08-04 22:21:38 +0000,2009-12-22 06:52:42 +0000,26bc3fe010d5154d3ccac526ec22c429fc3af499,commons-lang
LANG-575,2010-01-09 11:44:17 +0000,src/main/java/org/apache/commons/lang3/builder/CompareToBuilder.java|src/main/java/org/apache/commons/lang3/builder/EqualsBuilder.java|src/main/java/org/apache/commons/lang3/builder/HashCodeBuilder.java|,7,8,8,2009-12-22 09:12:17 +0000,2010-01-09 11:44:06 +0000,5494a87bbb6d6b6f0d176d0c93e4f25718ed3c2a,commons-lang
LANG-581,2010-01-15 03:28:05 +0000,src/main/java/org/apache/commons/lang3/StringUtils.java|,7,8,8,2010-01-14 07:42:29 +0000,2010-01-14 15:37:42 +0000,491a1d6e885c8e13d355b465942c2c6bdf1ed735,commons-lang
LANG-481,2010-01-16 08:04:53 +0000,src/main/java/org/apache/commons/lang3/Range.java|,7,8,8,2009-01-23 19:48:12 +0000,2010-01-16 19:50:33 +0000,6913747d7d3cb4ec3d32b8bf85fd34061e306210,commons-lang
LANG-584,2010-02-02 23:37:20 +0000,src/main/java/org/apache/commons/lang3/exception/ExceptionUtils.java|,7,8,8,2010-01-28 18:22:48 +0000,2010-01-29 17:12:02 +0000,1c5b51d6a670cbaca5879d2d5ac11531627d5161,commons-lang
LANG-530,2009-12-17 07:21:50 +0000,src/test/java/org/apache/commons/lang3/time/DateUtilsTest.java|,7,8,8,2009-09-08 14:38:38 +0000,2010-02-02 17:42:15 +0000,485dd97b184fe42bf9b1434633be84cb6acc75f2,commons-lang
LANG-587,2010-02-05 21:35:08 +0000,src/main/java/org/apache/commons/lang3/ClassUtils.java|src/test/java/org/apache/commons/lang3/ClassUtilsTest.java|,7,8,8,2010-02-05 21:30:56 +0000,2010-02-05 21:31:38 +0000,8f675dd3cbfb8f552bdbbe1cfc646ba5b367983b,commons-lang
LANG-606,2010-03-20 20:17:03 +0000,src/main/java/org/apache/commons/lang3/builder/EqualsBuilder.java|src/test/java/org/apache/commons/lang3/builder/EqualsBuilderTest.java|,8,9,9,2010-03-13 20:10:02 +0000,2010-03-20 20:16:57 +0000,1a60c21395fe7648188d1c91f62ac7baefa12742,commons-lang
LANG-617,2010-09-17 05:12:00 +0000,src/main/java/org/apache/commons/lang3/text/translate/NumericEntityUnescaper.java|src/test/java/org/apache/commons/lang3/text/translate/NumericEntityUnescaperTest.java|,7,9,9,2010-04-13 15:25:28 +0000,2010-06-22 06:34:18 +0000,bef3eb6ed060d5ae14da6ce5a1909675b8cf5650,commons-lang
LANG-631,2010-07-06 07:28:05 +0000,src/main/java/org/apache/commons/lang3/StringUtils.java|,8,9,9,2010-07-05 09:29:44 +0000,2010-07-06 07:26:43 +0000,2055022644c738d77c910cb4737f05f823e29dff,commons-lang
LANG-635,2010-07-20 18:11:17 +0000,src/main/java/org/apache/commons/lang3/builder/CompareToBuilder.java|,8,9,9,2010-07-20 10:02:24 +0000,2010-07-20 18:10:34 +0000,731c0040fe325d143d2edc24606d20791c8e2748,commons-lang
LANG-638,2010-08-03 04:42:18 +0000,src/main/java/org/apache/commons/lang3/math/NumberUtils.java|src/test/java/org/apache/commons/lang3/math/NumberUtilsTest.java|,8,9,9,2010-08-02 10:59:38 +0000,2010-08-03 04:41:04 +0000,50c1fdecb4ed33ec1bb0d449f294c299d5369701,commons-lang
LANG-643,2010-08-29 22:39:13 +0000,src/main/java/org/apache/commons/lang3/StringUtils.java|,8,9,9,2010-08-13 14:52:35 +0000,2010-08-29 22:37:52 +0000,1db9c37e95112a2b796e8d58253f48de8f4816c0,commons-lang
LANG-596,2010-08-29 22:54:57 +0000,src/main/java/org/apache/commons/lang3/text/StrSubstitutor.java|src/test/java/org/apache/commons/lang3/text/StrSubstitutorTest.java|,8,9,9,2010-03-01 12:17:48 +0000,2010-08-29 22:53:42 +0000,f7f19a3d2f98f48924d38fec2308dc3db83445d8,commons-lang
LANG-645,2010-09-08 06:10:03 +0000,src/main/java/org/apache/commons/lang3/time/FastDateFormat.java|src/test/java/org/apache/commons/lang3/time/FastDateFormatTest.java|,8,9,9,2010-08-20 14:11:08 +0000,2010-09-08 06:09:57 +0000,14a0cc2a9baf84a97348263975082ef3857daf97,commons-lang
LANG-656,2010-11-08 15:20:11 +0000,src/main/java/org/apache/commons/lang3/StringUtils.java|,8,9,9,2010-11-08 08:55:37 +0000,2010-11-08 15:18:19 +0000,c5710ced50246219302de8e52754efbcd12380e7,commons-lang
LANG-646,2011-01-17 05:35:23 +0000,src/main/java/org/apache/commons/lang3/StringEscapeUtils.java|src/main/java/org/apache/commons/lang3/text/translate/OctalUnescaper.java|src/test/java/org/apache/commons/lang3/text/translate/OctalUnescaperTest.java|,8,9,10,2010-08-22 17:46:02 +0000,2011-01-17 05:33:33 +0000,345b4836f6e34ba29564dbead73ede2f2309aa74,commons-lang
LANG-672,2011-01-23 05:25:34 +0000,src/main/java/org/apache/commons/lang3/time/DateUtils.java|src/test/java/org/apache/commons/lang3/time/DateUtilsTest.java|,8,10,10,2011-01-17 15:29:32 +0000,2011-01-23 05:25:03 +0000,9c6d3ea78fa936c8eedbd72236fe3f6e217c2b96,commons-lang
LANG-624,2011-02-01 16:31:42 +0000,src/main/java/org/apache/commons/lang3/ClassUtils.java|src/main/java/org/apache/commons/lang3/JavaVersion.java|src/main/java/org/apache/commons/lang3/SystemUtils.java|src/test/java/org/apache/commons/lang3/CharEncodingTest.java|src/test/java/org/apache/commons/lang3/ClassUtilsTest.java|src/test/java/org/apache/commons/lang3/LocaleUtilsTest.java|src/test/java/org/apache/commons/lang3/SystemUtilsTest.java|src/test/java/org/apache/commons/lang3/math/NumberUtilsTest.java|src/test/java/org/apache/commons/lang3/text/ExtendedMessageFormatTest.java|src/test/java/org/apache/commons/lang3/time/DateUtilsTest.java|,8,9,10,2010-05-27 21:09:29 +0000,2011-01-30 03:48:40 +0000,9ae054b7c894706fcaea519a14f48cc773835069,commons-lang
LANG-428,2011-03-01 06:32:13 +0000,src/main/java/org/apache/commons/lang3/StringUtils.java|src/site/changes/changes.xml|src/site/xdoc/article3_0.xml|src/test/java/org/apache/commons/lang3/StringUtilsIsTest.java|,6,8,10,2008-04-24 10:28:10 +0000,2011-03-01 06:31:41 +0000,3c4f60d71bc4bee0158d713be93c2151411d2e98,commons-lang
LANG-728,2011-07-19 05:10:17 +0000,src/test/java/org/apache/commons/lang3/StringEscapeUtilsTest.java|,9,10,11,2011-07-16 08:09:49 +0000,2011-07-19 05:10:03 +0000,5997452fe756861b9362f143c24fd4965ffcef3e,commons-lang
LANG-734,2011-08-02 18:16:48 +0000,src/main/java/org/apache/commons/lang3/CharUtils.java|src/site/changes/changes.xml|,10,11,11,2011-08-02 17:59:48 +0000,2011-08-02 18:04:51 +0000,ad5b9b01497834d0710eb9fa00a4372c3ceb60ec,commons-lang
LANG-727,2011-08-06 15:44:14 +0000,src/test/java/org/apache/commons/lang3/builder/ToStringBuilderTest.java|,10,10,11,2011-07-15 06:58:19 +0000,2011-08-06 15:43:07 +0000,ef346b48b21ef133e7217b1c36babb6d941ad4f4,commons-lang
LANG-736,2011-08-16 14:07:08 +0000,src/main/java/org/apache/commons/lang3/CharUtils.java|,10,11,12,2011-08-02 18:19:53 +0000,2011-08-16 14:06:45 +0000,4c2f18af7fe037c328b7c0e3556d7194ce01d8e4,commons-lang
LANG-746,2011-08-23 12:33:42 +0000,src/main/java/org/apache/commons/lang3/math/NumberUtils.java|src/site/changes/changes.xml|src/test/java/org/apache/commons/lang3/math/NumberUtilsTest.java|,10,12,12,2011-08-23 12:32:12 +0000,2011-08-23 12:32:52 +0000,41326bf5266ecc6472bab28481b77cecd6f7fb5c,commons-lang
LANG-749,2011-09-01 05:10:50 +0000,pom.xml|,11,12,12,2011-08-30 16:50:07 +0000,2011-09-01 05:10:35 +0000,ff66dbcf6e698cc229ed27ad8f981a8411c0a07b,commons-lang
LANG-744,2011-10-10 02:22:20 +0000,src/main/java/org/apache/commons/lang3/StringUtils.java|,11,12,12,2011-08-22 10:41:12 +0000,2011-10-03 23:04:54 +0000,5244e89e73cdf5c963e0741480a1436467db14a0,commons-lang
LANG-772,2011-11-16 03:14:41 +0000,src/main/java/org/apache/commons/lang3/ClassUtils.java|src/site/changes/changes.xml|,11,13,13,2011-11-15 12:37:17 +0000,2011-11-16 03:14:26 +0000,7b7965bf462d354dab0eb15c860c0ef7b3ea7b9c,commons-lang
LANG-773,2011-11-16 13:44:27 +0000,src/main/java/org/apache/commons/lang3/tuple/ImmutablePair.java|,12,13,13,2011-11-16 13:03:08 +0000,2011-11-16 13:44:05 +0000,d534206f65fa2512fe28dd4169d4027898ac8bf3,commons-lang
LANG-775,2011-11-18 00:02:15 +0000,src/main/java/org/apache/commons/lang3/reflect/TypeUtils.java|,12,13,13,2011-11-17 23:38:26 +0000,2011-11-17 23:59:36 +0000,c71d0f03dab384f98ef2c0ba0050822fba22a063,commons-lang
LANG-776,2011-11-18 00:02:32 +0000,src/main/java/org/apache/commons/lang3/reflect/TypeUtils.java|,12,13,13,2011-11-17 23:55:21 +0000,2011-11-17 23:59:36 +0000,c71d0f03dab384f98ef2c0ba0050822fba22a063,commons-lang
LANG-783,2011-12-28 05:58:37 +0000,src/main/java/org/apache/commons/lang3/StringUtils.java|,12,13,13,2011-12-16 08:38:25 +0000,2011-12-28 05:58:31 +0000,bec837759654833087d286e44ea51134d67537eb,commons-lang
LANG-764,2011-12-28 06:33:45 +0000,src/main/java/org/apache/commons/lang3/text/StrBuilder.java|,11,12,13,2011-11-09 12:26:40 +0000,2011-12-28 06:33:21 +0000,1c8d3e6011ad9fc1cd61fd35ffe1d313473483de,commons-lang
LANG-788,2012-02-29 14:39:49 +0000,src/main/java/org/apache/commons/lang3/SerializationUtils.java|src/site/changes/changes.xml|src/test/java/org/apache/commons/lang3/SerializationUtilsTest.java|,12,13,13,2012-02-11 12:36:48 +0000,2012-02-29 14:39:01 +0000,e9429c05e1a4797383fb405928088d2f8563ff97,commons-lang
LANG-800,2012-04-24 12:56:54 +0000,src/main/java/org/apache/commons/lang3/time/DateUtils.java|src/site/changes/changes.xml|,12,13,13,2012-04-18 05:10:12 +0000,2012-04-24 12:52:56 +0000,575965b1ba7aa595844706c02bb81229a69462c0,commons-lang
LANG-802,2012-05-25 14:40:09 +0000,src/changes/changes.xml|src/main/java/org/apache/commons/lang3/LocaleUtils.java|,12,13,13,2012-05-25 10:18:08 +0000,2012-05-25 14:39:38 +0000,4c2e69797f8262cc0546131352c1c5ef6dfdc985,commons-lang
LANG-805,2012-06-09 15:06:42 +0000,src/changes/changes.xml|src/main/java/org/apache/commons/lang3/RandomStringUtils.java|src/test/java/org/apache/commons/lang3/RandomStringUtilsTest.java|,8,13,13,2012-06-09 13:46:34 +0000,2012-06-09 14:58:34 +0000,27bcbcc728434ffb2c45e81c0e75e6a3d6da3441,commons-lang
LANG-807,2012-06-10 12:41:58 +0000,src/changes/changes.xml|src/main/java/org/apache/commons/lang3/RandomStringUtils.java|src/test/java/org/apache/commons/lang3/RandomStringUtilsTest.java|,9,13,13,2012-06-10 12:11:51 +0000,2012-06-10 12:40:48 +0000,4a65cb8da23d6667ac6f91775309b4da9b315d95,commons-lang
LANG-813,2012-07-14 00:54:12 +0000,src/changes/changes.xml|src/main/java/org/apache/commons/lang3/StringUtils.java|src/test/java/org/apache/commons/lang3/StringUtilsEqualsIndexOfTest.java|,12,13,13,2012-07-14 00:15:04 +0000,2012-07-14 00:53:36 +0000,4ae84a33c0b031b835a60a804ab69be2ca060fb9,commons-lang
LANG-814,2012-08-03 17:44:39 +0000,src/main/java/org/apache/commons/lang3/reflect/ConstructorUtils.java|src/test/java/org/apache/commons/lang3/reflect/ConstructorUtilsTest.java|,12,13,13,2012-08-03 17:16:57 +0000,2012-08-03 17:43:33 +0000,c63041d06c284ecd92a90f4e192df37d94a1d228,commons-lang
LANG-817,2012-09-04 15:11:38 +0000,src/changes/changes.xml|src/main/java/org/apache/commons/lang3/SystemUtils.java|,12,13,13,2012-09-04 15:09:22 +0000,2012-09-04 15:10:52 +0000,e2c6ef476dc69bf0d6306c1f1006bdcc97c0c296,commons-lang
LANG-810,2012-09-12 21:54:18 +0000,src/changes/changes.xml|src/main/java/org/apache/commons/lang3/StringUtils.java|,12,13,13,2012-07-07 02:06:06 +0000,2012-09-12 21:52:58 +0000,32b71d09133c2b5e3fea1f6d1effab8bb3776d04,commons-lang
LANG-799,2012-09-22 13:24:57 +0000,src/test/java/org/apache/commons/lang3/time/DateUtilsTest.java|,12,13,13,2012-04-12 21:45:37 +0000,2012-09-24 00:11:23 +0000,a81da42d9039ae2bf4d3c02b2c23969116f979d5,commons-lang
LANG-826,2012-09-25 01:08:06 +0000,src/changes/changes.xml|src/main/java/org/apache/commons/lang3/time/FastDateParser.java|,12,13,13,2012-09-25 01:03:19 +0000,2012-09-25 01:07:01 +0000,62d5c0eecbb3af921c857b9ef3ed0a9e95fb4dee,commons-lang
LANG-828,2012-09-26 18:04:51 +0000,src/main/java/org/apache/commons/lang3/time/FastDateParser.java|src/test/java/org/apache/commons/lang3/time/FastDateParserTest.java|,12,13,13,2012-09-25 16:24:16 +0000,2012-09-26 18:03:24 +0000,d7af9435485453053a61f9baaca616602d8a4fd8,commons-lang
LANG-777,2012-09-27 12:34:13 +0000,RELEASE-NOTES.txt|src/changes/changes.xml|src/changes/release-notes.vm|src/main/resources/templates/release-notes.vm|,12,13,13,2011-11-22 10:23:34 +0000,2012-09-27 12:32:45 +0000,77eed078c853ec624d9d38754b0003e45333e9f9,commons-lang
LANG-838,2012-09-28 23:33:21 +0000,src/changes/changes.xml|src/main/java/org/apache/commons/lang3/ArrayUtils.java|,12,13,13,2012-09-28 22:38:31 +0000,2012-09-28 23:30:31 +0000,2be663db75e15f760ab03cf43ac97dd965414070,commons-lang
LANG-849,2012-11-06 02:00:18 +0000,src/changes/changes.xml|,12,13,13,2012-11-06 01:49:14 +0000,2012-11-06 01:59:50 +0000,4cdb63d6c09ee9a01b6dd0e969559d83f777d76f,commons-lang
LANG-822,2012-11-11 13:18:53 +0000,src/changes/changes.xml|src/main/java/org/apache/commons/lang3/math/NumberUtils.java|src/test/java/org/apache/commons/lang3/math/NumberUtilsTest.java|,12,13,13,2012-09-12 21:22:47 +0000,2012-11-11 13:16:22 +0000,350cf8c2da08ccde6b4d71b19bb3df97256ea368,commons-lang
LANG-865,2013-01-03 06:20:30 +0000,src/changes/changes.xml|src/main/java/org/apache/commons/lang3/LocaleUtils.java|src/test/java/org/apache/commons/lang3/LocaleUtilsTest.java|,12,13,13,2013-01-03 01:38:59 +0000,2013-01-03 06:19:52 +0000,4d46f014fb8ee44386feb5fec52509f35d0e36ea,commons-lang
LANG-881,2013-03-27 16:31:48 +0000,src/changes/changes.xml|src/main/java/org/apache/commons/lang3/math/NumberUtils.java|,12,13,13,2013-03-27 08:43:48 +0000,2013-03-27 15:52:25 +0000,b3db6ed9efd0b8ed8a940f2735abb156030d10f9,commons-lang
LANG-754,2013-04-20 15:18:47 +0000,src/changes/changes.xml|src/main/java/org/apache/commons/lang3/ClassUtils.java|,8,12,13,2011-09-19 12:46:07 +0000,2013-04-20 15:18:08 +0000,d49d8093e2497013c4d78b11d1462a33f451dfda,commons-lang
LANG-882,2013-04-23 06:03:28 +0000,src/changes/changes.xml|src/main/java/org/apache/commons/lang3/text/translate/LookupTranslator.java|src/test/java/org/apache/commons/lang3/text/translate/LookupTranslatorTest.java|,12,13,13,2013-03-28 16:25:26 +0000,2013-04-23 06:00:41 +0000,0cdc976684efcf478397b68c1d54cefc87bb92c9,commons-lang
LANG-693,2013-05-19 10:37:07 +0000,src/changes/changes.xml|src/main/java/org/apache/commons/lang3/math/NumberUtils.java|src/test/java/org/apache/commons/lang3/math/NumberUtilsTest.java|,9,10,13,2011-04-13 09:04:54 +0000,2013-05-19 10:22:13 +0000,8a1042959df80c06dbfa83896594caa8e20ff9d6,commons-lang
LANG-879,2013-05-30 22:13:22 +0000,src/changes/changes.xml|src/main/java/org/apache/commons/lang3/LocaleUtils.java|src/test/java/org/apache/commons/lang3/LocaleUtilsTest.java|,12,13,13,2013-03-18 21:46:29 +0000,2013-05-30 22:12:41 +0000,dcde57852a97a9ac8021d2440b3de5be4870ecf6,commons-lang
LANG-920,2013-10-11 19:39:23 +0000,src/main/java/org/apache/commons/lang3/ArrayUtils.java|src/test/java/org/apache/commons/lang3/ArrayUtilsTest.java|,12,13,13,2013-10-11 19:35:41 +0000,2013-10-11 19:36:39 +0000,a9ae686ec85e4fc326f56a23de8cd0481f7d9c89,commons-lang
LANG-921,2013-10-15 18:32:26 +0000,src/changes/changes.xml|src/main/java/org/apache/commons/lang3/BooleanUtils.java|src/test/java/org/apache/commons/lang3/BooleanUtilsTest.java|,12,13,13,2013-10-15 17:46:38 +0000,2013-10-15 18:31:40 +0000,aadbea734d78e8d535d3a5837643336ca1384bd2,commons-lang
LANG-902,2013-10-16 08:31:09 +0000,src/changes/changes.xml|,12,13,13,2013-06-21 12:24:56 +0000,2013-10-16 08:30:39 +0000,c854dd900739d6bc9baf1c0d86d1e0303f19c195,commons-lang
LANG-917,2013-10-24 20:54:48 +0000,src/changes/changes.xml|src/main/java/org/apache/commons/lang3/text/ExtendedMessageFormat.java|src/test/java/org/apache/commons/lang3/text/ExtendedMessageFormatTest.java|,8,13,13,2013-09-17 07:32:52 +0000,2013-10-24 20:54:34 +0000,be370cd0ef134bb44fde733e4ee91661a012dae5,commons-lang
LANG-938,2014-01-05 13:26:05 +0000,src/changes/changes.xml|,13,13,15,2013-12-30 19:35:57 +0000,2014-01-05 14:58:32 +0000,b9b452dfaa283e141a0823b2b1166ea296e6aabc,commons-lang
LANG-819,2014-01-10 15:42:32 +0000,src/main/java/org/apache/commons/lang3/EnumUtils.java|,11,13,15,2012-09-09 18:40:37 +0000,2014-01-10 15:41:57 +0000,7a62fabdfc3389b822a03711978c8391259042a7,commons-lang
LANG-915,2014-01-11 13:08:03 +0000,src/changes/changes.xml|src/main/java/org/apache/commons/lang3/LocaleUtils.java|src/test/java/org/apache/commons/lang3/LocaleUtilsTest.java|,12,13,15,2013-09-10 12:47:28 +0000,2014-01-11 13:06:36 +0000,8ea0c0284810bd6ec00f608be31abd20dbd4b72b,commons-lang
LANG-951,2014-01-20 17:24:06 +0000,src/test/java/org/apache/commons/lang3/time/DateUtilsFragmentTest.java|,12,15,15,2014-01-14 10:06:55 +0000,2014-01-20 17:33:09 +0000,b5a9cd944c8b6febf55e1191310d02581ac859a8,commons-lang
LANG-943,2014-01-20 18:45:56 +0000,src/changes/changes.xml|src/test/java/org/apache/commons/lang3/time/DurationFormatUtilsTest.java|,12,15,15,2014-01-05 23:24:13 +0000,2014-01-20 18:37:44 +0000,5d10a4a6aa62d96f314a9bc29e5e5b06b967a55b,commons-lang
LANG-936,2014-01-22 08:19:55 +0000,src/changes/changes.xml|src/main/java/org/apache/commons/lang3/StringUtils.java|src/test/java/org/apache/commons/lang3/StringUtilsTest.java|,12,13,15,2013-12-15 15:18:21 +0000,2014-01-22 08:19:22 +0000,8cd2339a9788cf2c6e44b6761d3a19259fbe1df3,commons-lang
LANG-954,2014-01-24 17:14:01 +0000,src/changes/changes.xml|src/main/java/org/apache/commons/lang3/time/FastDateParser.java|,14,15,15,2014-01-19 10:21:56 +0000,2014-01-24 16:00:35 +0000,8630180fffa0e8daf0369f55e9b267307c00e583,commons-lang
LANG-961,2014-01-30 22:08:45 +0000,src/main/java/org/apache/commons/lang3/reflect/MemberUtils.java|,13,15,15,2014-01-30 21:43:29 +0000,2014-01-30 23:28:26 +0000,0c7b32a2115b0869d540ba52d90df7dd67800048,commons-lang
LANG-946,2014-02-01 10:47:00 +0000,src/changes/changes.xml|src/test/java/org/apache/commons/lang3/concurrent/ConstantInitializerTest.java|,14,15,15,2014-01-08 18:45:06 +0000,2014-02-01 10:46:28 +0000,48652f594150affc1848c36649e2380adbd82f94,commons-lang
LANG-969,2014-02-10 02:06:29 +0000,src/changes/changes.xml|src/main/java/org/apache/commons/lang3/StringUtils.java|,14,15,15,2014-02-07 22:02:06 +0000,2014-02-10 02:06:06 +0000,5feaa5fe2c79f1f2e81bdf4730f5cab831024dae,commons-lang
LANG-972,2014-02-11 02:39:41 +0000,src/changes/changes.xml|src/main/java/org/apache/commons/lang3/math/NumberUtils.java|src/test/java/org/apache/commons/lang3/math/NumberUtilsTest.java|,14,15,15,2014-02-11 02:31:03 +0000,2014-02-11 02:34:36 +0000,5a509030a946646780e963b9f492a4eaff734116,commons-lang
LANG-971,2014-02-11 02:54:03 +0000,src/changes/changes.xml|src/main/java/org/apache/commons/lang3/math/NumberUtils.java|src/test/java/org/apache/commons/lang3/math/NumberUtilsTest.java|,14,15,15,2014-02-10 08:17:25 +0000,2014-02-11 02:53:03 +0000,9397608dd35a335d5e14813c0923f9419782980a,commons-lang
LANG-977,2014-02-15 10:36:25 +0000,pom.xml|,14,15,15,2014-02-14 19:57:39 +0000,2014-02-18 18:05:06 +0000,bee1acc69ea97a31a97e5e333becaf3f305cdee4,commons-lang
LANG-987,2014-03-13 21:52:39 +0000,src/changes/changes.xml|src/main/java/org/apache/commons/lang3/time/DateUtils.java|src/test/java/org/apache/commons/lang3/time/DateUtilsFragmentTest.java|,15,16,16,2014-03-13 04:53:05 +0000,2014-03-13 21:40:26 +0000,80bd3fdb42a5d816ded9d9111c7dac3ce57c3101,commons-lang
LANG-995,2014-04-11 13:28:59 +0000,src/changes/changes.xml|src/main/java/org/apache/commons/lang3/text/WordUtils.java|src/test/java/org/apache/commons/lang3/text/WordUtilsTest.java|,17,18,18,2014-04-11 13:12:56 +0000,2014-04-11 13:28:30 +0000,fbb0f7f88c84001e0a92dae6a71b7e43bda65a56,commons-lang
LANG-1001,2014-04-30 21:50:38 +0000,src/changes/changes.xml|src/main/java/org/apache/commons/lang3/time/DateFormatUtils.java|src/main/java/org/apache/commons/lang3/time/DurationFormatUtils.java|src/main/java/org/apache/commons/lang3/time/FastDateFormat.java|src/main/java/org/apache/commons/lang3/time/FastDatePrinter.java|src/main/java/org/apache/commons/lang3/time/StopWatch.java|src/test/java/org/apache/commons/lang3/time/DurationFormatUtilsTest.java|,17,18,18,2014-04-30 20:15:47 +0000,2014-04-30 21:49:35 +0000,b4b51a8fc9eed7274a045b2f3192d77782b0e4fa,commons-lang
LANG-1003,2014-05-04 08:49:49 +0000,src/main/java/org/apache/commons/lang3/time/DurationFormatUtils.java|,17,18,18,2014-04-30 21:02:43 +0000,2014-05-04 08:49:27 +0000,4b74c385628ed1766209a79705a2d5986c23d02c,commons-lang
LANG-1004,2014-08-04 12:24:59 +0000,src/changes/changes.xml|src/main/java/org/apache/commons/lang3/time/DurationFormatUtils.java|src/test/java/org/apache/commons/lang3/time/DurationFormatUtilsTest.java|src/test/java/org/apache/commons/lang3/time/StopWatchTest.java|,17,18,18,2014-04-30 21:11:43 +0000,2014-05-04 15:40:59 +0000,fd54d42f78ae17a96fc005d2fcd080807343aad7,commons-lang
LANG-1035,2014-09-10 11:35:45 +0000,src/changes/changes.xml|src/main/java/org/apache/commons/lang3/builder/EqualsBuilder.java|,17,18,18,2014-08-07 07:59:31 +0000,2014-09-10 11:32:53 +0000,2154d5fbf8cc02cc4d51b63d6a532af06cccd0fc,commons-lang
LANG-1000,2014-09-28 10:12:41 +0000,src/changes/changes.xml|src/main/java/org/apache/commons/lang3/time/FastDateParser.java|src/main/java/org/apache/commons/lang3/time/FastDatePrinter.java|src/test/java/org/apache/commons/lang3/time/DateFormatUtilsTest.java|src/test/java/org/apache/commons/lang3/time/FastDatePrinterTest.java|,17,18,18,2014-04-30 12:55:19 +0000,2014-09-28 10:11:17 +0000,22b6781a0b96418198dc9146e5191e51d381102f,commons-lang
LANG-1041,2014-10-02 10:13:10 +0000,pom.xml|src/changes/changes.xml|src/test/java/org/apache/commons/lang3/reflect/MethodUtilsTest.java|,17,18,18,2014-10-01 12:20:24 +0000,2014-10-02 10:12:12 +0000,4477ae695211449db1df589e9fdc6de84bf4c640,commons-lang
LANG-1072,2014-12-03 01:40:18 +0000,src/changes/changes.xml|src/main/java/org/apache/commons/lang3/math/NumberUtils.java|src/test/java/org/apache/commons/lang3/math/NumberUtilsTest.java|,17,18,18,2014-12-02 23:46:34 +0000,2014-12-03 01:35:22 +0000,0162032aa4ea1084e4bccbce6fbfc48ae4b0cc48,commons-lang
LANG-1073,2014-12-14 18:27:28 +0000,src/changes/changes.xml|src/main/java/org/apache/commons/lang3/ArrayUtils.java|,17,18,18,2014-12-03 00:01:52 +0000,2014-12-14 18:22:06 +0000,4a2cc4f5da0fbf9552d2b35aa457de64c47626b9,commons-lang
LANG-1071,2014-12-27 16:48:49 +0000,src/changes/changes.xml|src/main/java/org/apache/commons/lang3/StringUtils.java|,17,18,18,2014-12-02 17:53:08 +0000,2014-12-27 16:45:42 +0000,c5332828bde1cc98dfa7a00f65a05bec51ede088,commons-lang
LANG-1055,2015-01-23 08:11:43 +0000,src/changes/changes.xml|src/test/java/org/apache/commons/lang3/text/StrSubstitutorTest.java|,17,18,18,2014-10-22 12:59:09 +0000,2015-01-23 08:10:41 +0000,3181b407668fa09b83ff80126b5abdfc4074ab9a,commons-lang
LANG-1081,2015-01-23 08:28:09 +0000,src/changes/changes.xml|src/main/java/org/apache/commons/lang3/builder/DiffBuilder.java|src/test/java/org/apache/commons/lang3/builder/DiffBuilderTest.java|,17,18,18,2015-01-14 16:11:18 +0000,2015-01-23 08:25:43 +0000,ffc38b1f3b35ddfadb942240b9d2f933ec83d1be,commons-lang
LANG-1061,2015-03-01 18:03:14 +0000,src/changes/changes.xml|src/main/java/org/apache/commons/lang3/time/FastDateParser.java|src/test/java/org/apache/commons/lang3/time/FastDateParserSDFTest.java|,17,18,18,2014-11-05 16:59:04 +0000,2015-03-01 17:59:34 +0000,2367948a0f7bbcf42cb3ef9d97216319a526d3eb,commons-lang
LANG-1092,2015-03-13 20:30:56 +0000,src/changes/changes.xml|src/main/java/org/apache/commons/lang3/time/FastDatePrinter.java|src/test/java/org/apache/commons/lang3/time/FastDatePrinterTest.java|,17,18,18,2015-03-10 23:28:15 +0000,2015-03-13 20:29:06 +0000,8aa1b44ada759e7948f87f55bb29ab87b5eb5469,commons-lang
LANG-948,2015-03-14 12:48:35 +0000,src/changes/changes.xml|src/main/java/org/apache/commons/lang3/text/ExtendedMessageFormat.java|src/test/java/org/apache/commons/lang3/text/ExtendedMessageFormatTest.java|,13,15,18,2014-01-10 11:07:46 +0000,2015-03-14 12:46:02 +0000,bf6ee5c56eb32bb572c240d765d542c048ec9565,commons-lang
LANG-794,2015-04-03 12:02:36 +0000,RELEASE-NOTES.txt|src/changes/changes.xml|src/main/java/org/apache/commons/lang3/SystemUtils.java|,12,13,18,2012-03-16 23:15:36 +0000,2015-04-03 12:01:59 +0000,9c7b0fb8e681b901e5fc40c699e4730855f2c14d,commons-lang
LANG-1069,2015-04-11 06:09:55 +0000,src/changes/changes.xml|src/main/java/org/apache/commons/lang3/CharSet.java|src/test/java/org/apache/commons/lang3/CharSetTest.java|,17,18,19,2014-11-25 12:36:57 +0000,2015-04-11 06:02:34 +0000,71f6746f81bb9650f6f228ea204d85ba2c5b7392,commons-lang
LANG-1112,2015-04-18 18:45:26 +0000,src/changes/changes.xml|src/main/java/org/apache/commons/lang3/builder/MultilineRecursiveToStringStyle.java|,18,19,19,2015-04-09 07:47:19 +0000,2015-04-18 18:44:36 +0000,df37e605fe4b027406bd9dd85b320526ab12a122,commons-lang
LANG-1114,2015-04-29 17:50:27 +0000,src/changes/changes.xml|src/main/java/org/apache/commons/lang3/reflect/TypeUtils.java|src/test/java/org/apache/commons/lang3/reflect/TypeUtilsTest.java|,17,19,19,2015-04-14 19:09:20 +0000,2015-04-29 19:47:09 +0200,640953167adf3580a2c21077d78e7e7ce84ead03,commons-lang
LANG-1116,2015-04-30 23:29:12 +0000,src/changes/changes.xml|src/main/java/org/apache/commons/lang3/time/DateUtils.java|src/main/java/org/apache/commons/lang3/time/FastDateParser.java|src/test/java/org/apache/commons/lang3/time/DateFormatUtilsTest.java|,18,19,19,2015-04-17 20:46:09 +0000,2015-04-30 16:19:38 -0700,bea1ae92aa52a985f8c171c6e17ff7fc4aa61fe4,commons-lang
LANG-916,2015-05-01 02:29:01 +0000,src/changes/changes.xml|,12,13,19,2013-09-13 01:19:23 +0000,2015-05-01 22:11:23 +0200,4796a0a79259bbaf4fdab61dd158cb658e6a8d44,commons-lang
LANG-1128,2015-05-01 22:04:08 +0000,src/changes/changes.xml|src/main/java/org/apache/commons/lang3/builder/ToStringStyle.java|src/test/java/org/apache/commons/lang3/builder/JsonToStringStyleTest.java|,18,19,19,2015-05-01 21:40:10 +0000,2015-05-01 23:55:25 +0200,4a882e76d9c9940ac561e8f17ede77c85e3dbeda,commons-lang
LANG-1132,2015-05-07 18:46:07 +0000,src/changes/changes.xml|src/main/java/org/apache/commons/lang3/builder/ReflectionToStringBuilder.java|src/test/java/org/apache/commons/lang3/builder/ReflectionToStringBuilderTest.java|src/test/java/org/apache/commons/lang3/builder/ToStringBuilderTest.java|,18,19,19,2015-05-06 03:32:29 +0000,2015-05-07 20:44:47 +0200,dee94449e6abb1b999213a0e8efbe937bcff693b,commons-lang
LANG-1147,2015-06-12 23:40:06 +0000,src/changes/changes.xml|src/main/java/org/apache/commons/lang3/EnumUtils.java|src/test/java/org/apache/commons/lang3/EnumUtilsTest.java|,18,19,19,2015-06-12 08:16:54 +0000,2015-06-13 00:38:27 +0100,06b7cd3a31c4565ceb0a127273ef800a3d084caf,commons-lang
LANG-1141,2015-06-24 20:26:56 +0000,src/changes/changes.xml|,18,19,19,2015-06-02 20:13:07 +0000,2015-06-24 22:17:35 +0200,305d5eb8969285dbec10d888186c6f2ee447c142,commons-lang
LANG-1142,2015-07-19 08:27:07 +0000,src/main/java/org/apache/commons/lang3/StringUtils.java|src/test/java/org/apache/commons/lang3/StringUtilsTest.java|,18,19,19,2015-06-05 17:24:33 +0000,2015-07-19 01:25:45 -0700,421db380d060e9f037a8ecbc446c414efaa6923f,commons-lang
LANG-1162,2015-08-11 13:28:00 +0000,src/changes/changes.xml|src/main/java/org/apache/commons/lang3/StringUtils.java|src/test/java/org/apache/commons/lang3/StringUtilsEqualsIndexOfTest.java|,18,19,19,2015-08-10 21:11:38 +0000,2015-08-10 22:42:21 +0100,6849dfc8a660bf8c95354520a2fa1283c9b3aa43,commons-lang
LANG-1163,2015-08-11 13:30:50 +0000,src/changes/changes.xml|src/main/java/org/apache/commons/lang3/CharSequenceUtils.java|src/test/java/org/apache/commons/lang3/CharSequenceUtilsTest.java|,18,19,19,2015-08-11 13:26:46 +0000,2015-08-11 14:29:57 +0100,e8a2c29721d145c52c970049e5469cfb0dcefd87,commons-lang
LANG-1002,2015-07-08 05:51:13 +0000,src/main/java/org/apache/commons/lang3/time/DateFormatUtils.java|src/main/java/org/apache/commons/lang3/time/FastDateFormat.java|src/main/java/org/apache/commons/lang3/time/FastDatePrinter.java|,17,18,19,2014-04-30 20:45:25 +0000,2015-10-14 12:46:08 +0200,6d3796e64bdd5f3f4857bfca6982e6ecf98a2b33,commons-lang
LANG-1182,2015-11-16 19:19:34 +0000,src/changes/changes.xml|src/main/java/org/apache/commons/lang3/StringUtils.java|,18,19,19,2015-10-31 00:13:27 +0000,2015-11-16 20:16:52 +0100,56907c9a96a50af44415111fcea3e76ce4d1890f,commons-lang
LANG-1193,2015-12-11 13:47:20 +0000,src/changes/changes.xml|src/main/java/org/apache/commons/lang3/StringUtils.java|src/test/java/org/apache/commons/lang3/StringUtilsEqualsIndexOfTest.java|,18,19,19,2015-12-11 10:30:14 +0000,2015-12-11 13:41:22 +0000,d75fe46b8f1b0d5c27887052ee4714d6a9c7ea4b,commons-lang
LANG-1192,2015-12-25 20:50:17 +0000,src/changes/changes.xml|src/main/java/org/apache/commons/lang3/time/CalendarReflection.java|src/main/java/org/apache/commons/lang3/time/DateParser.java|src/main/java/org/apache/commons/lang3/time/FastDateFormat.java|src/main/java/org/apache/commons/lang3/time/FastDateParser.java|src/main/java/org/apache/commons/lang3/time/FastDatePrinter.java|src/test/java/org/apache/commons/lang3/time/WeekYearTest.java|,18,19,19,2015-12-10 08:16:10 +0000,2015-12-25 12:44:12 -0800,afc942c7b2bc0317cb549a3fd05080646e7274fc,commons-lang
LANG-1191,2016-01-26 18:52:03 +0000,src/changes/changes.xml|src/main/java/org/apache/commons/lang3/StringUtils.java|src/test/java/org/apache/commons/lang3/StringUtilsEqualsIndexOfTest.java|,18,19,19,2015-12-08 11:56:20 +0000,2016-01-26 10:51:27 -0800,3af7d0dace7bee3f42b88abcaca853765cee3557,commons-lang
LANG-1210,2016-03-01 02:41:25 +0000,src/changes/changes.xml|,17,19,19,2016-02-29 14:00:06 +0000,2016-02-29 18:43:00 -0800,ac78ec294e1b52de016fecb278dae15b60f6fa90,commons-lang
LANG-1219,2016-04-23 20:04:01 +0000,src/changes/changes.xml|src/main/java/org/apache/commons/lang3/time/FastDateParser.java|src/test/java/org/apache/commons/lang3/time/FastDateParser_TimeZoneStrategyTest.java|,18,19,19,2016-04-21 14:09:50 +0000,2016-04-23 13:02:59 -0700,3c92830ec51fb6b6e9a7ca2fb8fda324cd33e48a,commons-lang
LANG-1202,2016-07-26 03:18:58 +0000,src/changes/changes.xml|src/main/java/org/apache/commons/lang3/time/DateUtils.java|src/test/java/org/apache/commons/lang3/time/DateUtilsTest.java|,18,19,19,2016-01-18 16:34:59 +0000,2016-04-23 17:44:48 -0700,c99a787752770b8952297e24e07bd404cb2f4f74,commons-lang
LANG-1205,2016-04-24 03:37:53 +0000,src/changes/changes.xml|src/main/java/org/apache/commons/lang3/math/NumberUtils.java|src/test/java/org/apache/commons/lang3/math/NumberUtilsTest.java|,12,19,19,2016-02-23 16:40:09 +0000,2016-04-23 20:35:15 -0700,b877fb9abef4a19eec9cc7329acbd433648b8f7b,commons-lang
LANG-1178,2016-05-28 11:16:42 +0000,src/changes/changes.xml|,18,19,19,2015-10-24 13:42:12 +0000,2016-05-12 19:48:38 +0200,f02261849ec44fccb94b15b1b0e8afc8fff6edd9,commons-lang
LANG-1232,2016-05-19 17:54:38 +0000,src/main/java/org/apache/commons/lang3/builder/DiffBuilder.java|,18,19,19,2016-05-19 17:39:34 +0000,2016-05-19 19:59:41 +0200,1e4a4906776f7300a9639a7599fccc545791583d,commons-lang
LANG-901,2016-05-28 10:50:31 +0000,src/changes/changes.xml|src/main/java/org/apache/commons/lang3/StringUtils.java|src/test/java/org/apache/commons/lang3/StringUtilsStartsEndsWithTest.java|,12,13,19,2013-06-19 14:53:05 +0000,2016-05-27 17:51:20 +0200,9bc992b133f7169288f1fa6b53a04f74c1549947,commons-lang
LANG-1242,2016-06-02 20:16:24 +0000,src/changes/changes.xml|,18,19,19,2016-05-30 18:59:30 +0000,2016-06-02 22:15:22 +0200,c979d63934bd7baf3608365320b28483fcd5ebd0,commons-lang
LANG-1199,2016-06-05 15:40:28 +0000,src/changes/changes.xml|src/main/java/org/apache/commons/lang3/StringUtils.java|src/test/java/org/apache/commons/lang3/StringUtilsTest.java|,18,19,19,2016-01-13 15:54:32 +0000,2016-06-05 17:39:12 +0200,c35a04102274b330aa833030c15f722b00062812,commons-lang
LANG-1018,2016-06-12 11:29:48 +0000,src/changes/changes.xml|src/test/java/org/apache/commons/lang3/math/NumberUtilsTest.java|,17,18,19,2014-05-27 10:24:53 +0000,2016-06-12 13:25:42 +0200,d2fb3b0865a87cc909e4faab7733f993356141e2,commons-lang
LANG-1251,2016-07-31 17:51:29 +0000,src/changes/changes.xml|,13,19,19,2016-07-27 05:18:01 +0000,2016-07-31 19:49:16 +0200,ed14537b802be2bce96c8d5a0e056daeb6f11b0c,commons-lang
LANG-1226,2016-07-31 17:58:59 +0000,src/changes/changes.xml|src/main/java/org/apache/commons/lang3/StringUtils.java|src/test/java/org/apache/commons/lang3/StringUtilsTest.java|,18,19,19,2016-05-08 18:10:16 +0000,2016-07-31 19:57:50 +0200,7e85d1cf54b1e467607a0019b56f91577ebe2e4f,commons-lang
LANG-1190,2016-07-31 18:03:21 +0000,src/changes/changes.xml|src/main/java/org/apache/commons/lang3/reflect/TypeUtils.java|src/test/java/org/apache/commons/lang3/reflect/TypeUtilsTest.java|,18,19,19,2015-12-07 19:39:32 +0000,2016-07-31 20:02:38 +0200,13cd4e0ac3ab76a4dc091eda457f9a111727cba2,commons-lang
LANG-1214,2016-08-21 11:19:10 +0000,src/changes/changes.xml|,18,19,19,2016-03-29 10:36:34 +0000,2016-08-21 13:18:03 +0200,1169aac7a1a7bc056c37369892f638e137bff3e8,commons-lang
LANG-1230,2016-08-21 17:18:40 +0000,src/changes/changes.xml|,9,19,19,2016-05-16 08:29:17 +0000,2016-08-21 19:18:11 +0200,f30c4607a2b6dcc7dc4476d321fc1de32ce9b780,commons-lang
LANG-1262,2016-08-30 19:54:41 +0000,src/changes/changes.xml|src/main/java/org/apache/commons/lang3/builder/CompareToBuilder.java|,18,19,19,2016-08-29 19:44:21 +0000,2016-08-30 21:53:54 +0200,c7c85ee39892df3ca007c6596c41654865be7e43,commons-lang
LANG-1252,2016-09-11 20:36:38 +0000,src/changes/changes.xml|src/main/java/org/apache/commons/lang3/ArrayUtils.java|src/main/java/org/apache/commons/lang3/ClassUtils.java|src/main/java/org/apache/commons/lang3/DigitalBase10SizeUnit.java|src/main/java/org/apache/commons/lang3/DigitalBase2SizeUnit.java|src/main/java/org/apache/commons/lang3/ObjectUtils.java|src/main/java/org/apache/commons/lang3/RandomStringUtils.java|src/main/java/org/apache/commons/lang3/RandomUtils.java|src/main/java/org/apache/commons/lang3/SerializationUtils.java|src/main/java/org/apache/commons/lang3/StringUtils.java|src/main/java/org/apache/commons/lang3/XMLCharacter.java|src/main/java/org/apache/commons/lang3/builder/CompareToBuilder.java|src/main/java/org/apache/commons/lang3/builder/EqualsBuilder.java|src/main/java/org/apache/commons/lang3/builder/EqualsExclude.java|src/main/java/org/apache/commons/lang3/builder/HashCodeBuilder.java|src/main/java/org/apache/commons/lang3/builder/HashCodeExclude.java|src/main/java/org/apache/commons/lang3/builder/ReflectionToStringBuilder.java|src/main/java/org/apache/commons/lang3/builder/ToStringExclude.java|src/main/java/org/apache/commons/lang3/event/EventListenerSupport.java|src/main/java/org/apache/commons/lang3/exception/ExceptionUtils.java|src/main/java/org/apache/commons/lang3/mutable/MutableByte.java|src/main/java/org/apache/commons/lang3/mutable/MutableDouble.java|src/main/java/org/apache/commons/lang3/mutable/MutableFloat.java|src/main/java/org/apache/commons/lang3/mutable/MutableInt.java|src/main/java/org/apache/commons/lang3/mutable/MutableLong.java|src/main/java/org/apache/commons/lang3/mutable/MutableShort.java|src/main/java/org/apache/commons/lang3/reflect/MethodUtils.java|src/main/java/org/apache/commons/lang3/reflect/TypeUtils.java|src/main/java/org/apache/commons/lang3/text/StrSubstitutor.java|src/main/java/org/apache/commons/lang3/text/WordUtils.java|src/main/java/org/apache/commons/lang3/time/DateFormatUtils.java|src/main/java/org/apache/commons/lang3/time/DatePrinter.java|src/main/java/org/apache/commons/lang3/time/FastDateFormat.java|src/test/java/org/apache/commons/lang3/ClassUtilsTest.java|src/test/java/org/apache/commons/lang3/DigitalBase10SizeUnitTest.java|src/test/java/org/apache/commons/lang3/DigitalBase2SizeUnitTest.java|src/test/java/org/apache/commons/lang3/RandomStringUtilsTest.java|src/test/java/org/apache/commons/lang3/StringUtilsContainsTest.java|src/test/java/org/apache/commons/lang3/StringUtilsEmptyBlankTest.java|src/test/java/org/apache/commons/lang3/StringUtilsEqualsIndexOfTest.java|src/test/java/org/apache/commons/lang3/StringUtilsIsTest.java|src/test/java/org/apache/commons/lang3/StringUtilsTest.java|src/test/java/org/apache/commons/lang3/StringUtilsTrimStripTest.java|src/test/java/org/apache/commons/lang3/XMLCharacterTest.java|src/test/java/org/apache/commons/lang3/reflect/TypeUtilsTest.java|,18,19,19,2016-07-28 11:33:31 +0000,2016-09-11 13:01:59 -0400,dad86bc0a29689fd29bf03b382a39621718e8b05,commons-lang
LANG-1120,2016-05-28 10:57:43 +0000,src/changes/changes.xml|,18,19,19,2015-04-28 09:55:33 +0000,2016-09-11 14:35:35 +0200,716f140d46c1737ca1c6b22a1db10fe041fbf810,commons-lang
LANG-1261,2016-09-18 16:02:58 +0000,src/changes/changes.xml|src/main/java/org/apache/commons/lang3/ArrayUtils.java|src/test/java/org/apache/commons/lang3/ArrayUtilsTest.java|,18,19,19,2016-08-23 08:33:12 +0000,2016-09-18 18:01:43 +0200,42f2058c83f256d8654b349d5249d6f59920f88b,commons-lang
LANG-1248,2016-07-17 02:33:37 +0000,src/changes/changes.xml|,18,19,19,2016-07-05 14:54:04 +0000,2016-09-25 19:20:14 +0200,8f362e7eab0c628b7628ece09f2132aab69d35b4,commons-lang
LANG-1200,2016-01-14 22:12:21 +0000,src/changes/changes.xml|,18,19,19,2016-01-14 22:08:39 +0000,2016-10-02 18:23:42 +0200,496506dedda231ceaecb81d62bb611889ba38be9,commons-lang
LANG-1278,2016-10-21 19:08:03 +0000,src/changes/changes.xml|src/main/java/org/apache/commons/lang3/BooleanUtils.java|,12,20,20,2016-10-21 15:06:39 +0000,2016-10-21 21:07:10 +0200,91d6bd74fa358fdc8d7cb7681c76c509fd9a8e7d,commons-lang
LANG-1216,2016-10-22 12:31:21 +0000,src/test/java/org/apache/commons/lang3/math/NumberUtilsTest.java|,18,19,20,2016-04-08 08:13:00 +0000,2016-10-22 14:29:09 +0200,8274993e293a79fc75829df398233915a6387a4b,commons-lang
LANG-1276,2016-10-23 15:07:01 +0000,src/changes/changes.xml|,14,20,20,2016-10-19 10:17:36 +0000,2016-10-23 17:03:51 +0200,65ed41ff7a8cfb0bbc03620e186382a16e23db56,commons-lang
LANG-1188,2016-10-23 19:59:46 +0000,src/changes/changes.xml|src/main/java/org/apache/commons/lang3/StringUtils.java|,18,19,20,2015-11-26 12:45:17 +0000,2016-10-23 21:59:11 +0200,d6644e4fbe3d125eed2d85e58fc7133466042f10,commons-lang
LANG-1144,2016-10-23 17:37:32 +0000,src/main/java/org/apache/commons/lang3/concurrent/LazyInitializer.java|,18,19,20,2015-06-10 20:07:28 +0000,2016-10-25 00:40:48 +0200,eafeca43268f16aa9d4a179e44b9e7747699c1eb,commons-lang
LANG-1281,2016-11-06 11:20:58 +0000,src/changes/changes.xml|src/main/java/org/apache/commons/lang3/StringUtils.java|,19,20,20,2016-11-03 14:57:00 +0000,2016-11-06 12:19:54 +0100,05647d46e9ac2bf674b320e8467616aa72954f3e,commons-lang
LANG-1186,2015-12-18 01:34:53 +0000,src/main/java/org/apache/commons/lang3/time/FastDateParser.java|,18,19,20,2015-11-20 05:34:21 +0000,2016-11-16 21:44:41 +0100,c14890f08b9bb47ab8ad27f4dd4c714e32961d0d,commons-lang
LANG-1285,2016-11-16 20:47:21 +0000,src/changes/changes.xml|,19,20,20,2016-11-16 06:06:42 +0000,2016-11-16 21:46:17 +0100,8bac0be0361c47da8c5ca24135ca37ffe8d78e29,commons-lang
LANG-1287,2016-11-18 15:53:54 +0000,src/changes/changes.xml|,19,20,20,2016-11-18 15:41:33 +0000,2016-11-18 16:52:06 +0100,d2cc78e2dd2b7ad0171a15df9704fa4fc4f28cc3,commons-lang
LANG-1292,2016-12-01 19:32:59 +0000,src/changes/changes.xml|src/main/java/org/apache/commons/lang3/text/WordUtils.java|src/test/java/org/apache/commons/lang3/text/WordUtilsTest.java|,19,20,20,2016-11-28 14:00:30 +0000,2016-12-01 19:28:28 +0000,a08ec31dbf212a033953dc6916a743dccbb93e37,commons-lang
LANG-1286,2016-12-14 06:34:34 +0000,src/changes/changes.xml|src/main/java/org/apache/commons/lang3/RandomStringUtils.java|src/test/java/org/apache/commons/lang3/RandomStringUtilsTest.java|,19,20,20,2016-11-17 21:00:37 +0000,2016-12-14 06:27:04 +0000,f643b4fa939e89348618ddffae20a804f4461363,commons-lang
LANG-1311,2017-02-17 17:36:14 +0000,src/changes/changes.xml|src/main/java/org/apache/commons/lang3/reflect/TypeUtils.java|src/test/java/org/apache/commons/lang3/reflect/TypeUtilsTest.java|,18,20,20,2017-02-16 15:51:38 +0000,2017-02-17 18:32:32 +0100,1661e5519c4836a5a940b13b7797263443156fc9,commons-lang
LANG-1310,2017-03-19 16:17:35 +0000,src/changes/changes.xml|,19,20,20,2017-02-01 13:36:22 +0000,2017-03-19 17:14:42 +0100,5d6c176388e417869421adf2eb21ac5c291f0884,commons-lang
LANG-1312,2017-02-21 20:14:06 +0000,src/changes/changes.xml|src/main/java/org/apache/commons/lang3/LocaleUtils.java|src/test/java/org/apache/commons/lang3/LocaleUtilsTest.java|,19,20,20,2017-02-19 19:08:44 +0000,2017-04-17 12:55:42 +0200,fb4803623b8f089a8dfd265a68461f4283e7ffad,commons-lang
LANG-1319,2017-05-19 20:45:54 +0000,src/changes/changes.xml|src/main/java/org/apache/commons/lang3/builder/MultilineRecursiveToStringStyle.java|src/test/java/org/apache/commons/lang3/builder/MultilineRecursiveToStringStyleTest.java|,19,20,20,2017-04-06 13:37:32 +0000,2017-05-19 21:44:28 +0100,7587431987258e94748d5f2fda1e6ca049a21600,commons-lang
LANG-1320,2017-04-17 10:58:06 +0000,src/changes/changes.xml|,19,20,20,2017-04-17 10:49:51 +0000,2017-05-23 00:34:59 +0200,9f2fe9bb80065fc249c61c897a0434e9ff48bbf6,commons-lang
LANG-1337,2017-06-07 07:58:24 +0000,src/changes/changes.xml|src/test/java/org/apache/commons/lang3/builder/ToStringBuilderTest.java|,19,20,20,2017-06-06 11:37:40 +0000,2017-06-07 09:57:05 +0200,21bab1d3a0b48c37592686fed7e1b2025fbf78aa,commons-lang
LANG-1350,2017-08-21 15:29:31 +0000,src/changes/changes.xml|src/main/java/org/apache/commons/lang3/reflect/MemberUtils.java|src/test/java/org/apache/commons/lang3/reflect/ConstructorUtilsTest.java|,19,21,21,2017-08-15 19:25:05 +0000,2017-08-21 09:28:01 -0600,cc94767e7eabdfcf9d1cab1d8d1d8556864394c6,commons-lang
LANG-1349,2017-09-08 16:29:22 +0000,src/test/java/org/apache/commons/lang3/builder/EqualsBuilderTest.java|,20,21,21,2017-08-13 10:40:40 +0000,2017-09-08 18:43:16 +0200,fdf05fa29babe21e64f9a5b268dc8406d449d4f1,commons-lang
LANG-1348,2017-10-07 09:57:01 +0000,src/changes/changes.xml|,20,21,21,2017-08-09 14:31:50 +0000,2017-10-07 11:54:38 +0200,00feb98f807cf44c993296052726043a90d70b7e,commons-lang
LANG-1357,2017-10-09 20:33:36 +0000,src/changes/changes.xml|src/main/java/org/apache/commons/lang3/time/FastDateParser.java|,20,21,21,2017-10-09 20:17:09 +0000,2017-10-09 14:30:07 -0600,44854912194177d67cdfa1dc765ba684eb013a4c,commons-lang
LANG-1355,2017-10-10 17:59:31 +0000,src/main/java/org/apache/commons/lang3/time/FastTimeZone.java|,20,21,21,2017-09-28 22:32:25 +0000,2017-10-10 12:01:31 -0600,33a1f82a139a9072892fab77039e9234d205b5af,commons-lang
LANG-1361,2017-10-23 18:07:00 +0000,src/main/java/org/apache/commons/lang3/exception/ExceptionUtils.java|,20,21,21,2017-10-23 14:39:46 +0000,2017-10-23 12:12:54 -0600,0e20d158200e35a893c734f3ba268a1f5d3c48d0,commons-lang
LANG-1370,2017-11-25 08:39:03 +0000,src/changes/changes.xml|,21,22,22,2017-11-25 08:06:01 +0000,2017-11-25 21:38:17 +1300,dd2394323b441e7a22d3c85ce751b619918ee161,commons-lang
LANG-1371,2017-12-20 16:21:15 +0000,src/changes/changes.xml|,21,22,22,2017-12-20 16:14:45 +0000,2017-12-20 17:20:54 +0100,4661422633e155b9d4d6dfdfdcf27826aa8aeb84,commons-lang
LANG-1374,2018-01-04 09:18:28 +0000,src/changes/changes.xml|src/main/java/org/apache/commons/lang3/builder/ToStringStyle.java|src/test/java/org/apache/commons/lang3/builder/JsonToStringStyleTest.java|,21,22,22,2018-01-04 07:13:07 +0000,2018-01-04 22:15:08 +1300,c614fbcc79615f93d2c60a153db6e82d7474c425,commons-lang
LANG-1364,2018-02-11 13:20:49 +0000,src/changes/changes.xml|src/main/java/org/apache/commons/lang3/exception/ExceptionUtils.java|src/test/java/org/apache/commons/lang3/exception/ExceptionUtilsTest.java|,20,21,22,2017-10-28 18:52:59 +0000,2018-02-11 14:19:56 +0100,60412131f3679b720bcaaaf3dea4be666cefea7a,commons-lang
LANG-1060,2018-02-11 11:10:34 +0000,src/test/java/org/apache/commons/lang3/math/NumberUtilsTest.java|,17,18,22,2014-11-05 15:22:10 +0000,2018-02-11 14:55:21 +0100,2ce40494073aa4e9bdcba4c39d24727b7141d227,commons-lang
LANG-1384,2018-03-23 21:02:09 +0000,src/main/java/org/apache/commons/lang3/JavaVersion.java|src/main/java/org/apache/commons/lang3/SystemUtils.java|src/test/java/org/apache/commons/lang3/JavaVersionTest.java|src/test/java/org/apache/commons/lang3/SystemUtilsTest.java|,21,22,22,2018-03-08 11:18:39 +0000,2018-03-08 13:54:31 +0100,50ce8c44e1601acffa39f5568f0fc140aade0564,commons-lang
LANG-1385,2018-03-11 01:17:17 +0000,src/changes/changes.xml|src/main/java/org/apache/commons/lang3/math/NumberUtils.java|src/test/java/org/apache/commons/lang3/math/NumberUtilsTest.java|,21,22,22,2018-03-10 23:47:48 +0000,2018-03-10 18:16:24 -0700,8b62c114cfc5fd347bd8cb5a391fdfa8cb539435,commons-lang
LANG-1391,2018-04-18 18:28:00 +0000,src/main/java/org/apache/commons/lang3/StringUtils.java|,21,22,22,2018-04-12 12:14:34 +0000,2018-04-26 12:07:11 -0400,38cf0c68d577b46b506f75d896cbb5a4b186c6a6,commons-lang
LANG-1397,2018-05-18 17:45:16 +0000,src/changes/changes.xml|src/main/java/org/apache/commons/lang3/text/WordUtils.java|src/test/java/org/apache/commons/lang3/text/WordUtilsTest.java|,21,22,22,2018-05-16 08:14:29 +0000,2018-05-18 11:44:37 -0600,09ef69c5b51115300da6df43690cd455d83c8027,commons-lang
LANG-1380,2018-07-03 03:52:01 +0000,src/changes/changes.xml|src/main/java/org/apache/commons/lang3/time/FastDateParser.java|src/test/java/org/apache/commons/lang3/time/FastDateParserTest.java|,21,22,22,2018-02-22 15:18:47 +0000,2018-07-02 20:39:24 -0700,f56931c176fef5e164b681c740746aebdccccec3,commons-lang
LANG-1419,2018-09-19 15:19:22 +0000,pom.xml|src/changes/changes.xml|,22,23,24,2018-09-06 19:33:39 +0000,2018-09-19 10:51:19 -0400,ae9b31285e798b571a31a16ced2fca7a37ab8287,commons-lang
LANG-1450,2019-04-22 15:45:16 +0000,pom.xml|src/changes/changes.xml|,24,25,25,2019-04-16 11:00:25 +0000,2019-04-22 11:44:29 -0400,89679976b8b05c14707725489122532fcd71e2ce,commons-lang
LANG-1460,2019-08-20 09:56:27 +0000,src/changes/changes.xml|,24,25,25,2019-06-01 15:34:28 +0000,2019-08-20 21:55:03 +1200,3803405af77c4a723ceea6cebbf249618299bea7,commons-lang
LANG-1476,2019-08-20 10:09:25 +0000,src/changes/changes.xml|,24,25,25,2019-08-20 10:01:56 +0000,2019-08-20 22:04:11 +1200,2402e66a8c7e635540f7b9f6b39b83b5c812469d,commons-lang
LANG-1453,2019-09-11 18:50:33 +0000,src/changes/changes.xml|src/test/java/org/apache/commons/lang3/StringUtilsTest.java|,23,25,25,2019-04-24 13:28:23 +0000,2019-09-11 14:50:15 -0400,59231ca9c246d757b1a23e5a8c84cde10e8456a7,commons-lang
LANG-1480,2019-10-12 19:20:38 +0000,src/main/java/org/apache/commons/lang3/ClassUtils.java|src/test/java/org/apache/commons/lang3/ClassUtilsTest.java|,24,25,25,2019-08-22 11:03:29 +0000,2019-10-12 15:16:54 -0400,bedae6950d43008929d9cd109c9e8fb163793bd7,commons-lang
