AMQNET, https://github.com/apache/activemq-nms-openwire.git
ARTEMIS,https://github.com/apache/activemq-artemis.git
AMQCPP,https://github.com/apache/activemq-cpp.git
AVRO,https://github.com/apache/avro.git
FLEX,https://github.com/apache/flex-sdk.git
JENA,https://github.com/apache/jena.git
MRM,https://github.com/apache/archiva.git
AXIS,https://github.com/apache/axis1-java.git
BIGTOP,https://github.com/apache/bigtop.git
BUILDR,https://github.com/apache/buildr.git
STDCXX,https://github.com/apache/stdcxx.git
CAMEL,https://github.com/apache/camel.git
CAY,https://github.com/apache/cayenne.git
CONFIGURATION,https://github.com/apache/commons-configuration.git
LANG,https://github.com/apache/commons-lang.git
MATH,https://github.com/apache/commons-math.git
NET,https://github.com/apache/commons-net.git
CONTINUUM,https://github.com/apache/continuum.git
CXF,https://github.com/apache/cxf.git
DELTASPIKE,https://github.com/apache/deltaspike.git
DERBY,https://github.com/apache/derby.git
DIRSERVER,https://github.com/apache/directory-server.git
DIRSTUDIO,https://github.com/apache/directory-studio.git
FELIX,https://github.com/apache/felix.git
GROOVY,https://github.com/apache/groovy.git
HTTPCLIENT,https://github.com/apache/httpcomponents-client.git
HTTPCORE,https://github.com/apache/httpcomponents-core.git
IGNITE,https://github.com/apache/ignite.git
IMPALA,https://github.com/apache/impala.git
ISIS,https://github.com/apache/isis.git
IVY,https://github.com/apache/ant-ivy.git
JCR,https://github.com/apache/jackrabbit.git
JCLOUDS,https://github.com/apache/jclouds.git
JSPWIKI,https://github.com/apache/jspwiki.git
JUDDI,https://github.com/apache/juddi.git
KARAF,https://github.com/apache/karaf.git
LOG4J2,https://github.com/apache/logging-log4j2.git
MAHOUT,https://github.com/apache/mahout.git
MARMOTTA,https://github.com/apache/marmotta.git
MNG,https://github.com/apache/maven.git
MASSEMBLY,https://github.com/apache/maven-assembly-plugin.git
DOXIA,https://github.com/apache/maven-doxia.git
MJAVADOC,https://github.com/apache/maven-javadoc-plugin.git
MRELEASE,https://github.com/apache/maven-release.git
SCM,https://github.com/apache/maven-scm.git
SUREFIRE,https://github.com/apache/maven-surefire.git
DIRMINA,https://github.com/apache/mina.git
MYFACES,https://github.com/apache/myfaces.git
TOBAGO,https://github.com/apache/myfaces-tobago.git
TRINIDAD,https://github.com/apache/myfaces-trinidad.git
NUTCH,https://github.com/apache/nutch.git
ODE,https://github.com/apache/ode.git
OFBIZ,https://github.com/apache/ofbiz-framework.git
OLINGO,https://github.com/apache/olingo-odata2.git
OPENJPA,https://github.com/apache/openjpa.git
OPENMEETINGS,https://github.com/apache/openmeetings.git
OWB,https://github.com/apache/openwebbeans.git
PDFBOX,https://github.com/apache/pdfbox.git
PLUTO,https://github.com/apache/portals-pluto.git
QPID,https://github.com/apache/qpid.git
DISPATCH,https://github.com/apache/qpid-dispatch.git
QPIDJMS,https://github.com/apache/qpid-jms.git
PROTON,https://github.com/apache/qpid-proton.git
SM,https://github.com/apache/servicemix3.git
SPARK,https://github.com/apache/spark.git
SYNCOPE,https://github.com/apache/syncope.git
TAPESTRY,https://github.com/apache/tapestry4.git
TAP5,https://github.com/apache/tapestry-5.git
THRIFT,https://github.com/apache/thrift.git
TIKA,https://github.com/apache/tika.git
TINKERPOP,https://github.com/apache/tinkerpop.git
WICKET,https://github.com/apache/wicket.git
WSS,https://github.com/apache/ws-wss4j.git
XERCESC,https://github.com/apache/xerces-c.git
XERCESJ,https://github.com/apache/xerces2-j.git
ZOOKEEPER,https://github.com/apache/zookeeper.git
